# 3ds Max Wavefront OBJ Exporter v0.97b - (c)2007 guruware
# File Created: 24.04.2018 15:10:00

mtllib Pickaxe_Low.mtl

#
# object Pickaxe
#

v  -45.2694 0.1118 -1.3410
v  -46.1399 0.1118 -1.3381
v  -44.9649 12.3680 -0.7050
v  -44.0944 12.3680 -0.7079
v  -46.8424 0.1118 -0.8240
v  -45.6674 12.3680 -0.1910
v  -47.1086 0.1118 0.0047
v  -45.9336 12.3680 0.6378
v  -46.8368 0.1118 0.8317
v  -45.6618 12.3680 1.4648
v  -46.1309 0.1118 1.3410
v  -44.9559 12.3680 1.9741
v  -45.2604 0.1118 1.3381
v  -44.0854 12.3680 1.9711
v  -44.5579 0.1118 0.8240
v  -43.3829 12.3680 1.4571
v  -44.2917 0.1118 -0.0047
v  -43.1167 12.3680 0.6283
v  -44.5635 0.1118 -0.8317
v  -43.3885 12.3680 -0.1987
v  -44.9519 23.7613 -1.9246
v  -44.0815 23.7613 -1.9275
v  -45.6545 23.7613 -1.4106
v  -45.9207 23.7613 -0.5818
v  -45.6489 23.7613 0.2452
v  -44.9429 23.7613 0.7545
v  -44.0725 23.7613 0.7515
v  -43.3699 23.7613 0.2375
v  -43.1037 23.7613 -0.5913
v  -43.3755 23.7613 -1.4182
v  -45.7746 33.6899 -1.3381
v  -44.9041 33.6899 -1.3410
v  -46.4771 33.6899 -0.8240
v  -46.7433 33.6899 0.0047
v  -46.4715 33.6899 0.8317
v  -45.7656 33.6899 1.3410
v  -44.8951 33.6899 1.3381
v  -44.1926 33.6899 0.8240
v  -43.9264 33.6899 -0.0047
v  -44.1981 33.6899 -0.8317
v  -46.1484 42.0811 -0.5348
v  -45.2780 42.0811 -0.5377
v  -46.8510 42.0811 -0.0208
v  -47.1172 42.0811 0.8080
v  -46.8454 42.0811 1.6350
v  -46.1394 42.0811 2.1443
v  -45.2690 42.0811 2.1413
v  -44.5664 42.0811 1.6273
v  -44.3002 42.0811 0.7985
v  -44.5720 42.0811 -0.0284
v  -45.8899 49.4623 -0.4908
v  -45.0194 49.4623 -0.4937
v  -46.5924 49.4623 0.0232
v  -46.8586 49.4623 0.8520
v  -46.5868 49.4623 1.6790
v  -45.8809 49.4623 2.1883
v  -45.0104 49.4623 2.1854
v  -44.3079 49.4623 1.6713
v  -44.0417 49.4623 0.8426
v  -44.3135 49.4623 0.0156
v  -46.2464 59.2203 -1.6165
v  -46.2464 58.4797 -1.6165
v  -47.0974 58.4582 -0.9514
v  -47.0974 59.2418 -0.9514
v  -62.6137 59.3030 -2.2529
v  -62.6137 59.2715 -2.2529
v  -62.6137 59.2433 0.0093
v  -62.6137 59.2995 0.0093
v  -62.6137 59.2715 2.2665
v  -62.6137 59.3030 2.2665
v  -47.0898 59.2418 1.1393
v  -47.0898 58.4582 1.1393
v  -46.2351 58.4797 1.7586
v  -46.2351 59.2203 1.7586
v  -45.1534 58.4797 1.7549
v  -45.1534 59.2203 1.7549
v  -44.3085 58.4509 1.1339
v  -44.3091 59.2477 1.1338
v  -26.1548 58.8443 0.1375
v  -26.1549 58.8316 0.1375
v  -26.1548 58.8192 0.0746
v  -26.1548 58.8427 0.0746
v  -26.1548 58.8315 0.0119
v  -26.1548 58.8443 0.0119
v  -44.3154 59.2835 -0.9882
v  -44.3150 58.4556 -0.9691
v  -45.1648 58.4797 -1.6201
v  -45.1648 59.2203 -1.6201
v  -44.7215 0.0000 -0.7161
v  -44.4875 0.0000 -0.0041
v  -46.9128 0.0000 0.0041
v  -46.6836 0.0000 -0.7095
v  -45.3348 65.5319 -1.1737
v  -46.0734 65.5319 -1.1712
v  -46.6809 65.7423 -0.7230
v  -44.7243 65.7423 -0.7296
v  -46.9138 65.8663 0.0041
v  -46.6760 65.7423 0.7296
v  -44.7195 65.7423 0.7230
v  -44.4865 65.8663 -0.0041
v  -46.0655 65.5319 1.1737
v  -45.3269 65.5319 1.1712
v  -44.7167 0.0000 0.7095
v  -46.6788 0.0000 0.7161
v  -46.0788 0.0000 -1.1521
v  -45.3293 0.0000 -1.1546
v  -45.3215 0.0000 1.1521
v  -46.0710 0.0000 1.1546
v  -46.1399 60.2747 -1.3381
v  -46.1399 65.2179 -1.3381
v  -45.2694 65.2179 -1.3410
v  -45.2694 60.2748 -1.3410
v  -45.2694 57.4252 -1.3410
v  -46.1399 57.4252 -1.3381
v  -46.8424 60.2747 -0.8240
v  -46.8424 65.4698 -0.8240
v  -46.8424 57.4252 -0.8240
v  -47.1086 60.2747 0.0047
v  -47.1086 65.6231 0.0047
v  -47.1086 57.4252 0.0047
v  -46.8368 60.2747 0.8317
v  -46.8368 65.4698 0.8317
v  -46.8368 57.4252 0.8317
v  -46.1309 60.2747 1.3410
v  -46.1309 65.2179 1.3410
v  -46.1309 57.4252 1.3410
v  -45.2604 60.2747 1.3381
v  -45.2604 65.2179 1.3381
v  -45.2604 57.4252 1.3381
v  -44.5579 60.2747 0.8240
v  -44.5579 65.4698 0.8240
v  -44.5579 57.4252 0.8240
v  -44.2917 60.2747 -0.0047
v  -44.2917 65.6231 -0.0047
v  -44.2917 57.4252 -0.0047
v  -44.5635 60.2747 -0.8317
v  -44.5635 65.4698 -0.8317
v  -44.5635 57.4252 -0.8317
v  -45.2579 60.2748 -1.3717
v  -45.1763 60.2748 -1.5894
v  -46.2347 60.2747 -1.5858
v  -46.1516 60.2747 -1.3687
v  -44.5331 60.2747 -0.8539
v  -44.3181 60.2747 -1.0112
v  -44.2541 60.2747 -0.0049
v  -43.9877 60.2747 -0.0058
v  -44.5274 60.2747 0.8461
v  -44.3113 60.2747 1.0019
v  -45.2487 60.2747 1.3738
v  -45.1655 60.2747 1.6269
v  -46.1424 60.2747 1.3768
v  -46.2239 60.2747 1.6305
v  -46.8672 60.2747 0.8539
v  -47.0822 60.2747 1.0112
v  -47.1462 60.2747 0.0049
v  -47.4126 60.2747 0.0058
v  -46.8729 60.2747 -0.8461
v  -47.0890 60.2747 -1.0019
v  -46.1516 57.4252 -1.3687
v  -46.2347 57.4252 -1.5858
v  -45.1763 57.4252 -1.5894
v  -45.2579 57.4252 -1.3717
v  -46.8729 57.4252 -0.8461
v  -47.0890 57.4252 -1.0019
v  -47.1462 57.4252 0.0049
v  -47.4126 57.4252 0.0058
v  -46.8672 57.4252 0.8539
v  -47.0822 57.4252 1.0112
v  -46.1424 57.4252 1.3768
v  -46.2239 57.4252 1.6305
v  -45.2487 57.4252 1.3738
v  -45.1655 57.4252 1.6269
v  -44.5274 57.4252 0.8461
v  -44.3113 57.4252 1.0019
v  -44.2541 57.4252 -0.0049
v  -43.9877 57.4252 -0.0058
v  -44.5331 57.4252 -0.8539
v  -44.3181 57.4252 -1.0112
v  -47.0974 59.3525 -0.9514
v  -47.1195 60.2747 -1.0239
v  -46.2464 60.2747 -1.6165
v  -46.2464 59.3249 -1.6165
v  -46.2464 58.3751 -1.6165
v  -46.2464 57.4252 -1.6165
v  -47.1195 57.4252 -1.0239
v  -47.0974 58.3475 -0.9514
v  -47.4500 59.3801 0.0928
v  -47.4503 60.2747 0.0059
v  -47.4503 57.4252 0.0059
v  -47.4500 58.3199 0.0928
v  -47.0898 59.3525 1.1393
v  -47.1126 60.2747 1.0335
v  -47.1126 57.4252 1.0335
v  -47.0898 58.3475 1.1393
v  -46.2351 59.3249 1.7586
v  -46.2354 60.2747 1.6663
v  -46.2354 57.4252 1.6663
v  -46.2351 58.3751 1.7586
v  -45.1534 59.3249 1.7549
v  -45.1537 60.2747 1.6626
v  -45.1537 57.4252 1.6626
v  -45.1534 58.3751 1.7549
v  -44.3091 59.3602 1.1337
v  -44.2808 60.2747 1.0239
v  -44.2808 57.4252 1.0239
v  -44.3085 58.3383 1.1339
v  -43.9497 59.3955 0.0796
v  -43.9500 60.2747 -0.0059
v  -43.9500 57.4252 -0.0059
v  -43.9509 58.3072 0.0795
v  -44.3155 59.4004 -0.9909
v  -44.2877 60.2747 -1.0335
v  -44.2877 57.4252 -1.0335
v  -44.3150 58.3387 -0.9664
v  -45.1648 59.3249 -1.6201
v  -45.1648 60.2748 -1.6201
v  -45.1648 57.4252 -1.6201
v  -45.1648 58.3751 -1.6201
v  -42.7799 58.9690 1.0777
v  -42.7795 59.2809 1.4783
v  -44.2123 59.2228 1.1327
v  -44.2132 58.5001 1.1148
v  -44.2134 58.3980 1.1122
v  -43.8814 58.3900 0.0807
v  -42.7780 58.5844 -0.0085
v  -42.7800 58.9249 1.0211
v  -44.2204 58.3982 -0.9455
v  -42.7798 58.9245 -1.0359
v  -42.7794 59.2808 -1.4927
v  -42.7797 58.9686 -1.0925
v  -44.2206 58.5003 -0.9479
v  -44.2215 59.2229 -0.9652
v  -44.2217 59.3249 -0.9677
v  -43.8791 59.3249 0.0807
v  -42.7794 59.3249 -0.0088
v  -42.7794 59.3249 -1.5492
v  -44.2122 59.3249 1.1353
v  -42.7794 59.3249 1.5349
v  -36.2435 59.3924 0.9576
v  -36.2430 59.5876 0.9577
v  -36.2418 59.1517 -0.0085
v  -36.2436 59.3648 0.9575
v  -36.2434 59.3646 -0.9725
v  -36.2430 59.5876 -0.9726
v  -36.2434 59.3922 -0.9725
v  -36.2429 59.6152 -0.0085
v  -36.2429 59.6152 -0.9727
v  -36.2429 59.6152 0.9578
v  -29.8098 59.2948 0.4798
v  -29.8095 59.3934 0.4799
v  -29.8089 59.1731 -0.0082
v  -29.8098 59.2808 0.4798
v  -29.8097 59.2807 -0.4953
v  -29.8095 59.3934 -0.4953
v  -29.8097 59.2946 -0.4953
v  -29.8095 59.4073 -0.0082
v  -29.8095 59.4073 -0.4953
v  -29.8095 59.4073 0.4799
v  -26.1547 58.8159 0.0746
v  -26.1549 58.8298 0.1375
v  -26.1549 58.8297 0.0119
v  -26.1548 58.8461 0.0746
v  -26.1548 58.8461 0.0119
v  -26.1548 58.8461 0.1375
v  -48.4227 58.9931 -1.5349
v  -48.4227 59.3584 -1.5349
v  -47.1690 59.2255 -0.9547
v  -47.1663 58.4981 -0.9535
v  -47.1659 58.3954 -0.9533
v  -47.4997 58.3990 0.0936
v  -48.4227 58.8418 0.0088
v  -48.4227 58.9416 -1.5349
v  -47.1610 58.3962 1.1415
v  -48.4227 58.9416 1.5492
v  -48.4227 59.3584 1.5492
v  -48.4227 58.9931 1.5492
v  -47.1614 58.4988 1.1416
v  -47.1645 59.2257 1.1426
v  -47.1649 59.3283 1.1428
v  -47.5049 59.3297 0.0931
v  -48.4227 59.4099 0.0088
v  -48.4227 59.4099 1.5492
v  -47.1694 59.3282 -0.9549
v  -48.4227 59.4099 -1.5349
v  -49.7506 59.2208 -1.8357
v  -49.7506 59.4800 -1.8357
v  -49.7506 59.0844 0.0090
v  -49.7506 59.1842 -1.8357
v  -49.7506 59.1842 1.8496
v  -49.7506 59.4800 1.8496
v  -49.7506 59.2208 1.8496
v  -49.7506 59.5166 0.0090
v  -49.7506 59.5166 1.8496
v  -49.7506 59.5166 -1.8357
v  -53.2691 59.3467 -2.1659
v  -53.2691 59.5697 -2.1659
v  -53.2691 59.2154 0.0092
v  -53.2691 59.3152 -2.1659
v  -53.2691 59.3152 2.1796
v  -53.2691 59.5697 2.1796
v  -53.2691 59.3467 2.1796
v  -53.2691 59.6012 0.0092
v  -53.2691 59.6012 2.1796
v  -53.2691 59.6012 -2.1659
v  -62.5645 59.2517 -2.2787
v  -62.5645 59.3232 -2.2787
v  -62.5645 59.2095 0.0093
v  -62.5645 59.2416 -2.2787
v  -62.5645 59.2416 2.2923
v  -62.5645 59.3232 2.2923
v  -62.5645 59.2517 2.2923
v  -62.5645 59.3333 0.0093
v  -62.5645 59.3333 2.2923
v  -62.5645 59.3333 -2.2787
v  -62.6137 59.2354 0.0093
v  -62.6137 59.2670 -2.2529
v  -62.6137 59.2670 2.2665
v  -62.6137 59.3075 0.0093
v  -62.6137 59.3075 2.2665
v  -62.6137 59.3075 -2.2529
# 320 vertices

vn 0.9986 0.0519 -0.0034
vn 0.9997 -0.0250 -0.0034
vn 0.9995 -0.0299 -0.0034
vn 0.8032 0.0978 -0.5877
vn 0.8070 0.0095 -0.5905
vn 0.8070 0.0030 -0.5905
vn 0.3041 0.1065 -0.9467
vn 0.3056 0.0394 -0.9514
vn 0.3056 0.0358 -0.9515
vn -0.3113 0.0747 -0.9474
vn -0.3117 0.0548 -0.9486
vn -0.3117 0.0545 -0.9486
vn -0.8109 0.0142 -0.5850
vn -0.8099 0.0513 -0.5843
vn -0.8100 0.0502 -0.5843
vn -0.9986 -0.0519 0.0034
vn -0.9995 0.0299 0.0034
vn -0.9997 0.0250 0.0034
vn -0.8032 -0.0978 0.5877
vn -0.8070 -0.0030 0.5905
vn -0.8070 -0.0095 0.5905
vn -0.3041 -0.1065 0.9467
vn -0.3056 -0.0358 0.9515
vn -0.3056 -0.0394 0.9514
vn 0.3113 -0.0747 0.9474
vn 0.3117 -0.0545 0.9486
vn 0.3117 -0.0548 0.9486
vn 0.8109 -0.0142 0.5850
vn 0.8100 -0.0502 0.5843
vn 0.8099 -0.0513 0.5843
vn 0.9998 -0.0219 -0.0034
vn 0.9997 -0.0262 -0.0034
vn 0.8063 -0.0429 -0.5900
vn 0.8063 -0.0439 -0.5899
vn 0.3055 -0.0461 -0.9511
vn 0.3055 -0.0463 -0.9511
vn -0.3121 -0.0298 -0.9496
vn -0.3120 -0.0327 -0.9495
vn -0.8110 -0.0017 -0.5851
vn -0.8110 -0.0072 -0.5850
vn -0.9997 0.0262 0.0034
vn -0.9998 0.0219 0.0034
vn -0.8063 0.0439 0.5899
vn -0.8063 0.0429 0.5900
vn -0.3055 0.0463 0.9511
vn -0.3055 0.0461 0.9511
vn 0.3120 0.0327 0.9495
vn 0.3121 0.0298 0.9496
vn 0.8110 0.0072 0.5850
vn 0.8110 0.0017 0.5851
vn 0.9970 0.0777 -0.0034
vn 0.9971 0.0762 -0.0034
vn 0.8068 0.0264 -0.5903
vn 0.8068 0.0232 -0.5903
vn 0.3056 -0.0355 -0.9515
vn 0.3056 -0.0384 -0.9514
vn -0.3111 -0.0840 -0.9467
vn -0.3111 -0.0848 -0.9466
vn -0.8070 -0.0995 -0.5822
vn -0.8070 -0.0996 -0.5822
vn -0.9971 -0.0762 0.0034
vn -0.9970 -0.0777 0.0034
vn -0.8068 -0.0232 0.5903
vn -0.8068 -0.0264 0.5903
vn -0.3056 0.0384 0.9514
vn -0.3056 0.0355 0.9515
vn 0.3111 0.0848 0.9466
vn 0.3111 0.0840 0.9467
vn 0.8070 0.0996 0.5822
vn 0.8070 0.0995 0.5822
vn 0.9987 0.0505 -0.0034
vn 0.9987 0.0508 -0.0034
vn 0.8065 0.0379 -0.5901
vn 0.8064 0.0385 -0.5901
vn 0.3058 0.0118 -0.9520
vn 0.3058 0.0103 -0.9520
vn -0.3122 -0.0188 -0.9498
vn -0.3121 -0.0218 -0.9498
vn -0.8102 -0.0428 -0.5845
vn -0.8102 -0.0448 -0.5845
vn -0.9987 -0.0508 0.0034
vn -0.9987 -0.0505 0.0034
vn -0.8064 -0.0385 0.5901
vn -0.8065 -0.0379 0.5901
vn -0.3058 -0.0103 0.9520
vn -0.3058 -0.0118 0.9520
vn 0.3121 0.0218 0.9498
vn 0.3122 0.0188 0.9498
vn 0.8102 0.0448 0.5845
vn 0.8102 0.0428 0.5845
vn 0.9987 -0.0499 -0.0034
vn 0.9987 -0.0501 -0.0034
vn 0.8065 -0.0380 -0.5901
vn 0.8064 -0.0405 -0.5900
vn 0.3058 -0.0121 -0.9520
vn 0.3058 -0.0151 -0.9520
vn -0.3122 0.0178 -0.9499
vn -0.3122 0.0170 -0.9499
vn -0.8103 0.0412 -0.5846
vn -0.8103 0.0422 -0.5845
vn -0.9987 0.0501 0.0034
vn -0.9987 0.0499 0.0034
vn -0.8064 0.0405 0.5900
vn -0.8065 0.0380 0.5901
vn -0.3058 0.0151 0.9520
vn -0.3058 0.0121 0.9520
vn 0.3122 -0.0170 0.9499
vn 0.3122 -0.0178 0.9499
vn 0.8103 -0.0422 0.5845
vn 0.8103 -0.0412 0.5846
vn 0.7879 0.0000 -0.6158
vn 0.0000 0.0000 -1.0000
vn -0.9579 -0.0005 -0.2870
vn -0.9561 -0.0002 -0.2930
vn -0.8098 -0.0000 -0.5867
vn -1.0000 -0.0000 0.0034
vn -0.8055 -0.0000 0.5926
vn -0.8057 0.0001 0.5924
vn -0.9121 -0.0035 0.4099
vn -0.9491 -0.0086 0.3148
vn -0.0001 -0.0029 1.0000
vn -0.0013 -0.0023 1.0000
vn -0.0001 0.0023 1.0000
vn -0.0001 0.0020 1.0000
vn 0.0011 -0.0016 1.0000
vn 0.0002 -0.0021 1.0000
vn 0.9076 -0.0206 0.4194
vn 0.9042 -0.0188 0.4267
vn 0.7938 -0.0000 0.6082
vn 0.7996 -0.0039 0.6005
vn 0.0000 -1.0000 -0.0000
vn 0.4264 0.9045 -0.0014
vn 0.2386 0.9711 -0.0008
vn -0.0000 1.0000 -0.0000
vn -0.2386 0.9711 0.0008
vn -0.4264 0.9045 0.0014
vn 1.0000 0.0000 -0.0034
vn 0.9408 0.3163 -0.1218
vn 0.9422 0.3147 0.1145
vn 0.9944 -0.1059 -0.0033
vn 0.8070 0.0000 -0.5905
vn 0.8027 -0.1038 -0.5873
vn 0.3058 0.0000 -0.9521
vn 0.3052 -0.0623 -0.9502
vn -0.3122 0.0000 -0.9500
vn -0.3122 0.0034 -0.9500
vn -0.8110 -0.0000 -0.5851
vn -0.8110 0.0000 -0.5851
vn -0.8091 0.0678 -0.5837
vn -1.0000 0.0000 0.0034
vn -0.9408 0.3163 0.1218
vn -0.9422 0.3147 -0.1145
vn -0.9944 0.1059 0.0033
vn -0.8070 0.0000 0.5905
vn -0.8027 0.1038 0.5873
vn -0.3058 0.0000 0.9521
vn -0.3052 0.0623 0.9502
vn 0.3122 0.0000 0.9500
vn 0.3122 -0.0034 0.9500
vn 0.8110 0.0000 0.5851
vn 0.8091 -0.0678 0.5837
vn 0.0000 1.0000 -0.0000
vn -0.0000 1.0000 0.0000
vn 0.7867 -0.0385 -0.6161
vn 0.8052 -0.0414 -0.5916
vn 0.8274 0.0000 -0.5616
vn 0.7984 -0.0173 -0.6019
vn 0.7879 -0.0000 -0.6158
vn 0.8056 0.0353 -0.5913
vn 0.8249 0.0783 -0.5599
vn 0.7987 0.0211 -0.6014
vn 0.3190 -0.0313 -0.9472
vn 0.3130 -0.0382 -0.9490
vn 0.3055 -0.0468 -0.9510
vn 0.3115 -0.0400 -0.9494
vn 0.3184 0.0477 -0.9468
vn 0.3129 0.0400 -0.9490
vn 0.3057 0.0300 -0.9517
vn 0.3115 0.0380 -0.9495
vn -0.3257 0.0140 -0.9454
vn -0.3198 0.0210 -0.9472
vn -0.3121 0.0300 -0.9496
vn -0.3182 0.0229 -0.9477
vn -0.3260 -0.0314 -0.9448
vn -0.3199 -0.0229 -0.9472
vn -0.3122 -0.0124 -0.9499
vn -0.3184 -0.0208 -0.9477
vn -0.8098 0.0378 -0.5855
vn -0.8085 0.0784 -0.5833
vn -0.9036 0.0308 -0.4272
vn -0.8873 -0.0327 -0.4601
vn -0.8085 -0.0784 -0.5833
vn -0.8098 -0.0378 -0.5855
vn -0.9988 0.0484 0.0034
vn -0.9953 0.0967 0.0033
vn -0.9988 -0.0484 0.0034
vn -0.9953 -0.0967 0.0033
vn -0.8959 0.0314 0.4431
vn -0.8046 0.0784 0.5887
vn -0.8057 0.0377 0.5912
vn -0.8060 -0.0376 0.5907
vn -0.8047 -0.0787 0.5884
vn -0.8045 -0.0791 0.5887
vn -0.8596 -0.0317 0.5100
vn -0.3235 0.0317 0.9457
vn -0.3157 0.0209 0.9486
vn -0.3058 0.0072 0.9521
vn -0.3136 0.0180 0.9494
vn -0.3214 -0.0101 0.9469
vn -0.3147 -0.0180 0.9490
vn -0.3057 -0.0287 0.9517
vn -0.3127 -0.0204 0.9496
vn 0.3231 -0.0457 0.9452
vn 0.3185 -0.0391 0.9471
vn 0.3121 -0.0300 0.9496
vn 0.3169 -0.0369 0.9477
vn 0.3277 0.0327 0.9442
vn 0.3208 0.0408 0.9463
vn 0.3118 0.0512 0.9488
vn 0.3188 0.0431 0.9469
vn 0.8029 -0.0006 0.5961
vn 0.8157 -0.0255 0.5780
vn 0.8298 -0.0580 0.5551
vn 0.8589 -0.0247 0.5115
vn 0.8512 0.0173 0.5246
vn 0.8094 0.0410 0.5859
vn 0.8312 0.0000 0.5560
vn 0.8034 0.0164 0.5953
vn -0.6623 -0.7458 0.0723
vn -0.6210 -0.7832 -0.0308
vn -0.9963 -0.0675 -0.0537
vn -0.9916 -0.0228 0.1272
vn -0.2053 -0.8651 0.4577
vn 0.0420 -0.8826 0.4683
vn 0.0308 -0.9880 0.1515
vn -0.3025 -0.9291 0.2129
vn 0.1621 -0.8678 0.4697
vn 0.2709 -0.9513 0.1473
vn 0.6224 -0.7790 -0.0756
vn 0.6617 -0.7496 0.0166
vn 0.9962 -0.0293 0.0826
vn 0.9978 -0.0655 -0.0017
vn 0.0000 0.9998 -0.0222
vn 0.0000 0.9997 -0.0246
vn 0.0000 0.9997 -0.0237
vn -0.9999 -0.0036 0.0145
vn -0.9985 -0.0203 0.0517
vn -0.0026 -0.9991 0.0412
vn -0.2154 -0.9759 0.0363
vn 0.2208 -0.9743 0.0439
vn 0.9965 -0.0035 0.0839
vn 0.9985 -0.0201 0.0505
vn 0.0000 1.0000 -0.0060
vn 0.0000 1.0000 -0.0080
vn -0.9965 -0.0011 0.0836
vn -0.9973 -0.0010 0.0740
vn 0.0017 -0.9989 -0.0474
vn -0.2152 -0.9755 -0.0451
vn 0.2154 -0.9757 -0.0399
vn 0.9944 -0.0008 0.1057
vn 0.9973 -0.0008 0.0740
vn 0.0000 0.9957 0.0922
vn 0.0000 0.9961 0.0881
vn 0.0000 0.9960 0.0890
vn -0.9957 -0.0011 0.0931
vn -0.0029 -0.9952 -0.0974
vn -0.2142 -0.9717 -0.0999
vn 0.2146 -0.9725 -0.0902
vn 0.9905 -0.0009 0.1373
vn 0.0000 0.9884 0.1518
vn 0.9467 -0.0000 0.3222
vn 0.9075 -0.0000 0.4200
vn 0.0875 -0.9157 -0.3922
vn 0.0180 -0.9108 -0.4125
vn 0.0116 -0.9539 -0.2998
vn 0.0586 -0.9659 -0.2522
vn -0.1148 -0.9248 -0.3627
vn -0.0742 -0.9619 -0.2631
vn -0.9644 0.0000 0.2643
vn -0.9644 -0.0000 0.2643
vn -0.9851 -0.0002 0.1720
vn -0.9841 -0.0006 0.1778
vn 0.0093 0.9973 0.0731
vn 0.0108 0.9966 0.0819
vn 0.0028 0.9967 0.0808
vn 0.0000 0.9973 0.0737
vn -0.0169 0.9982 0.0573
vn -0.0036 0.9971 0.0765
vn 0.9875 0.0000 0.1575
vn 0.0021 -0.9943 -0.1068
vn 0.0522 -0.9941 -0.0948
vn -0.0564 -0.9939 -0.0947
vn -0.9875 0.0000 0.1573
vn 0.0000 0.9986 0.0521
vn 0.0000 0.9988 0.0491
vn 0.9986 0.0000 0.0528
vn 0.0018 -0.9999 -0.0159
vn 0.0433 -0.9989 -0.0149
vn -0.0472 -0.9988 -0.0128
vn -0.9986 0.0000 0.0528
vn 0.0000 1.0000 -0.0024
vn 0.0000 1.0000 -0.0033
vn 0.9999 0.0000 0.0121
vn 0.0023 -1.0000 0.0038
vn 0.0140 -0.9999 0.0081
vn -0.0187 -0.9998 0.0018
vn -0.9999 0.0000 0.0121
vn 0.0000 0.9996 -0.0288
vn 1.0000 -0.0000 -0.0034
vn -0.0138 0.7175 0.6964
vn -0.0122 0.7091 0.7050
vn -0.1176 0.9241 0.3637
vn -0.1070 0.9348 0.3387
vn -0.2115 -0.8055 0.5536
vn 0.0193 -0.6483 0.7611
vn 0.2171 0.7316 0.6462
vn 0.2167 0.7336 0.6441
vn 0.1969 -0.7977 0.5700
vn 0.8429 0.4933 -0.2149
vn 0.8445 0.4951 0.2044
vn 0.7706 0.5113 -0.3805
vn 0.7710 0.5075 -0.3846
vn 0.3391 0.5741 -0.7452
vn 0.3440 0.5866 -0.7332
vn 0.3426 0.5829 -0.7368
vn 0.3373 0.5695 -0.7496
vn -0.3432 0.5838 -0.7358
vn -0.3500 0.5701 -0.7433
vn -0.3482 0.5738 -0.7413
vn -0.3409 0.5884 -0.7332
vn -0.7711 0.5088 -0.3829
vn -0.8445 0.4951 -0.2044
vn -0.7683 0.5135 -0.3820
vn -0.8429 0.4933 0.2149
vn -0.7706 0.5113 0.3805
vn -0.7710 0.5075 0.3846
vn -0.3391 0.5741 0.7452
vn -0.3440 0.5866 0.7332
vn -0.3426 0.5829 0.7368
vn -0.3373 0.5695 0.7496
vn 0.3432 0.5838 0.7358
vn 0.3500 0.5701 0.7433
vn 0.3482 0.5738 0.7413
vn 0.3409 0.5884 0.7332
vn 0.7711 0.5088 0.3829
vn 0.7683 0.5135 0.3820
vn 0.4711 -0.8684 -0.1548
vn 0.4722 -0.8684 0.1517
vn 0.2928 -0.8684 0.4002
vn 0.0017 -0.8684 0.4959
vn -0.2901 -0.8684 0.4022
vn -0.4711 -0.8684 0.1548
vn -0.4722 -0.8684 -0.1517
vn -0.2928 -0.8684 -0.4002
vn -0.0017 -0.8684 -0.4959
vn 0.2901 -0.8684 -0.4022
vn 0.0099 0.7441 -0.6680
vn 0.0149 0.7428 -0.6693
vn 0.1091 0.9369 -0.3321
vn 0.1019 0.9440 -0.3138
vn 0.2121 -0.7934 -0.5705
vn 0.2090 -0.8043 -0.5562
vn -0.0164 -0.5403 -0.8413
vn -0.0158 -0.5421 -0.8402
vn -0.1312 0.9408 -0.3126
vn -0.1276 0.9459 -0.2984
vn -0.1841 -0.8007 -0.5700
vn -0.1761 -0.8154 -0.5515
vn 0.9989 -0.0011 0.0460
vn 0.9996 -0.0006 0.0286
vn 0.9996 -0.0006 0.0298
vn 0.9989 -0.0015 0.0460
vn 0.8853 0.0000 -0.4650
vn 0.0124 -0.8852 -0.4650
vn -0.0124 -0.8852 -0.4650
vn -0.8853 0.0000 -0.4650
vn 0.0000 0.8853 -0.4650
vn -0.0023 -0.0030 1.0000
vn -0.0001 0.0022 1.0000
vn 0.0000 -0.0032 1.0000
vn 0.0019 -0.0020 1.0000
vn 0.0002 -0.0020 1.0000
vn -0.6140 -0.7887 -0.0325
vn -0.9936 -0.0276 -0.1100
vn -0.9864 -0.0169 0.1637
vn -0.6181 -0.7679 0.1685
vn 0.6215 -0.7729 0.1278
vn 0.9916 -0.0234 0.1269
vn 0.9994 -0.0329 -0.0109
vn 0.6148 -0.7861 -0.0633
vn -0.9968 -0.0067 0.0797
vn -1.0000 -0.0009 0.0098
vn 0.9998 -0.0059 0.0187
vn 0.9961 -0.0008 0.0879
vn -0.9965 -0.0011 0.0830
vn -0.9965 -0.0011 0.0840
vn 0.9943 -0.0008 0.1070
vn 0.9946 -0.0008 0.1038
vn 0.9481 0.0000 0.3179
vn 0.9409 -0.0000 0.3387
vn -0.9624 0.0000 0.2717
vn -0.9916 -0.0003 0.1297
vn -0.9856 -0.0002 0.1691
vn -0.9650 0.0000 0.2624
vn 0.9879 0.0000 0.1554
vn 0.9868 0.0000 0.1616
vn -0.9869 0.0000 0.1615
vn -0.9879 0.0000 0.1552
vn 0.9986 0.0000 0.0529
vn 0.9986 0.0000 0.0532
vn -0.9986 0.0000 0.0532
vn -0.9986 0.0000 0.0529
vn 0.9996 0.0000 0.0272
vn 0.9996 -0.0006 0.0278
vn 0.9989 -0.0006 0.0472
vn 0.9989 0.0000 0.0479
# 416 vertex normals

vt 0.1356 0.9437 0.0000
vt 0.1220 0.9449 0.0000
vt 0.1220 0.7454 0.0000
vt 0.1363 0.7447 0.0000
vt 0.1083 0.9456 0.0000
vt 0.1078 0.7463 0.0000
vt 0.0946 0.9453 0.0000
vt 0.0936 0.7469 0.0000
vt 0.0809 0.9443 0.0000
vt 0.0796 0.7471 0.0000
vt 0.0671 0.9429 0.0000
vt 0.0658 0.7468 0.0000
vt 0.0531 0.9416 0.0000
vt 0.0521 0.7462 0.0000
vt 0.0390 0.9410 0.0000
vt 0.0385 0.7455 0.0000
vt 0.0252 0.9413 0.0000
vt 0.0246 0.7450 0.0000
vt 0.1631 0.9413 0.0000
vt 0.1493 0.9423 0.0000
vt 0.1506 0.7444 0.0000
vt 0.1645 0.7445 0.0000
vt 0.1219 0.5600 0.0000
vt 0.1356 0.5605 0.0000
vt 0.1081 0.5598 0.0000
vt 0.0942 0.5600 0.0000
vt 0.0800 0.5605 0.0000
vt 0.0657 0.5612 0.0000
vt 0.0513 0.5618 0.0000
vt 0.0371 0.5621 0.0000
vt 0.0231 0.5619 0.0000
vt 0.1493 0.5611 0.0000
vt 0.1631 0.5615 0.0000
vt 0.1210 0.4026 0.0000
vt 0.1347 0.4035 0.0000
vt 0.1073 0.4013 0.0000
vt 0.0937 0.4000 0.0000
vt 0.0800 0.3993 0.0000
vt 0.0662 0.3993 0.0000
vt 0.0524 0.4001 0.0000
vt 0.0386 0.4014 0.0000
vt 0.0248 0.4026 0.0000
vt 0.1485 0.4036 0.0000
vt 0.1623 0.4028 0.0000
vt 0.1209 0.2689 0.0000
vt 0.1348 0.2690 0.0000
vt 0.1071 0.2685 0.0000
vt 0.0935 0.2678 0.0000
vt 0.0800 0.2672 0.0000
vt 0.0665 0.2668 0.0000
vt 0.0530 0.2669 0.0000
vt 0.0393 0.2674 0.0000
vt 0.0254 0.2681 0.0000
vt 0.1487 0.2688 0.0000
vt 0.1627 0.2682 0.0000
vt 0.1217 0.1493 0.0000
vt 0.1359 0.1493 0.0000
vt 0.1075 0.1498 0.0000
vt 0.0934 0.1504 0.0000
vt 0.0793 0.1511 0.0000
vt 0.0654 0.1516 0.0000
vt 0.0516 0.1516 0.0000
vt 0.0379 0.1512 0.0000
vt 0.0242 0.1506 0.0000
vt 0.1500 0.1497 0.0000
vt 0.1639 0.1503 0.0000
vt 0.5595 0.0619 0.0000
vt 0.5583 0.0789 0.0000
vt 0.5371 0.0789 0.0000
vt 0.5369 0.0619 0.0000
vt 0.2134 0.3426 0.0000
vt 0.2139 0.3418 0.0000
vt 0.2512 0.3473 0.0000
vt 0.2512 0.3483 0.0000
vt 0.2884 0.3417 0.0000
vt 0.2889 0.3424 0.0000
vt 0.4846 0.0619 0.0000
vt 0.4885 0.0789 0.0000
vt 0.4675 0.0789 0.0000
vt 0.4640 0.0619 0.0000
vt 0.4438 0.0789 0.0000
vt 0.4396 0.0619 0.0000
vt 0.6581 0.0619 0.0000
vt 0.6554 0.0789 0.0000
vt 0.6358 0.0789 0.0000
vt 0.6391 0.0619 0.0000
vt 0.4090 0.2228 0.0000
vt 0.4093 0.2226 0.0000
vt 0.4102 0.2228 0.0000
vt 0.4102 0.2232 0.0000
vt 0.4111 0.2225 0.0000
vt 0.4115 0.2227 0.0000
vt 0.6039 0.0619 0.0000
vt 0.5991 0.0789 0.0000
vt 0.5798 0.0789 0.0000
vt 0.5825 0.0619 0.0000
vt 0.1446 0.9531 0.0000
vt 0.1491 0.9637 0.0000
vt 0.1123 0.9670 0.0000
vt 0.1148 0.9558 0.0000
vt 0.2805 0.7443 0.0000
vt 0.2916 0.7444 0.0000
vt 0.3000 0.7522 0.0000
vt 0.2719 0.7517 0.0000
vt 0.3024 0.7630 0.0000
vt 0.2994 0.7739 0.0000
vt 0.2713 0.7733 0.0000
vt 0.2689 0.7625 0.0000
vt 0.2907 0.7814 0.0000
vt 0.2796 0.7810 0.0000
vt 0.1466 0.9749 0.0000
vt 0.1167 0.9776 0.0000
vt 0.1234 0.9482 0.0000
vt 0.1348 0.9471 0.0000
vt 0.1379 0.9825 0.0000
vt 0.1265 0.9836 0.0000
vt 0.2931 0.6590 0.0000
vt 0.2931 0.7388 0.0000
vt 0.2791 0.7388 0.0000
vt 0.2791 0.6590 0.0000
vt 0.1348 0.0201 0.0000
vt 0.1211 0.0197 0.0000
vt 0.3072 0.6590 0.0000
vt 0.3072 0.7429 0.0000
vt 0.1073 0.0203 0.0000
vt 0.3212 0.6590 0.0000
vt 0.3212 0.7454 0.0000
vt 0.0936 0.0215 0.0000
vt 0.3353 0.6590 0.0000
vt 0.3353 0.7429 0.0000
vt 0.0799 0.0230 0.0000
vt 0.3494 0.6590 0.0000
vt 0.3494 0.7388 0.0000
vt 0.0660 0.0242 0.0000
vt 0.3634 0.6590 0.0000
vt 0.3634 0.7388 0.0000
vt 0.0520 0.0246 0.0000
vt 0.3775 0.6590 0.0000
vt 0.3775 0.7429 0.0000
vt 0.0380 0.0240 0.0000
vt 0.3915 0.6590 0.0000
vt 0.3915 0.7454 0.0000
vt 0.0242 0.0228 0.0000
vt 0.2650 0.6590 0.0000
vt 0.2650 0.7429 0.0000
vt 0.2510 0.7454 0.0000
vt 0.2510 0.6590 0.0000
vt 0.1624 0.0225 0.0000
vt 0.1486 0.0211 0.0000
vt 0.5874 0.0304 0.0000
vt 0.5867 0.0413 0.0000
vt 0.5627 0.0413 0.0000
vt 0.5637 0.0304 0.0000
vt 0.6080 0.0304 0.0000
vt 0.6070 0.0413 0.0000
vt 0.6246 0.0304 0.0000
vt 0.6238 0.0413 0.0000
vt 0.6395 0.0304 0.0000
vt 0.6394 0.0413 0.0000
vt 0.6543 0.0304 0.0000
vt 0.6562 0.0413 0.0000
vt 0.4620 0.0304 0.0000
vt 0.4625 0.0413 0.0000
vt 0.4391 0.0413 0.0000
vt 0.4416 0.0304 0.0000
vt 0.4810 0.0304 0.0000
vt 0.4835 0.0413 0.0000
vt 0.5107 0.0304 0.0000
vt 0.5112 0.0413 0.0000
vt 0.5382 0.0304 0.0000
vt 0.5380 0.0413 0.0000
vt 0.5575 0.1180 0.0000
vt 0.5574 0.1128 0.0000
vt 0.5779 0.1128 0.0000
vt 0.5774 0.1180 0.0000
vt 0.5373 0.1180 0.0000
vt 0.5375 0.1128 0.0000
vt 0.5166 0.1180 0.0000
vt 0.5165 0.1128 0.0000
vt 0.4962 0.1180 0.0000
vt 0.4954 0.1128 0.0000
vt 0.4773 0.1180 0.0000
vt 0.4752 0.1128 0.0000
vt 0.4611 0.1180 0.0000
vt 0.4565 0.1128 0.0000
vt 0.6284 0.1180 0.0000
vt 0.6297 0.1128 0.0000
vt 0.6470 0.1128 0.0000
vt 0.6436 0.1180 0.0000
vt 0.6121 0.1180 0.0000
vt 0.6125 0.1128 0.0000
vt 0.5953 0.1180 0.0000
vt 0.5957 0.1128 0.0000
vt 0.5358 0.0598 0.0000
vt 0.5380 0.0506 0.0000
vt 0.5626 0.0506 0.0000
vt 0.5597 0.0598 0.0000
vt 0.5583 0.0955 0.0000
vt 0.5574 0.1095 0.0000
vt 0.5375 0.1095 0.0000
vt 0.5371 0.0955 0.0000
vt 0.5087 0.0598 0.0000
vt 0.5114 0.0506 0.0000
vt 0.5164 0.1095 0.0000
vt 0.5135 0.0955 0.0000
vt 0.4839 0.0598 0.0000
vt 0.4851 0.0506 0.0000
vt 0.4953 0.1095 0.0000
vt 0.4893 0.0955 0.0000
vt 0.4634 0.0598 0.0000
vt 0.4628 0.0506 0.0000
vt 0.4749 0.1095 0.0000
vt 0.4683 0.0955 0.0000
vt 0.4391 0.0598 0.0000
vt 0.4387 0.0506 0.0000
vt 0.4559 0.1095 0.0000
vt 0.4449 0.0955 0.0000
vt 0.6402 0.0598 0.0000
vt 0.6393 0.0506 0.0000
vt 0.6564 0.0506 0.0000
vt 0.6579 0.0598 0.0000
vt 0.6545 0.0955 0.0000
vt 0.6475 0.1095 0.0000
vt 0.6298 0.1095 0.0000
vt 0.6353 0.0955 0.0000
vt 0.6245 0.0598 0.0000
vt 0.6237 0.0506 0.0000
vt 0.6125 0.1095 0.0000
vt 0.6159 0.0955 0.0000
vt 0.6060 0.0598 0.0000
vt 0.6070 0.0506 0.0000
vt 0.5957 0.1095 0.0000
vt 0.5981 0.0955 0.0000
vt 0.5829 0.0598 0.0000
vt 0.5866 0.0506 0.0000
vt 0.5779 0.1095 0.0000
vt 0.5794 0.0955 0.0000
vt 0.3653 0.0575 0.0000
vt 0.3601 0.0598 0.0000
vt 0.3547 0.0429 0.0000
vt 0.3619 0.0391 0.0000
vt 0.3629 0.0385 0.0000
vt 0.3750 0.0407 0.0000
vt 0.3786 0.0539 0.0000
vt 0.3662 0.0572 0.0000
vt 0.3854 0.0340 0.0000
vt 0.3912 0.0524 0.0000
vt 0.3979 0.0525 0.0000
vt 0.3922 0.0523 0.0000
vt 0.3866 0.0342 0.0000
vt 0.3948 0.0343 0.0000
vt 0.4147 0.5947 0.0000
vt 0.3929 0.5873 0.0000
vt 0.3957 0.5643 0.0000
vt 0.4275 0.5655 0.0000
vt 0.3703 0.5920 0.0000
vt 0.3642 0.5624 0.0000
vt 0.3805 0.1218 0.0000
vt 0.3786 0.1224 0.0000
vt 0.3910 0.1195 0.0000
vt 0.3815 0.1215 0.0000
vt 0.4006 0.1179 0.0000
vt 0.4036 0.1176 0.0000
vt 0.4017 0.1178 0.0000
vt 0.4022 0.4302 0.0000
vt 0.4219 0.4312 0.0000
vt 0.3824 0.4293 0.0000
vt 0.3959 0.1836 0.0000
vt 0.3948 0.1838 0.0000
vt 0.4029 0.1822 0.0000
vt 0.3967 0.1834 0.0000
vt 0.4090 0.1810 0.0000
vt 0.4110 0.1807 0.0000
vt 0.4099 0.1809 0.0000
vt 0.4085 0.2985 0.0000
vt 0.4184 0.2990 0.0000
vt 0.3985 0.2980 0.0000
vt 0.4102 0.2227 0.0000
vt 0.4093 0.2227 0.0000
vt 0.4102 0.2233 0.0000
vt 0.4116 0.2228 0.0000
vt 0.4089 0.2228 0.0000
vt 0.2028 0.0745 0.0000
vt 0.1917 0.0756 0.0000
vt 0.1913 0.0334 0.0000
vt 0.2135 0.0302 0.0000
vt 0.2168 0.0295 0.0000
vt 0.2517 0.0395 0.0000
vt 0.2499 0.0713 0.0000
vt 0.2044 0.0744 0.0000
vt 0.2856 0.0283 0.0000
vt 0.2967 0.0724 0.0000
vt 0.3097 0.0739 0.0000
vt 0.2983 0.0726 0.0000
vt 0.2889 0.0290 0.0000
vt 0.3111 0.0329 0.0000
vt 0.2722 0.6163 0.0000
vt 0.2533 0.6108 0.0000
vt 0.2517 0.5942 0.0000
vt 0.2790 0.5940 0.0000
vt 0.2344 0.6162 0.0000
vt 0.2244 0.5941 0.0000
vt 0.1994 0.1170 0.0000
vt 0.1925 0.1177 0.0000
vt 0.2505 0.1119 0.0000
vt 0.2007 0.1168 0.0000
vt 0.3003 0.1158 0.0000
vt 0.3086 0.1167 0.0000
vt 0.3016 0.1159 0.0000
vt 0.2517 0.5706 0.0000
vt 0.2842 0.5705 0.0000
vt 0.2191 0.5706 0.0000
vt 0.2041 0.2039 0.0000
vt 0.2002 0.2042 0.0000
vt 0.2508 0.2000 0.0000
vt 0.2058 0.2038 0.0000
vt 0.2957 0.2034 0.0000
vt 0.3014 0.2039 0.0000
vt 0.2975 0.2036 0.0000
vt 0.2516 0.5085 0.0000
vt 0.2898 0.5083 0.0000
vt 0.2132 0.5085 0.0000
vt 0.2132 0.3405 0.0000
vt 0.2107 0.3417 0.0000
vt 0.2512 0.3455 0.0000
vt 0.2135 0.3404 0.0000
vt 0.2888 0.3402 0.0000
vt 0.2916 0.3415 0.0000
vt 0.2891 0.3403 0.0000
vt 0.2512 0.3499 0.0000
vt 0.2896 0.3435 0.0000
vt 0.2127 0.3437 0.0000
vt 0.5639 0.0284 0.0000
vt 0.5875 0.0284 0.0000
vt 0.6082 0.0284 0.0000
vt 0.6248 0.0284 0.0000
vt 0.6395 0.0284 0.0000
vt 0.6541 0.0284 0.0000
vt 0.4420 0.0284 0.0000
vt 0.4619 0.0284 0.0000
vt 0.4790 0.0284 0.0000
vt 0.5107 0.0284 0.0000
vt 0.5383 0.0284 0.0000
vt 0.5773 0.1205 0.0000
vt 0.5575 0.1205 0.0000
vt 0.5373 0.1205 0.0000
vt 0.5166 0.1205 0.0000
vt 0.4964 0.1205 0.0000
vt 0.4776 0.1205 0.0000
vt 0.4618 0.1205 0.0000
vt 0.6431 0.1205 0.0000
vt 0.6283 0.1205 0.0000
vt 0.6121 0.1205 0.0000
vt 0.5953 0.1205 0.0000
vt 0.3928 0.5894 0.0000
vt 0.3701 0.5941 0.0000
vt 0.3627 0.0373 0.0000
vt 0.3748 0.0395 0.0000
vt 0.4149 0.5973 0.0000
vt 0.3850 0.0328 0.0000
vt 0.3540 0.0421 0.0000
vt 0.3618 0.0380 0.0000
vt 0.3862 0.0331 0.0000
vt 0.3955 0.0332 0.0000
vt 0.3041 0.7488 0.0000
vt 0.3077 0.7632 0.0000
vt 0.3034 0.7775 0.0000
vt 0.2921 0.7870 0.0000
vt 0.2780 0.7866 0.0000
vt 0.2671 0.7767 0.0000
vt 0.2637 0.7624 0.0000
vt 0.2679 0.7481 0.0000
vt 0.1473 0.9507 0.0000
vt 0.1526 0.9633 0.0000
vt 0.1496 0.9767 0.0000
vt 0.1394 0.9858 0.0000
vt 0.1258 0.9870 0.0000
vt 0.1141 0.9800 0.0000
vt 0.1087 0.9674 0.0000
vt 0.1117 0.9540 0.0000
vt 0.2533 0.6121 0.0000
vt 0.2344 0.6176 0.0000
vt 0.2174 0.0268 0.0000
vt 0.2516 0.0367 0.0000
vt 0.2721 0.6177 0.0000
vt 0.2851 0.0256 0.0000
vt 0.1905 0.0313 0.0000
vt 0.2143 0.0279 0.0000
vt 0.2882 0.0266 0.0000
vt 0.3119 0.0307 0.0000
vt 0.2512 0.3466 0.0000
vt 0.2139 0.3417 0.0000
vt 0.2884 0.3415 0.0000
vt 0.2512 0.3490 0.0000
vt 0.2890 0.3426 0.0000
vt 0.2133 0.3428 0.0000
vt 0.3592 0.0602 0.0000
vt 0.3536 0.0434 0.0000
vt 0.3960 0.0342 0.0000
vt 0.3988 0.0526 0.0000
vt 0.3775 0.1227 0.0000
vt 0.4047 0.1175 0.0000
vt 0.3940 0.1840 0.0000
vt 0.4118 0.1806 0.0000
vt 0.1901 0.0757 0.0000
vt 0.1882 0.0338 0.0000
vt 0.3142 0.0334 0.0000
vt 0.3113 0.0741 0.0000
vt 0.1912 0.1179 0.0000
vt 0.3099 0.1168 0.0000
vt 0.1984 0.2044 0.0000
vt 0.3031 0.2040 0.0000
vt 0.2096 0.3420 0.0000
vt 0.2927 0.3418 0.0000
vt 0.3528 0.0426 0.0000
vt 0.3968 0.0331 0.0000
vt 0.1872 0.0317 0.0000
vt 0.3153 0.0312 0.0000
# 418 texture coords

g Pickaxe
usemtl wire_184155229
s 1
f 1/1/1 2/2/1 3/3/2 4/4/3 
s 2
f 2/2/4 5/5/4 6/6/5 3/3/6 
s 1
f 5/5/7 7/7/7 8/8/8 6/6/9 
s 2
f 7/7/10 9/9/10 10/10/11 8/8/12 
s 1
f 9/9/13 11/11/13 12/12/14 10/10/15 
s 2
f 11/11/16 13/13/16 14/14/17 12/12/18 
s 1
f 13/13/19 15/15/19 16/16/20 14/14/21 
s 2
f 15/15/22 17/17/22 18/18/23 16/16/24 
s 1
f 17/19/25 19/20/25 20/21/26 18/22/27 
s 2
f 19/20/28 1/1/28 4/4/29 20/21/30 
s 1
f 4/4/3 3/3/2 21/23/31 22/24/32 
s 2
f 3/3/6 6/6/5 23/25/33 21/23/34 
s 1
f 6/6/9 8/8/8 24/26/35 23/25/36 
s 2
f 8/8/12 10/10/11 25/27/37 24/26/38 
s 1
f 10/10/15 12/12/14 26/28/39 25/27/40 
s 2
f 12/12/18 14/14/17 27/29/41 26/28/42 
s 1
f 14/14/21 16/16/20 28/30/43 27/29/44 
s 2
f 16/16/24 18/18/23 29/31/45 28/30/46 
s 1
f 18/22/27 20/21/26 30/32/47 29/33/48 
s 2
f 20/21/30 4/4/29 22/24/49 30/32/50 
s 1
f 22/24/32 21/23/31 31/34/51 32/35/52 
s 2
f 21/23/34 23/25/33 33/36/53 31/34/54 
s 1
f 23/25/36 24/26/35 34/37/55 33/36/56 
s 2
f 24/26/38 25/27/37 35/38/57 34/37/58 
s 1
f 25/27/40 26/28/39 36/39/59 35/38/60 
s 2
f 26/28/42 27/29/41 37/40/61 36/39/62 
s 1
f 27/29/44 28/30/43 38/41/63 37/40/64 
s 2
f 28/30/46 29/31/45 39/42/65 38/41/66 
s 1
f 29/33/48 30/32/47 40/43/67 39/44/68 
s 2
f 30/32/50 22/24/49 32/35/69 40/43/70 
s 1
f 32/35/52 31/34/51 41/45/71 42/46/72 
s 2
f 31/34/54 33/36/53 43/47/73 41/45/74 
s 1
f 33/36/56 34/37/55 44/48/75 43/47/76 
s 2
f 34/37/58 35/38/57 45/49/77 44/48/78 
s 1
f 35/38/60 36/39/59 46/50/79 45/49/80 
s 2
f 36/39/62 37/40/61 47/51/81 46/50/82 
s 1
f 37/40/64 38/41/63 48/52/83 47/51/84 
s 2
f 38/41/66 39/42/65 49/53/85 48/52/86 
s 1
f 39/44/68 40/43/67 50/54/87 49/55/88 
s 2
f 40/43/70 32/35/69 42/46/89 50/54/90 
s 1
f 42/46/72 41/45/71 51/56/91 52/57/92 
s 2
f 41/45/74 43/47/73 53/58/93 51/56/94 
s 1
f 43/47/76 44/48/75 54/59/95 53/58/96 
s 2
f 44/48/78 45/49/77 55/60/97 54/59/98 
s 1
f 45/49/80 46/50/79 56/61/99 55/60/100 
s 2
f 46/50/82 47/51/81 57/62/101 56/61/102 
s 1
f 47/51/84 48/52/83 58/63/103 57/62/104 
s 2
f 48/52/86 49/53/85 59/64/105 58/63/106 
s 1
f 49/55/88 50/54/87 60/65/107 59/66/108 
s 2
f 50/54/90 42/46/89 52/57/109 60/65/110 
s 1
f 61/67/111 62/68/111 63/69/111 64/70/111 
f 65/71/112 66/72/112 67/73/112 68/74/112 
f 68/74/112 67/73/112 69/75/112 70/76/112 
s 2
f 71/77/113 72/78/114 73/79/115 74/80/115 
s 1
f 74/80/116 73/79/116 75/81/116 76/82/116 
s 2
f 76/83/117 75/84/118 77/85/119 78/86/120 
s 1
f 79/87/121 80/88/122 81/89/123 82/90/124 
f 82/90/124 81/89/123 83/91/125 84/92/126 
f 85/93/127 86/94/128 87/95/129 88/96/130 
f 89/97/131 90/98/131 91/99/131 92/100/131 
f 93/101/132 94/102/132 95/103/133 96/104/133 
f 97/105/134 98/106/135 99/107/135 100/108/134 
f 95/103/133 97/105/134 100/108/134 96/104/133 
f 98/106/135 101/109/136 102/110/136 99/107/135 
f 90/98/131 103/111/131 104/112/131 91/99/131 
f 92/100/131 105/113/131 106/114/131 89/97/131 
f 103/111/131 107/115/131 108/116/131 104/112/131 
s 2
f 109/117/137 110/118/138 111/119/139 112/120/137 
s 1
f 113/121/140 52/57/92 51/56/91 114/122/140 
f 115/123/141 116/124/141 110/118/141 109/117/141 
s 2
f 114/122/142 51/56/94 53/58/93 117/125/142 
s 4
f 118/126/143 119/127/143 116/124/143 115/123/143 
s 1
f 117/125/144 53/58/96 54/59/95 120/128/144 
f 121/129/145 122/130/145 119/127/145 118/126/145 
s 2
f 120/128/146 54/59/98 55/60/97 123/131/146 
f 124/132/147 125/133/147 122/130/148 121/129/147 
s 1
f 123/131/149 55/60/100 56/61/99 126/134/149 
s 4
f 127/135/150 128/136/151 125/133/152 124/132/116 
s 2
f 126/134/153 56/61/102 57/62/101 129/137/153 
s 1
f 130/138/154 131/139/154 128/136/154 127/135/154 
f 129/137/155 57/62/104 58/63/103 132/140/155 
s 2
f 133/141/156 134/142/156 131/139/156 130/138/156 
f 132/140/157 58/63/106 59/64/105 135/143/157 
s 1
f 136/144/158 137/145/158 134/146/158 133/147/158 
f 135/148/159 59/66/108 60/65/107 138/149/159 
s 4
f 112/120/160 111/119/160 137/145/160 136/144/160 
s 2
f 138/149/161 60/65/110 52/57/109 113/121/161 
s 8
f 139/150/162 140/151/134 141/152/134 142/153/134 
f 143/154/163 144/155/163 140/151/134 139/150/162 
f 145/156/162 146/157/162 144/155/163 143/154/163 
f 147/158/162 148/159/162 146/157/162 145/156/162 
f 149/160/162 150/161/162 148/159/162 147/158/162 
f 151/162/162 152/163/162 150/164/162 149/165/162 
f 153/166/162 154/167/162 152/163/162 151/162/162 
f 155/168/162 156/169/162 154/167/162 153/166/162 
f 157/170/162 158/171/162 156/169/162 155/168/162 
f 142/153/134 141/152/134 158/171/162 157/170/162 
s 4
f 159/172/131 160/173/131 161/174/131 162/175/131 
f 163/176/131 164/177/131 160/173/131 159/172/131 
f 165/178/131 166/179/131 164/177/131 163/176/131 
f 167/180/131 168/181/131 166/179/131 165/178/131 
f 169/182/131 170/183/131 168/181/131 167/180/131 
f 171/184/131 172/185/131 170/183/131 169/182/131 
f 173/186/131 174/187/131 172/188/131 171/189/131 
f 175/190/131 176/191/131 174/187/131 173/186/131 
f 177/192/131 178/193/131 176/191/131 175/190/131 
f 162/175/131 161/174/131 178/193/131 177/192/131 
s 1
f 179/194/164 180/195/165 181/196/166 182/197/167 
f 183/198/168 184/199/169 185/200/170 186/201/171 
s 2
f 187/202/172 188/203/173 180/195/174 179/194/175 
f 186/201/176 185/200/177 189/204/178 190/205/179 
s 1
f 191/206/180 192/207/181 188/203/182 187/202/183 
f 190/205/184 189/204/185 193/208/186 194/209/187 
s 2
f 195/210/188 196/211/189 192/207/189 191/206/190 
f 194/209/191 193/208/192 197/212/192 198/213/193 
s 1
f 199/214/194 200/215/195 196/211/195 195/210/194 
f 198/213/196 197/212/197 201/216/197 202/217/196 
s 2
f 203/218/198 204/219/199 200/220/199 199/221/200 
f 202/222/201 201/223/202 205/224/203 206/225/204 
s 1
f 207/226/205 208/227/206 204/219/207 203/218/208 
f 206/225/209 205/224/210 209/228/211 210/229/212 
s 2
f 211/230/213 212/231/214 208/227/215 207/226/216 
f 210/229/217 209/228/218 213/232/219 214/233/220 
s 1
f 215/234/221 216/235/222 212/231/223 211/230/224 
f 214/233/225 213/232/226 217/236/227 218/237/228 
s 2
f 219/238/229 220/239/230 221/240/231 222/241/232 
s 4
f 223/242/233 224/243/234 225/244/235 226/245/236 
f 224/243/234 227/246/237 228/247/238 225/244/235 
s 1
f 229/248/239 230/249/240 231/250/241 232/251/242 
s 4
f 233/252/162 234/253/162 235/254/243 236/255/244 
f 234/253/162 237/256/162 238/257/245 235/254/243 
s 2
f 239/258/246 240/259/247 220/239/230 219/238/229 
s 4
f 226/245/236 225/244/235 241/260/248 242/261/249 
f 225/244/235 228/247/238 243/262/250 241/260/248 
s 1
f 244/263/251 245/264/252 230/249/240 229/248/239 
s 4
f 236/255/244 235/254/243 246/265/253 247/266/254 
f 235/254/243 238/257/245 248/267/254 246/265/253 
s 8
f 249/268/255 250/269/255 240/259/256 239/258/256 
s 4
f 242/261/249 241/260/248 251/270/257 252/271/258 
f 241/260/248 243/262/250 253/272/259 251/270/257 
s 2
f 254/273/260 255/274/260 245/264/261 244/263/261 
s 4
f 247/266/254 246/265/253 256/275/262 257/276/263 
f 246/265/253 248/267/254 258/277/264 256/275/262 
s 8
f 80/88/265 79/87/265 250/269/255 249/268/255 
s 4
f 252/271/258 251/270/257 259/278/266 260/279/267 
f 251/270/257 253/272/259 261/91/268 259/278/266 
s 2
f 84/92/269 83/91/269 255/274/260 254/273/260 
s 4
f 257/276/263 256/275/262 262/280/270 263/281/270 
f 256/275/262 258/277/264 264/282/270 262/280/270 
s 2
f 265/283/271 266/284/271 267/285/272 268/286/272 
s 4
f 269/287/273 270/288/274 271/289/275 272/290/276 
f 270/288/274 273/291/277 274/292/278 271/289/275 
s 2
f 275/293/279 276/294/280 277/295/281 278/296/282 
s 4
f 279/297/283 280/298/284 281/299/285 282/300/286 
f 280/298/284 283/301/287 284/302/288 281/299/285 
s 2
f 285/303/289 286/304/289 266/284/271 265/283/271 
s 4
f 272/290/276 271/289/275 287/305/290 288/306/291 
f 271/289/275 274/292/278 289/307/292 287/305/290 
s 2
f 290/308/293 291/309/293 276/294/280 275/293/279 
s 4
f 282/300/286 281/299/285 292/310/294 293/311/295 
f 281/299/285 284/302/288 294/312/295 292/310/294 
s 2
f 295/313/296 296/314/296 286/304/289 285/303/289 
s 4
f 288/306/291 287/305/290 297/315/297 298/316/298 
f 287/305/290 289/307/292 299/317/299 297/315/297 
s 2
f 300/318/300 301/319/300 291/309/293 290/308/293 
s 4
f 293/311/295 292/310/294 302/320/301 303/321/302 
f 292/310/294 294/312/295 304/322/302 302/320/301 
s 2
f 305/323/303 306/324/303 296/314/296 295/313/296 
s 4
f 298/316/298 297/315/297 307/325/304 308/326/305 
f 297/315/297 299/317/299 309/327/306 307/325/304 
s 2
f 310/328/307 311/329/307 301/319/300 300/318/300 
s 4
f 303/321/302 302/320/301 312/330/308 313/331/308 
f 302/320/301 304/322/302 314/332/308 312/330/308 
s 2
f 182/197/137 181/196/137 216/235/137 215/234/137 
f 62/68/137 61/67/137 88/96/137 87/95/137 
f 218/237/309 217/236/309 184/199/309 183/198/309 
s 8
f 140/151/134 216/235/163 181/196/134 141/152/134 
f 142/153/134 109/333/134 112/334/162 139/150/162 
f 144/155/163 212/231/163 216/235/163 140/151/134 
f 139/150/162 112/334/162 136/335/163 143/154/163 
f 146/157/162 208/227/162 212/231/163 144/155/163 
f 143/154/163 136/335/163 133/336/162 145/156/162 
f 148/159/162 204/219/162 208/227/162 146/157/162 
f 145/156/162 133/336/162 130/337/162 147/158/162 
f 150/161/162 200/220/162 204/219/162 148/159/162 
f 147/158/162 130/337/162 127/338/162 149/160/162 
f 152/163/162 196/211/162 200/215/162 150/164/162 
f 149/165/162 127/339/162 124/340/162 151/162/162 
f 154/167/162 192/207/162 196/211/162 152/163/162 
f 151/162/162 124/340/162 121/341/162 153/166/162 
f 156/169/162 188/203/162 192/207/162 154/167/162 
f 153/166/162 121/341/162 118/342/162 155/168/162 
f 158/171/162 180/195/162 188/203/162 156/169/162 
f 155/168/162 118/342/162 115/343/162 157/170/162 
f 141/152/134 181/196/134 180/195/162 158/171/162 
f 157/170/162 115/343/162 109/333/134 142/153/134 
s 4
f 160/173/131 184/199/131 217/236/131 161/174/131 
f 162/175/131 113/344/131 114/345/131 159/172/131 
f 164/177/131 185/200/131 184/199/131 160/173/131 
f 159/172/131 114/345/131 117/346/131 163/176/131 
f 166/179/131 189/204/131 185/200/131 164/177/131 
f 163/176/131 117/346/131 120/347/131 165/178/131 
f 168/181/131 193/208/131 189/204/131 166/179/131 
f 165/178/131 120/347/131 123/348/131 167/180/131 
f 170/183/131 197/212/131 193/208/131 168/181/131 
f 167/180/131 123/348/131 126/349/131 169/182/131 
f 172/185/131 201/216/131 197/212/131 170/183/131 
f 169/182/131 126/349/131 129/350/131 171/184/131 
f 174/187/131 205/224/131 201/223/131 172/188/131 
f 171/189/131 129/351/131 132/352/131 173/186/131 
f 176/191/131 209/228/131 205/224/131 174/187/131 
f 173/186/131 132/352/131 135/353/131 175/190/131 
f 178/193/131 213/232/131 209/228/131 176/191/131 
f 175/190/131 135/353/131 138/354/131 177/192/131 
f 161/174/131 217/236/131 213/232/131 178/193/131 
f 177/192/131 138/354/131 113/344/131 162/175/131 
s 8
f 234/253/310 207/355/311 203/356/312 237/256/313 
s 4
f 223/242/233 206/357/314 210/358/315 224/243/234 
s 8
f 233/252/316 211/359/317 207/355/311 234/253/310 
s 4
f 224/243/234 210/358/315 214/360/318 227/246/237 
s 2
f 78/361/120 77/362/119 222/241/232 221/240/231 
s 1
f 86/363/128 85/364/127 232/251/242 231/250/241 
s 2
f 111/119/139 110/118/138 94/102/319 93/101/320 
f 110/118/138 116/365/321 95/103/322 94/102/319 
s 8
f 116/365/323 119/366/324 97/105/325 95/103/326 
s 16
f 119/366/327 122/367/328 98/106/329 97/105/330 
s 4
f 122/367/331 125/368/152 101/109/332 98/106/333 
f 125/368/152 128/369/151 102/110/334 101/109/332 
f 128/369/151 131/370/335 99/107/336 102/110/334 
s 8
f 131/370/337 134/371/338 100/108/339 99/107/340 
s 16
f 134/371/341 137/372/342 96/104/343 100/108/344 
s 2
f 137/372/345 111/119/139 93/101/320 96/104/346 
s 4
f 2/2/347 1/1/348 106/114/348 105/113/347 
f 1/1/348 19/373/349 89/97/349 106/114/348 
f 19/373/349 17/374/350 90/98/350 89/97/349 
f 17/374/350 15/375/351 103/111/351 90/98/350 
f 15/375/351 13/376/352 107/115/352 103/111/351 
f 13/376/352 11/377/353 108/116/353 107/115/352 
f 11/377/353 9/378/354 104/112/354 108/116/353 
f 9/378/354 7/379/355 91/99/355 104/112/354 
f 7/379/355 5/380/356 92/100/356 91/99/355 
f 5/380/356 2/2/347 105/113/347 92/100/356 
s 16
f 280/298/357 187/381/358 179/382/359 283/301/360 
f 269/287/361 186/383/362 190/384/363 270/288/364 
f 279/297/365 191/385/366 187/381/358 280/298/357 
f 270/288/364 190/384/363 194/386/367 273/291/368 
s 8
f 64/387/369 63/388/370 268/286/371 267/285/372 
s 2
f 72/389/114 71/390/113 278/296/282 277/295/281 
s off
f 306/324/373 305/323/373 66/72/373 65/71/373 
f 308/326/374 307/325/374 315/391/374 316/392/374 
f 307/325/375 309/327/375 317/393/375 315/391/375 
f 311/329/376 310/328/376 70/76/376 69/75/376 
f 313/331/377 312/330/377 318/394/377 319/395/377 
f 312/330/377 314/332/377 320/396/377 318/394/377 
s 1
f 62/68/111 183/198/168 186/201/171 63/69/111 
f 64/70/111 179/194/164 182/197/167 61/67/111 
f 66/72/112 316/392/112 315/391/112 67/73/112 
f 68/74/112 318/394/112 320/396/112 65/71/112 
f 67/73/112 315/391/112 317/393/112 69/75/112 
f 70/76/112 319/395/112 318/394/112 68/74/112 
s 2
f 72/78/114 194/209/191 198/213/193 73/79/115 
f 74/80/115 195/210/188 191/206/190 71/77/113 
s 1
f 73/79/116 198/213/196 202/217/196 75/81/116 
f 76/82/116 199/214/194 195/210/194 74/80/116 
s 2
f 75/84/118 202/222/201 206/225/204 77/85/119 
f 78/86/120 203/218/198 199/221/200 76/83/117 
s 1
f 80/88/122 260/279/378 259/278/123 81/89/123 
f 82/90/124 262/280/379 264/282/380 79/87/121 
f 81/89/123 259/278/123 261/91/381 83/91/125 
f 84/92/126 263/281/382 262/280/379 82/90/124 
f 86/94/128 214/233/225 218/237/228 87/95/129 
f 88/96/130 215/234/221 211/230/224 85/93/127 
s 2
f 220/239/230 238/397/383 237/398/384 221/240/231 
f 222/241/232 223/242/385 226/245/386 219/238/229 
s 1
f 230/249/240 228/247/387 227/246/388 231/250/241 
f 232/251/242 233/399/389 236/400/390 229/248/239 
s 2
f 240/259/247 248/401/391 238/397/383 220/239/230 
f 219/238/229 226/245/386 242/261/392 239/258/246 
s 1
f 245/264/252 243/262/393 228/247/387 230/249/240 
f 229/248/239 236/400/390 247/402/394 244/263/251 
s 8
f 250/269/255 258/403/395 248/401/256 240/259/256 
f 239/258/256 242/261/256 252/271/396 249/268/255 
s 2
f 255/274/260 253/272/397 243/262/261 245/264/261 
f 244/263/261 247/402/261 257/404/398 254/273/260 
s 8
f 79/87/265 264/282/265 258/403/395 250/269/255 
f 249/268/255 252/271/396 260/279/265 80/88/265 
s 2
f 83/91/269 261/91/269 253/272/397 255/274/260 
f 254/273/260 257/404/398 263/281/269 84/92/269 
f 266/284/271 284/405/399 283/406/272 267/285/272 
f 268/286/272 269/287/272 272/290/400 265/283/271 
f 276/294/280 274/292/401 273/291/402 277/295/281 
f 278/296/282 279/407/403 282/408/404 275/293/279 
f 286/304/289 294/409/405 284/405/399 266/284/271 
f 265/283/271 272/290/400 288/306/406 285/303/289 
f 291/309/293 289/307/407 274/292/401 276/294/280 
f 275/293/279 282/408/404 293/410/408 290/308/293 
f 296/314/296 304/411/409 294/409/405 286/304/289 
f 285/303/289 288/306/406 298/316/410 295/313/296 
f 301/319/300 299/317/411 289/307/407 291/309/293 
f 290/308/293 293/410/408 303/412/412 300/318/300 
f 306/324/303 314/413/303 304/411/409 296/314/296 
f 295/313/296 298/316/410 308/326/303 305/323/303 
f 311/329/307 309/327/307 299/317/411 301/319/300 
f 300/318/300 303/412/412 313/414/307 310/328/307 
f 61/67/137 182/197/137 215/234/137 88/96/137 
f 87/95/137 218/237/309 183/198/309 62/68/137 
f 77/362/119 206/357/204 223/242/385 222/241/232 
f 221/240/231 237/398/384 203/415/198 78/361/120 
s 1
f 85/364/127 211/416/224 233/399/389 232/251/242 
f 231/250/241 227/246/388 214/360/225 86/363/128 
s 8
f 63/388/370 186/383/413 269/287/414 268/286/371 
f 267/285/372 283/406/415 179/417/416 64/387/369 
s 2
f 71/390/113 191/418/190 279/407/403 278/296/282 
f 277/295/281 273/291/402 194/386/191 72/389/114 
s off
f 305/323/373 308/326/373 316/392/373 66/72/373 
f 65/71/373 320/396/373 314/413/373 306/324/373 
f 310/328/376 313/414/376 319/395/376 70/76/376 
f 69/75/376 317/393/376 309/327/376 311/329/376 
# 318 polygons

