# File produced by Open Asset Import Library (http://www.assimp.sf.net)
# (assimp v3.1.71981620)

mtllib CageAsset.mtl

# 766 vertex positions
v  -251.132 137.953 -429.975
v  -255.892 310.395 -435.129
v  -237.532 310.395 -441.755
v  -237.532 77.5988 -435.129
v  -255.892 620.79 -435.129
v  -237.532 620.79 -441.755
v  -219.173 620.79 -435.129
v  -219.173 310.395 -435.129
v  -223.933 137.953 -429.975
v  -255.892 310.395 -395.372
v  -251.132 137.953 -400.526
v  -237.532 77.5988 -395.372
v  -237.532 310.395 -388.746
v  -223.933 137.953 -400.526
v  -219.173 310.395 -395.372
v  -219.173 620.79 -395.372
v  -237.532 620.79 -388.746
v  -255.892 620.79 -395.372
v  -237.532 0 -415.251
v  -255.892 77.5988 -415.251
v  -219.173 77.5988 -415.251
v  -213.053 310.395 -415.251
v  -213.053 620.79 -415.251
v  -262.012 310.395 -415.251
v  -262.012 620.79 -415.251
v  -102.344 77.5988 -435.129
v  -115.944 137.953 -429.975
v  -120.704 310.395 -435.129
v  -102.344 310.395 -441.755
v  -102.344 620.79 -441.755
v  -120.704 620.79 -435.129
v  -83.9856 310.395 -435.129
v  -83.9856 620.79 -435.129
v  -88.7454 137.953 -429.975
v  -102.344 77.5988 -395.372
v  -102.344 310.395 -388.746
v  -120.704 310.395 -395.372
v  -115.944 137.953 -400.526
v  -83.9856 310.395 -395.372
v  -88.7454 137.953 -400.526
v  -83.9856 620.79 -395.372
v  -102.344 620.79 -388.746
v  -120.704 620.79 -395.372
v  -102.344 0 -415.25
v  -120.704 77.5988 -415.25
v  -83.9856 77.5988 -415.25
v  -77.8657 310.395 -415.25
v  -77.8657 620.79 -415.25
v  -126.824 310.395 -415.25
v  -126.824 620.79 -415.25
v  21.1373 137.953 -429.975
v  16.3775 310.395 -435.129
v  34.7371 310.395 -441.755
v  34.7371 77.5988 -435.129
v  16.3775 620.79 -435.129
v  34.7371 620.79 -441.755
v  53.0961 620.79 -435.129
v  53.0961 310.395 -435.129
v  48.3363 137.953 -429.975
v  21.1373 137.953 -400.526
v  34.7371 77.5988 -395.372
v  34.7371 310.395 -388.746
v  16.3775 310.395 -395.372
v  53.0961 310.395 -395.372
v  48.3363 137.953 -400.526
v  53.0961 620.79 -395.372
v  34.7371 620.79 -388.746
v  16.3775 620.79 -395.372
v  34.7371 0 -415.251
v  16.3775 77.5988 -415.251
v  53.0961 77.5988 -415.251
v  59.216 310.395 -415.251
v  59.216 620.79 -415.251
v  10.2576 310.395 -415.251
v  10.2576 620.79 -415.251
v  171.668 310.395 -439.437
v  171.668 77.5988 -432.811
v  158.069 137.953 -427.657
v  153.309 310.395 -432.811
v  171.668 620.79 -439.437
v  153.309 620.79 -432.811
v  190.027 620.79 -432.811
v  190.027 310.395 -432.811
v  185.268 137.953 -427.657
v  158.069 137.953 -398.207
v  171.668 77.5988 -393.054
v  171.668 310.395 -386.427
v  153.309 310.395 -393.054
v  185.268 137.953 -398.207
v  190.027 310.395 -393.054
v  190.027 620.79 -393.054
v  171.668 620.79 -386.427
v  153.309 620.79 -393.054
v  153.309 77.5988 -412.932
v  171.668 0 -412.932
v  190.027 77.5988 -412.932
v  196.147 310.395 -412.932
v  196.147 620.79 -412.932
v  147.19 310.395 -412.932
v  147.189 620.79 -412.932
v  309.379 77.5988 -432.578
v  295.779 137.953 -427.424
v  291.02 310.395 -432.578
v  309.379 310.395 -439.204
v  291.02 620.79 -432.578
v  309.379 620.79 -439.204
v  327.739 620.79 -432.578
v  327.739 310.395 -432.578
v  322.979 137.953 -427.424
v  295.779 137.953 -397.974
v  309.379 77.5988 -392.821
v  309.379 310.395 -386.195
v  291.02 310.395 -392.821
v  322.979 137.953 -397.974
v  327.739 310.395 -392.821
v  327.739 620.79 -392.821
v  309.379 620.79 -386.195
v  291.02 620.79 -392.821
v  309.379 0 -412.699
v  291.02 77.5988 -412.699
v  327.739 77.5988 -412.699
v  333.858 310.395 -412.699
v  333.858 620.79 -412.699
v  284.901 310.395 -412.699
v  284.901 620.79 -412.699
v  422.113 77.5988 -263.572
v  427.267 137.953 -249.973
v  422.113 310.395 -245.213
v  415.487 310.395 -263.572
v  422.113 620.79 -245.213
v  415.487 620.79 -263.572
v  422.113 620.79 -281.932
v  422.113 310.395 -281.932
v  427.267 137.953 -277.172
v  456.717 137.953 -249.973
v  461.87 77.5988 -263.572
v  468.497 310.395 -263.572
v  461.87 310.395 -245.213
v  456.717 137.953 -277.172
v  461.87 310.395 -281.932
v  461.87 620.79 -281.932
v  468.497 620.79 -263.572
v  461.87 620.79 -245.213
v  441.992 0 -263.572
v  441.992 77.5988 -245.213
v  441.992 77.5988 -281.932
v  441.992 310.395 -288.052
v  441.992 620.79 -288.052
v  441.992 310.395 -239.093
v  441.992 620.79 -239.093
v  422.034 77.5988 -124.157
v  427.188 137.953 -110.558
v  422.034 310.395 -105.798
v  415.408 310.395 -124.157
v  422.034 620.79 -105.798
v  415.408 620.79 -124.157
v  422.034 620.79 -142.517
v  422.034 310.395 -142.517
v  427.188 137.953 -137.757
v  456.638 137.953 -110.558
v  461.791 77.5988 -124.157
v  468.418 310.395 -124.157
v  461.791 310.395 -105.798
v  456.638 137.953 -137.757
v  461.791 310.395 -142.517
v  461.791 620.79 -142.517
v  468.418 620.79 -124.157
v  461.791 620.79 -105.798
v  441.913 0 -124.157
v  441.913 77.5988 -105.798
v  441.913 77.5988 -142.517
v  441.913 310.395 -148.637
v  441.913 620.79 -148.637
v  441.913 310.395 -99.6781
v  441.913 620.79 -99.6781
v  420.963 77.5988 15.2584
v  426.117 137.953 28.8575
v  420.963 310.395 33.6173
v  414.337 310.395 15.2584
v  420.963 620.79 33.6173
v  414.337 620.79 15.2584
v  420.963 620.79 -3.1013
v  420.963 310.395 -3.1013
v  426.117 137.953 1.6585
v  455.567 137.953 28.8575
v  460.72 77.5988 15.2584
v  467.347 310.395 15.2584
v  460.72 310.395 33.6173
v  455.567 137.953 1.6585
v  460.72 310.395 -3.1013
v  460.72 620.79 -3.1013
v  467.347 620.79 15.2584
v  460.72 620.79 33.6173
v  440.842 0 15.2584
v  440.842 77.5988 33.6173
v  440.842 77.5988 -3.1013
v  440.842 310.395 -9.2212
v  440.842 620.79 -9.2212
v  440.842 310.395 39.7372
v  440.842 620.79 39.7372
v  414.898 77.5988 154.674
v  420.052 137.953 168.273
v  414.898 310.395 173.033
v  408.272 310.395 154.674
v  414.898 620.79 173.033
v  408.272 620.79 154.674
v  414.898 620.79 136.314
v  414.898 310.395 136.314
v  420.052 137.953 141.074
v  449.502 137.953 168.273
v  454.655 77.5988 154.674
v  461.282 310.395 154.674
v  454.655 310.395 173.033
v  449.502 137.953 141.074
v  454.655 310.395 136.314
v  454.655 620.79 136.314
v  461.282 620.79 154.674
v  454.656 620.79 173.033
v  434.777 0 154.674
v  434.777 77.5988 173.033
v  434.777 77.5988 136.314
v  434.777 310.395 130.194
v  434.777 620.79 130.194
v  434.777 310.395 179.152
v  434.777 620.79 179.152
v  418.956 77.5988 286.756
v  424.11 137.953 300.355
v  418.956 310.395 305.115
v  412.33 310.395 286.756
v  418.956 620.79 305.115
v  412.33 620.79 286.756
v  418.956 620.79 268.396
v  418.956 310.395 268.396
v  424.11 137.953 273.156
v  453.56 137.953 300.355
v  458.713 77.5988 286.756
v  465.34 310.395 286.756
v  458.714 310.395 305.115
v  453.56 137.953 273.156
v  458.714 310.395 268.396
v  458.714 620.79 268.396
v  465.34 620.79 286.756
v  458.714 620.79 305.115
v  438.835 0 286.756
v  438.835 77.5988 305.115
v  438.835 77.5988 268.396
v  438.835 310.395 262.277
v  438.835 620.79 262.277
v  438.835 310.395 311.235
v  438.835 620.79 311.235
v  310.267 77.5988 389.804
v  296.668 137.953 394.957
v  291.908 310.395 389.804
v  310.267 310.395 383.177
v  291.908 620.79 389.804
v  310.267 620.79 383.177
v  328.627 620.79 389.804
v  328.627 310.395 389.804
v  323.867 137.953 394.957
v  296.668 137.953 424.407
v  310.267 77.5988 429.561
v  310.267 310.395 436.187
v  291.908 310.395 429.561
v  323.867 137.953 424.407
v  328.627 310.395 429.561
v  328.627 620.79 429.561
v  310.267 620.79 436.187
v  291.908 620.79 429.561
v  310.267 0 409.682
v  291.908 77.5988 409.682
v  328.627 77.5988 409.682
v  334.747 310.395 409.682
v  334.747 620.79 409.682
v  285.789 310.395 409.682
v  285.789 620.79 409.682
v  170.908 77.5988 394.223
v  157.309 137.953 399.377
v  152.549 310.395 394.223
v  170.908 310.395 387.597
v  152.549 620.79 394.223
v  170.908 620.79 387.597
v  189.268 620.79 394.223
v  189.268 310.395 394.223
v  184.508 137.953 399.377
v  157.309 137.953 428.826
v  170.908 77.5988 433.98
v  170.908 310.395 440.606
v  152.549 310.395 433.98
v  184.508 137.953 428.826
v  189.268 310.395 433.98
v  189.268 620.79 433.98
v  170.908 620.79 440.606
v  152.549 620.79 433.98
v  170.908 0 414.101
v  152.549 77.5988 414.101
v  189.268 77.5988 414.101
v  195.388 310.395 414.101
v  195.388 620.79 414.101
v  146.43 310.395 414.101
v  146.43 620.79 414.102
v  31.8734 77.5988 388.969
v  18.2743 137.953 394.123
v  13.5145 310.395 388.969
v  31.8734 310.395 382.343
v  13.5145 620.79 388.969
v  31.8734 620.79 382.344
v  50.2331 620.79 388.969
v  50.2331 310.395 388.969
v  45.4733 137.953 394.123
v  18.2743 137.953 423.573
v  31.8734 77.5988 428.727
v  31.8734 310.395 435.353
v  13.5145 310.395 428.727
v  45.4733 137.953 423.573
v  50.2331 310.395 428.727
v  50.2331 620.79 428.727
v  31.8734 620.79 435.353
v  13.5145 620.79 428.727
v  31.8734 0 408.848
v  13.5145 77.5988 408.848
v  50.2331 77.5988 408.848
v  56.353 310.395 408.848
v  56.353 620.79 408.848
v  7.3946 310.395 408.848
v  7.3946 620.79 408.848
v  -103.75 77.5988 392.211
v  -117.349 137.953 397.364
v  -122.109 310.395 392.211
v  -103.75 310.395 385.585
v  -122.109 620.79 392.211
v  -103.75 620.79 385.585
v  -85.3906 620.79 392.211
v  -85.3906 310.395 392.211
v  -90.1504 137.953 397.364
v  -117.349 137.953 426.815
v  -103.75 77.5988 431.968
v  -103.75 310.395 438.594
v  -122.109 310.395 431.968
v  -90.1504 137.953 426.815
v  -85.3906 310.395 431.968
v  -85.3906 620.79 431.968
v  -103.75 620.79 438.595
v  -122.109 620.79 431.968
v  -103.75 0 412.089
v  -122.109 77.5988 412.089
v  -85.3906 77.5988 412.089
v  -79.2714 310.395 412.089
v  -79.2714 620.79 412.09
v  -128.229 310.395 412.09
v  -128.229 620.79 412.09
v  -241.413 77.5988 392.072
v  -255.012 137.953 397.226
v  -259.772 310.395 392.072
v  -241.413 310.395 385.447
v  -259.772 620.79 392.072
v  -241.413 620.79 385.447
v  -223.053 620.79 392.072
v  -223.053 310.395 392.072
v  -227.813 137.953 397.226
v  -255.012 137.953 426.676
v  -241.413 77.5988 431.83
v  -241.413 310.395 438.456
v  -259.772 310.395 431.83
v  -227.813 137.953 426.676
v  -223.053 310.395 431.83
v  -223.053 620.79 431.83
v  -241.413 620.79 438.456
v  -259.772 620.79 431.83
v  -241.413 0 411.951
v  -259.772 77.5988 411.951
v  -223.053 77.5988 411.951
v  -216.934 310.395 411.951
v  -216.934 620.79 411.951
v  -265.891 310.395 411.951
v  -265.891 620.79 411.951
v  -405.689 77.5988 292.717
v  -396.195 137.953 303.734
v  -399.41 310.395 309.969
v  -411.916 310.395 294.983
v  -399.41 620.79 309.969
v  -411.915 620.79 294.983
v  -411.968 620.79 275.465
v  -411.968 310.395 275.465
v  -405.498 137.953 278.175
v  -368.521 137.953 293.662
v  -368.329 77.5988 279.119
v  -362.103 310.395 276.853
v  -362.05 310.395 296.372
v  -377.824 137.953 268.103
v  -374.609 310.395 261.867
v  -374.609 620.79 261.867
v  -362.103 620.79 276.853
v  -362.05 620.79 296.372
v  -387.01 0 285.918
v  -380.73 77.5988 303.171
v  -393.289 77.5988 268.666
v  -395.382 310.395 262.916
v  -395.382 620.79 262.916
v  -378.637 310.395 308.921
v  -378.637 620.79 308.921
v  -407.071 77.5988 155.032
v  -397.576 137.953 166.049
v  -400.791 310.395 172.284
v  -413.297 310.395 157.298
v  -400.791 620.79 172.284
v  -413.297 620.79 157.298
v  -413.35 620.79 137.78
v  -413.35 310.395 137.78
v  -406.879 137.953 140.49
v  -369.903 137.953 155.976
v  -369.711 77.5988 141.434
v  -363.485 310.395 139.168
v  -363.431 310.395 158.686
v  -379.205 137.953 130.418
v  -375.99 310.395 124.182
v  -375.99 620.79 124.182
v  -363.485 620.79 139.168
v  -363.431 620.79 158.686
v  -388.391 0 148.233
v  -382.112 77.5988 165.485
v  -394.67 77.5988 130.981
v  -396.763 310.395 125.23
v  -396.763 620.79 125.23
v  -380.019 310.395 171.236
v  -380.019 620.79 171.236
v  -414.993 77.5988 18.2102
v  -405.499 137.953 29.2272
v  -408.713 310.395 35.4626
v  -421.22 310.395 20.4766
v  -408.713 620.79 35.4626
v  -421.22 620.79 20.4766
v  -421.272 620.79 0.958399
v  -421.272 310.395 0.958399
v  -414.801 137.953 3.6685
v  -377.825 137.953 19.1549
v  -377.633 77.5988 4.6124
v  -371.407 310.395 2.3462
v  -371.354 310.395 21.8648
v  -387.128 137.953 -6.4038
v  -383.912 310.395 -12.6394
v  -383.912 620.79 -12.6394
v  -371.407 620.79 2.3462
v  -371.354 620.79 21.8648
v  -396.313 0 11.4114
v  -390.034 77.5988 28.6638
v  -402.592 77.5988 -5.8404
v  -404.686 310.395 -11.5912
v  -404.686 620.79 -11.5912
v  -387.941 310.395 34.414
v  -387.941 620.79 34.4146
v  -414.781 77.5988 -119.663
v  -405.287 137.953 -108.646
v  -408.502 310.395 -102.411
v  -421.008 310.395 -117.397
v  -408.502 620.79 -102.411
v  -421.008 620.79 -117.397
v  -421.06 620.79 -136.915
v  -421.06 310.395 -136.915
v  -414.59 137.953 -134.205
v  -377.614 137.953 -118.718
v  -377.422 77.5988 -133.261
v  -371.195 310.395 -135.527
v  -371.142 310.395 -116.008
v  -386.916 137.953 -144.278
v  -383.701 310.395 -150.513
v  -383.701 620.79 -150.513
v  -371.195 620.79 -135.527
v  -371.142 620.79 -116.008
v  -396.102 0 -126.462
v  -389.822 77.5988 -109.209
v  -402.381 77.5988 -143.714
v  -404.474 310.395 -149.464
v  -404.474 620.79 -149.464
v  -387.73 310.395 -103.459
v  -387.73 620.79 -103.459
v  -414.615 77.5988 -259.079
v  -405.121 137.953 -248.062
v  -408.335 310.395 -241.826
v  -420.842 310.395 -256.812
v  -408.335 620.79 -241.826
v  -420.842 620.79 -256.812
v  -420.894 620.79 -276.33
v  -420.894 310.395 -276.331
v  -414.424 137.953 -273.621
v  -377.447 137.953 -258.135
v  -377.255 77.5988 -272.676
v  -371.029 310.395 -274.943
v  -370.976 310.395 -255.424
v  -386.75 137.953 -283.693
v  -383.535 310.395 -289.929
v  -383.534 620.79 -289.928
v  -371.029 620.79 -274.943
v  -370.976 620.79 -255.424
v  -395.935 0 -265.877
v  -389.656 77.5988 -248.626
v  -402.215 77.5988 -283.13
v  -404.308 310.395 -288.88
v  -404.308 620.79 -288.88
v  -387.563 310.395 -242.875
v  -387.563 620.79 -242.875
v  416.054 10.2841 -423.214
v  411.633 23.1388 -428.001
v  439.14 23.1388 -437.929
v  439.14 5.78479 -434.604
v  418.494 112.307 -420.572
v  439.14 112.307 -428.024
v  459.786 112.307 -420.572
v  466.647 23.1388 -428.001
v  462.226 10.2841 -423.214
v  411.633 23.1388 -368.434
v  416.054 10.2841 -373.221
v  439.14 5.78479 -361.831
v  439.14 23.1388 -358.506
v  462.226 10.2841 -373.222
v  466.647 23.1388 -368.434
v  459.786 112.307 -375.863
v  439.14 112.307 -368.411
v  418.494 112.307 -375.863
v  405.534 5.78479 -398.217
v  439.14 0 -398.218
v  472.746 5.78479 -398.218
v  475.816 23.1388 -398.218
v  466.668 112.307 -398.217
v  414.661 333.534 -398.217
v  414.661 620.79 -398.217
v  420.781 620.79 -418.096
v  420.781 333.534 -418.096
v  411.612 112.307 -398.217
v  420.78 333.534 -378.339
v  420.78 620.79 -378.339
v  -402.811 10.2841 -423.214
v  -407.231 23.1388 -428.001
v  -379.724 23.1388 -437.928
v  -379.724 5.78479 -434.604
v  -400.371 112.307 -420.572
v  -379.724 112.307 -428.024
v  -359.078 112.307 -420.572
v  -352.217 23.1388 -428.001
v  -356.638 10.2841 -423.214
v  -379.724 5.78479 -361.831
v  -379.724 23.1388 -358.506
v  -407.231 23.1388 -368.434
v  -402.811 10.2841 -373.221
v  -356.638 10.2841 -373.221
v  -352.217 23.1388 -368.434
v  -359.078 112.307 -375.862
v  -379.724 112.307 -368.411
v  -400.371 112.307 -375.862
v  -379.724 0 -398.217
v  -413.33 5.78479 -398.217
v  -346.118 5.78479 -398.217
v  -343.048 23.1388 -398.217
v  -352.196 112.307 -398.217
v  -404.204 333.534 -398.217
v  -404.204 620.79 -398.217
v  -398.084 620.79 -418.096
v  -398.084 333.534 -418.096
v  -407.253 112.307 -398.217
v  -398.084 333.534 -378.338
v  -398.084 620.79 -378.338
v  -397.036 10.2833 387.541
v  -401.457 23.1388 382.754
v  -373.949 23.1388 372.826
v  -373.949 5.78406 376.151
v  -394.595 112.307 390.183
v  -373.949 112.307 382.731
v  -353.303 112.307 390.183
v  -346.442 23.1388 382.754
v  -350.863 10.2833 387.541
v  -373.949 5.78406 448.924
v  -373.949 23.1388 452.249
v  -401.457 23.1388 442.321
v  -397.035 10.2833 437.533
v  -350.863 10.2833 437.533
v  -346.442 23.1388 442.321
v  -353.303 112.307 434.892
v  -373.949 112.307 442.344
v  -394.595 112.307 434.892
v  -373.949 0 412.538
v  -407.555 5.78406 412.538
v  -340.344 5.78406 412.538
v  -337.274 23.1388 412.538
v  -346.421 112.307 412.538
v  -392.309 333.534 392.659
v  -398.428 333.534 412.538
v  -398.428 620.79 412.538
v  -392.309 620.79 392.659
v  -401.478 112.307 412.538
v  -392.309 333.534 432.416
v  -392.309 620.79 432.416
v  446.318 5.78479 372.391
v  423.232 10.2833 383.781
v  418.811 23.1388 378.994
v  446.318 23.1388 369.067
v  425.672 112.307 386.423
v  446.318 112.307 378.972
v  473.825 23.1388 378.994
v  466.965 112.307 386.423
v  469.404 10.2833 383.781
v  423.232 10.2833 433.774
v  446.318 5.78479 445.164
v  446.318 23.1388 448.489
v  418.811 23.1388 438.561
v  469.404 10.2833 433.774
v  473.825 23.1388 438.561
v  446.318 112.307 438.584
v  466.965 112.307 431.133
v  425.672 112.307 431.133
v  412.712 5.78479 408.778
v  446.318 0 408.778
v  479.924 5.78479 408.778
v  482.995 23.1388 408.778
v  473.846 112.307 408.778
v  427.959 333.534 388.899
v  421.839 333.534 408.778
v  421.839 620.79 408.778
v  427.959 620.79 388.899
v  418.79 112.307 408.778
v  427.959 333.534 428.657
v  427.959 620.79 428.657
v  439.14 333.534 -424.722
v  439.14 620.79 -424.722
v  457.499 620.79 -418.096
v  457.5 333.534 -418.096
v  457.5 333.534 -378.339
v  439.14 333.534 -371.713
v  439.14 620.79 -371.713
v  457.499 620.79 -378.339
v  463.619 333.534 -398.217
v  463.619 620.79 -398.217
v  402.464 23.1388 -398.217
v  -379.724 333.534 -424.722
v  -379.724 620.79 -424.722
v  -361.365 620.79 -418.096
v  -361.365 333.534 -418.096
v  -361.365 333.534 -378.338
v  -379.724 333.534 -371.713
v  -379.724 620.79 -371.713
v  -361.365 620.79 -378.338
v  -355.245 333.534 -398.217
v  -355.245 620.79 -398.217
v  -416.401 23.1388 -398.217
v  -373.949 333.534 386.033
v  -373.949 620.79 386.033
v  -355.59 333.534 392.659
v  -355.59 620.79 392.659
v  -355.59 333.534 432.416
v  -373.949 333.534 439.042
v  -355.59 620.79 432.416
v  -373.949 620.79 439.042
v  -349.471 333.534 412.538
v  -349.471 620.79 412.538
v  -410.625 23.1388 412.538
v  446.318 333.534 382.273
v  446.318 620.79 382.273
v  464.678 620.79 388.899
v  464.678 333.534 388.899
v  464.678 333.534 428.657
v  446.318 333.534 435.283
v  446.318 620.79 435.283
v  464.678 620.79 428.657
v  470.798 333.534 408.778
v  470.798 620.79 408.778
v  409.642 23.1388 408.778
v  -428.94 613.329 -433.743
v  -428.94 662.287 -433.743
v  433.609 662.287 -433.744
v  433.609 613.329 -433.744
v  433.609 662.287 -380.734
v  -428.94 662.287 -380.733
v  -428.94 613.329 -380.733
v  433.609 613.329 -380.734
v  -418.891 613.329 401.478
v  -418.891 662.287 401.478
v  -418.891 662.287 -428.13
v  -418.891 613.329 -428.13
v  -365.882 662.287 -428.13
v  -365.882 662.287 401.478
v  -365.882 613.329 401.478
v  -365.882 613.329 -428.13
v  -412.925 613.329 385.667
v  -412.925 662.287 385.667
v  475.063 662.287 385.667
v  475.063 613.329 385.667
v  475.063 662.287 440.499
v  -412.925 662.287 440.499
v  -412.925 613.329 440.499
v  475.063 613.329 440.499
v  412.833 613.329 418.801
v  412.833 662.287 418.801
v  412.832 662.287 -383.39
v  412.832 613.329 -383.39
v  465.842 662.287 -383.39
v  465.843 662.287 418.801
v  465.843 613.329 418.801
v  465.842 613.329 -383.39
v  25.7379 686.472 -13.682
v  -30.7257 3940.66 -11.4913
v  -28.2329 3940.66 -4.1352
v  28.6889 686.472 -4.9736
v  -37.2526 3940.66 -16.0372
v  18.0111 686.472 -19.0636
v  8.4611 686.472 -19.0636
v  -45.3197 3940.66 -16.0372
v  -51.8466 3940.66 -11.4913
v  0.7344 686.472 -13.682
v  -2.2166 686.472 -4.9736
v  -54.3394 3940.66 -4.1352
v  -51.8466 3940.66 3.2209
v  0.7344 686.472 3.7347
v  -45.3197 3940.66 7.7669
v  8.4611 686.472 9.1163
v  18.0111 686.472 9.1163
v  -37.2526 3940.66 7.7669
v  25.7379 686.472 3.7347
v  -30.7257 3940.66 3.2209
v  -1.4029 645.737 -240.033
v  -6.5563 640.977 0
v  -13.1828 659.337 0
v  -6.557 659.337 -324.045
v  -1.4029 645.737 240.033
v  -6.5563 659.337 324.045
v  -1.4029 672.937 240.033
v  -6.5563 677.696 0
v  -1.4029 672.937 -240.033
v  33.2009 640.977 0
v  28.0468 645.737 -240.033
v  33.2002 659.337 -324.045
v  39.8268 659.337 0
v  28.0468 672.937 -240.033
v  33.2009 677.696 0
v  33.2009 659.337 324.045
v  28.0468 672.937 240.033
v  28.0468 645.737 240.033
v  13.322 659.337 -432.06
v  13.322 640.977 -324.045
v  13.322 677.696 -324.045
v  13.322 683.816 0
v  13.322 677.696 324.045
v  13.322 659.337 432.06
v  13.322 640.977 324.045
v  13.322 634.858 0
v  -1.90735e-06 619.449 -19.8783
v  -1.90735e-06 637.808 -26.5048
v  414.803 637.808 -26.5048
v  414.803 619.449 -19.879
v  -414.804 637.808 -26.5048
v  -414.804 619.449 -19.8783
v  -414.804 656.167 -19.8783
v  -1.90735e-06 656.167 -19.879
v  414.803 656.167 -19.879
v  -1.90735e-06 619.449 19.879
v  414.803 619.449 19.8783
v  414.804 637.808 26.5048
v  -1.90735e-06 637.808 26.5048
v  -1.90735e-06 656.167 19.8783
v  414.803 656.167 19.8783
v  -414.803 656.167 19.879
v  -414.803 637.808 26.5048
v  -414.803 619.449 19.879
v  -1.90735e-06 662.287 0
v  414.803 662.287 0
v  -414.803 662.287 0
v  -1.90735e-06 613.329 0
v  -414.803 613.329 0
v  414.803 613.329 0

# 974 UV coordinates
vt 0.2193 0.1858 0
vt 0.1532 0.1872 0
vt 0.1532 0.1792 0
vt 0.2424 0.1793 0
vt 0.0344 0.19 0
vt 0.0343 0.1792 0
vt 0.0344 0.1684 0
vt 0.1532 0.1713 0
vt 0.2193 0.1728 0
vt 0.154 0.2041 0
vt 0.2199 0.1991 0
vt 0.2435 0.2024 0
vt 0.1547 0.212 0
vt 0.1548 0.1465 0
vt 0.2435 0.1561 0
vt 0.2199 0.1594 0
vt 0.154 0.1547 0
vt 0.0355 0.146 0
vt 0.0365 0.135 0
vt 0.0364 0.2235 0
vt 0.0355 0.2127 0
vt 0.2727 0.1851 0
vt 0.2427 0.1913 0
vt 0.2427 0.1672 0
vt 0.2727 0.1735 0
vt 0.2732 0.1639 0
vt 0.2731 0.1947 0
vt 0.1536 0.1629 0
vt 0.0349 0.1571 0
vt 0.1536 0.1956 0
vt 0.0348 0.2013 0
vt 0.2424 0.2969 0
vt 0.2193 0.3034 0
vt 0.1532 0.3048 0
vt 0.1532 0.2968 0
vt 0.0343 0.2968 0
vt 0.0344 0.3076 0
vt 0.1532 0.2889 0
vt 0.0344 0.286 0
vt 0.2193 0.2904 0
vt 0.2435 0.32 0
vt 0.1547 0.3296 0
vt 0.154 0.3217 0
vt 0.2199 0.3167 0
vt 0.154 0.272 0
vt 0.1548 0.2641 0
vt 0.2435 0.2737 0
vt 0.2199 0.277 0
vt 0.0355 0.2634 0
vt 0.0365 0.2526 0
vt 0.0364 0.3411 0
vt 0.0355 0.3303 0
vt 0.2727 0.3027 0
vt 0.2429 0.3089 0
vt 0.2427 0.2848 0
vt 0.2727 0.2911 0
vt 0.2732 0.2815 0
vt 0.2731 0.3123 0
vt 0.1536 0.2804 0
vt 0.0349 0.2747 0
vt 0.1541 0.3132 0
vt 0.0348 0.3189 0
vt 0.2193 0.4068 0
vt 0.1532 0.4082 0
vt 0.1532 0.4003 0
vt 0.2424 0.4004 0
vt 0.0344 0.4111 0
vt 0.0343 0.4003 0
vt 0.0348 0.3895 0
vt 0.1536 0.3923 0
vt 0.2193 0.3939 0
vt 0.2199 0.4202 0
vt 0.2435 0.4235 0
vt 0.1547 0.4331 0
vt 0.154 0.4251 0
vt 0.154 0.3755 0
vt 0.1548 0.3676 0
vt 0.2435 0.3772 0
vt 0.2199 0.3805 0
vt 0.0355 0.3669 0
vt 0.0365 0.3561 0
vt 0.0364 0.4446 0
vt 0.0355 0.4338 0
vt 0.2727 0.4061 0
vt 0.2427 0.4124 0
vt 0.2427 0.3883 0
vt 0.2727 0.3946 0
vt 0.2732 0.385 0
vt 0.2731 0.4157 0
vt 0.1536 0.3839 0
vt 0.0349 0.3782 0
vt 0.1536 0.4167 0
vt 0.0348 0.4224 0
vt 0.1509 0.5038 0
vt 0.24 0.5038 0
vt 0.2169 0.5103 0
vt 0.1508 0.5117 0
vt 0.0319 0.5038 0
vt 0.032 0.5146 0
vt 0.032 0.4929 0
vt 0.1509 0.4958 0
vt 0.2169 0.4973 0
vt 0.2176 0.5237 0
vt 0.2411 0.527 0
vt 0.1524 0.5366 0
vt 0.1516 0.5286 0
vt 0.2411 0.4807 0
vt 0.2176 0.484 0
vt 0.1517 0.479 0
vt 0.1525 0.471 0
vt 0.0331 0.4703 0
vt 0.0341 0.4596 0
vt 0.0341 0.548 0
vt 0.0331 0.5372 0
vt 0.2403 0.5159 0
vt 0.2703 0.5096 0
vt 0.2404 0.4918 0
vt 0.2704 0.498 0
vt 0.2708 0.4884 0
vt 0.2708 0.5192 0
vt 0.1513 0.4874 0
vt 0.0325 0.4816 0
vt 0.1512 0.5201 0
vt 0.0325 0.5259 0
vt 0.7713 0.0751 0
vt 0.7486 0.0815 0
vt 0.6836 0.0829 0
vt 0.6837 0.0751 0
vt 0.5668 0.0857 0
vt 0.5668 0.0751 0
vt 0.5669 0.0644 0
vt 0.6837 0.0673 0
vt 0.7486 0.0688 0
vt 0.7492 0.0946 0
vt 0.7724 0.0979 0
vt 0.6852 0.1073 0
vt 0.6844 0.0995 0
vt 0.7724 0.0524 0
vt 0.7493 0.0556 0
vt 0.6845 0.0507 0
vt 0.6852 0.0429 0
vt 0.568 0.0422 0
vt 0.5689 0.0316 0
vt 0.5689 0.1186 0
vt 0.5679 0.108 0
vt 0.8011 0.0808 0
vt 0.7719 0.087 0
vt 0.8011 0.0694 0
vt 0.7717 0.0633 0
vt 0.8016 0.06 0
vt 0.8016 0.0903 0
vt 0.6841 0.059 0
vt 0.5674 0.0533 0
vt 0.6845 0.0912 0
vt 0.5673 0.0968 0
vt 0.5081 0.0706 0
vt 0.4852 0.077 0
vt 0.42 0.0783 0
vt 0.42 0.0705 0
vt 0.3026 0.0812 0
vt 0.3026 0.0705 0
vt 0.3027 0.0598 0
vt 0.42 0.0627 0
vt 0.4853 0.0641 0
vt 0.4859 0.0901 0
vt 0.5091 0.0934 0
vt 0.4215 0.1029 0
vt 0.4207 0.095 0
vt 0.5091 0.0477 0
vt 0.4859 0.051 0
vt 0.4211 0.0462 0
vt 0.4216 0.0382 0
vt 0.304 0.0377 0
vt 0.3047 0.0268 0
vt 0.3047 0.1142 0
vt 0.3037 0.1035 0
vt 0.538 0.0763 0
vt 0.5084 0.0825 0
vt 0.538 0.0648 0
vt 0.5084 0.0586 0
vt 0.5385 0.0554 0
vt 0.5384 0.0858 0
vt 0.4204 0.0543 0
vt 0.3031 0.0486 0
vt 0.4204 0.0867 0
vt 0.3031 0.0923 0
vt 0.5007 0.5159 0
vt 0.478 0.5222 0
vt 0.4131 0.5236 0
vt 0.4131 0.5158 0
vt 0.2963 0.5264 0
vt 0.2962 0.5158 0
vt 0.2963 0.5051 0
vt 0.4131 0.508 0
vt 0.4781 0.5095 0
vt 0.4787 0.5353 0
vt 0.5018 0.5386 0
vt 0.4146 0.548 0
vt 0.4138 0.5402 0
vt 0.5018 0.4931 0
vt 0.4787 0.4963 0
vt 0.4139 0.4914 0
vt 0.4147 0.4836 0
vt 0.2974 0.4829 0
vt 0.2984 0.4723 0
vt 0.2983 0.5593 0
vt 0.2974 0.5487 0
vt 0.5305 0.5215 0
vt 0.5011 0.5277 0
vt 0.5306 0.5102 0
vt 0.5011 0.504 0
vt 0.531 0.5007 0
vt 0.531 0.531 0
vt 0.4135 0.4997 0
vt 0.2968 0.494 0
vt 0.4135 0.5319 0
vt 0.2967 0.5375 0
vt 0.2356 0.6157 0
vt 0.2128 0.6221 0
vt 0.1475 0.6234 0
vt 0.1475 0.6156 0
vt 0.0302 0.6263 0
vt 0.0301 0.6156 0
vt 0.0302 0.6049 0
vt 0.1475 0.6078 0
vt 0.2128 0.6092 0
vt 0.2134 0.6352 0
vt 0.2367 0.6385 0
vt 0.1491 0.648 0
vt 0.1483 0.6401 0
vt 0.2367 0.5928 0
vt 0.2134 0.5961 0
vt 0.1484 0.5911 0
vt 0.1491 0.5833 0
vt 0.0313 0.5826 0
vt 0.0323 0.572 0
vt 0.0322 0.6593 0
vt 0.0313 0.6486 0
vt 0.2655 0.6214 0
vt 0.2359 0.6276 0
vt 0.2655 0.6099 0
vt 0.2359 0.6037 0
vt 0.266 0.6005 0
vt 0.266 0.6309 0
vt 0.148 0.5994 0
vt 0.0307 0.5937 0
vt 0.1479 0.6318 0
vt 0.0306 0.6374 0
vt 0.5014 0.626 0
vt 0.4787 0.6324 0
vt 0.4137 0.6338 0
vt 0.4137 0.626 0
vt 0.2969 0.6366 0
vt 0.2968 0.626 0
vt 0.2969 0.6153 0
vt 0.4137 0.6182 0
vt 0.4787 0.6196 0
vt 0.4793 0.6455 0
vt 0.5024 0.6488 0
vt 0.4152 0.6582 0
vt 0.4145 0.6501 0
vt 0.5025 0.6033 0
vt 0.4793 0.6065 0
vt 0.4145 0.6016 0
vt 0.4153 0.5938 0
vt 0.298 0.5931 0
vt 0.299 0.5825 0
vt 0.299 0.6695 0
vt 0.298 0.6586 0
vt 0.5311 0.6317 0
vt 0.5017 0.6381 0
vt 0.5312 0.6203 0
vt 0.5017 0.6142 0
vt 0.5316 0.6109 0
vt 0.5316 0.6412 0
vt 0.4141 0.6099 0
vt 0.2974 0.6042 0
vt 0.4141 0.6425 0
vt 0.2974 0.6477 0
vt 0.7683 0.1665 0
vt 0.7454 0.1696 0
vt 0.6813 0.1643 0
vt 0.6821 0.1566 0
vt 0.5661 0.1551 0
vt 0.5671 0.1446 0
vt 0.5665 0.2306 0
vt 0.5655 0.2201 0
vt 0.6808 0.2126 0
vt 0.6817 0.2203 0
vt 0.7451 0.2083 0
vt 0.768 0.2117 0
vt 0.7447 0.1825 0
vt 0.7671 0.1891 0
vt 0.6803 0.1885 0
vt 0.6804 0.1807 0
vt 0.7446 0.1953 0
vt 0.6803 0.1962 0
vt 0.5647 0.1982 0
vt 0.5647 0.1877 0
vt 0.5649 0.1771 0
vt 0.7971 0.1742 0
vt 0.7675 0.1773 0
vt 0.797 0.2044 0
vt 0.7673 0.2009 0
vt 0.7966 0.195 0
vt 0.7967 0.1836 0
vt 0.6807 0.2044 0
vt 0.5651 0.2092 0
vt 0.6809 0.1725 0
vt 0.5654 0.1661 0
vt 0.5046 0.1541 0
vt 0.4815 0.1571 0
vt 0.4171 0.1518 0
vt 0.4179 0.1441 0
vt 0.3013 0.1425 0
vt 0.3024 0.132 0
vt 0.3017 0.2185 0
vt 0.3013 0.208 0
vt 0.4172 0.2004 0
vt 0.4175 0.2081 0
vt 0.4812 0.196 0
vt 0.5042 0.1994 0
vt 0.4808 0.1701 0
vt 0.5033 0.1767 0
vt 0.4162 0.1761 0
vt 0.4162 0.1683 0
vt 0.4807 0.183 0
vt 0.4161 0.1839 0
vt 0.3 0.1859 0
vt 0.3 0.1753 0
vt 0.3001 0.1647 0
vt 0.5335 0.1618 0
vt 0.5037 0.1649 0
vt 0.5333 0.1921 0
vt 0.5035 0.1886 0
vt 0.5329 0.1827 0
vt 0.533 0.1712 0
vt 0.4164 0.1921 0
vt 0.3003 0.1969 0
vt 0.4167 0.16 0
vt 0.3006 0.1536 0
vt 0.506 0.3804 0
vt 0.483 0.3835 0
vt 0.4186 0.3781 0
vt 0.4194 0.3704 0
vt 0.3028 0.3689 0
vt 0.3038 0.3584 0
vt 0.3032 0.4448 0
vt 0.3023 0.4343 0
vt 0.4182 0.4267 0
vt 0.4189 0.4344 0
vt 0.4827 0.4224 0
vt 0.5057 0.4258 0
vt 0.4823 0.3965 0
vt 0.5048 0.4031 0
vt 0.4176 0.4025 0
vt 0.4177 0.3946 0
vt 0.4821 0.4093 0
vt 0.4175 0.4102 0
vt 0.3014 0.4122 0
vt 0.3014 0.4016 0
vt 0.3016 0.391 0
vt 0.5349 0.3882 0
vt 0.5052 0.3912 0
vt 0.5348 0.4184 0
vt 0.505 0.4149 0
vt 0.5343 0.409 0
vt 0.5344 0.3976 0
vt 0.4179 0.4185 0
vt 0.3018 0.4233 0
vt 0.4181 0.3864 0
vt 0.3021 0.3799 0
vt 0.504 0.2971 0
vt 0.4812 0.3035 0
vt 0.4159 0.3049 0
vt 0.4159 0.2971 0
vt 0.2986 0.3077 0
vt 0.2985 0.2971 0
vt 0.2986 0.2864 0
vt 0.4159 0.2892 0
vt 0.4812 0.2907 0
vt 0.4818 0.3167 0
vt 0.5051 0.32 0
vt 0.4175 0.3295 0
vt 0.4167 0.3216 0
vt 0.5051 0.2743 0
vt 0.4818 0.2775 0
vt 0.4168 0.2726 0
vt 0.4175 0.2648 0
vt 0.2997 0.2641 0
vt 0.3007 0.2534 0
vt 0.3006 0.3408 0
vt 0.2997 0.3301 0
vt 0.5339 0.3028 0
vt 0.5043 0.309 0
vt 0.5339 0.2914 0
vt 0.5043 0.2852 0
vt 0.5344 0.2819 0
vt 0.5344 0.3123 0
vt 0.4164 0.2809 0
vt 0.2991 0.2752 0
vt 0.4163 0.3132 0
vt 0.299 0.3189 0
vt 0.7593 0.2971 0
vt 0.7366 0.3035 0
vt 0.6716 0.3048 0
vt 0.6717 0.297 0
vt 0.5549 0.3076 0
vt 0.5548 0.297 0
vt 0.5549 0.2864 0
vt 0.6717 0.2892 0
vt 0.7366 0.2907 0
vt 0.7372 0.3166 0
vt 0.7604 0.3198 0
vt 0.6732 0.3293 0
vt 0.6724 0.3214 0
vt 0.7604 0.2743 0
vt 0.7373 0.2776 0
vt 0.6725 0.2726 0
vt 0.6732 0.2649 0
vt 0.556 0.2642 0
vt 0.5569 0.2536 0
vt 0.5569 0.3405 0
vt 0.5559 0.3299 0
vt 0.7891 0.3028 0
vt 0.7596 0.3089 0
vt 0.7891 0.2914 0
vt 0.7597 0.2852 0
vt 0.7896 0.282 0
vt 0.7896 0.3122 0
vt 0.6721 0.2809 0
vt 0.5554 0.2753 0
vt 0.672 0.3131 0
vt 0.5553 0.3188 0
vt 0.9051 0.5201 0
vt 0.8984 0.4963 0
vt 0.897 0.4285 0
vt 0.9051 0.4285 0
vt 0.8941 0.3066 0
vt 0.9051 0.3065 0
vt 0.9165 0.3066 0
vt 0.9135 0.4285 0
vt 0.9117 0.4964 0
vt 0.8847 0.497 0
vt 0.8813 0.5212 0
vt 0.8715 0.4301 0
vt 0.8796 0.4293 0
vt 0.9288 0.5212 0
vt 0.9254 0.497 0
vt 0.9306 0.4294 0
vt 0.9387 0.4302 0
vt 0.9394 0.3077 0
vt 0.9505 0.3088 0
vt 0.8597 0.3087 0
vt 0.8708 0.3077 0
vt 0.8991 0.5511 0
vt 0.8927 0.5204 0
vt 0.911 0.5512 0
vt 0.9174 0.5204 0
vt 0.9209 0.5516 0
vt 0.8893 0.5516 0
vt 0.9219 0.429 0
vt 0.9278 0.3071 0
vt 0.8883 0.4289 0
vt 0.8824 0.307 0
vt 0.9285 0.2501 0
vt 0.9253 0.2262 0
vt 0.9308 0.1592 0
vt 0.9389 0.1601 0
vt 0.9404 0.0389 0
vt 0.9514 0.04 0
vt 0.8615 0.0393 0
vt 0.8725 0.0384 0
vt 0.8804 0.1589 0
vt 0.8723 0.1596 0
vt 0.8848 0.2259 0
vt 0.8813 0.2498 0
vt 0.9118 0.2254 0
vt 0.9049 0.2488 0
vt 0.9055 0.1582 0
vt 0.9137 0.1583 0
vt 0.8984 0.2253 0
vt 0.8975 0.1582 0
vt 0.8954 0.0375 0
vt 0.9064 0.0375 0
vt 0.9174 0.0377 0
vt 0.9204 0.2802 0
vt 0.9172 0.2492 0
vt 0.889 0.28 0
vt 0.8926 0.2491 0
vt 0.8987 0.2795 0
vt 0.9106 0.2796 0
vt 0.8889 0.1585 0
vt 0.8839 0.0379 0
vt 0.9223 0.1588 0
vt 0.9289 0.0382 0
vt 0.7711 0.6027 0
vt 0.7472 0.6059 0
vt 0.6803 0.6003 0
vt 0.6811 0.5923 0
vt 0.5599 0.5907 0
vt 0.561 0.5798 0
vt 0.5604 0.6696 0
vt 0.5595 0.6587 0
vt 0.6799 0.6508 0
vt 0.6807 0.6588 0
vt 0.7469 0.6463 0
vt 0.7708 0.6499 0
vt 0.7465 0.6194 0
vt 0.7699 0.6263 0
vt 0.6793 0.6256 0
vt 0.6793 0.6175 0
vt 0.7463 0.6328 0
vt 0.6792 0.6337 0
vt 0.5585 0.6358 0
vt 0.5585 0.6248 0
vt 0.5587 0.6137 0
vt 0.8012 0.6108 0
vt 0.7702 0.6142 0
vt 0.801 0.6422 0
vt 0.7701 0.6386 0
vt 0.8006 0.6324 0
vt 0.8007 0.6206 0
vt 0.6795 0.6423 0
vt 0.5589 0.6472 0
vt 0.6797 0.6094 0
vt 0.5592 0.6022 0
vt 0.7708 0.4955 0
vt 0.7469 0.4986 0
vt 0.6799 0.4931 0
vt 0.6808 0.4851 0
vt 0.5596 0.4835 0
vt 0.5607 0.4726 0
vt 0.56 0.5624 0
vt 0.5591 0.5515 0
vt 0.6796 0.5436 0
vt 0.6803 0.5516 0
vt 0.7466 0.5391 0
vt 0.7705 0.5426 0
vt 0.7461 0.5122 0
vt 0.7695 0.519 0
vt 0.6789 0.5184 0
vt 0.679 0.5102 0
vt 0.746 0.5255 0
vt 0.6789 0.5264 0
vt 0.5582 0.5285 0
vt 0.5582 0.5175 0
vt 0.5584 0.5065 0
vt 0.8009 0.5035 0
vt 0.7699 0.5067 0
vt 0.8007 0.535 0
vt 0.7698 0.5313 0
vt 0.8003 0.5252 0
vt 0.8004 0.5133 0
vt 0.6792 0.535 0
vt 0.5586 0.54 0
vt 0.6795 0.5016 0
vt 0.5589 0.495 0
vt 0.7708 0.3885 0
vt 0.7469 0.3916 0
vt 0.6799 0.3861 0
vt 0.6808 0.3781 0
vt 0.5596 0.3765 0
vt 0.5607 0.3656 0
vt 0.56 0.4554 0
vt 0.5591 0.4445 0
vt 0.6796 0.4366 0
vt 0.6803 0.4446 0
vt 0.7466 0.4321 0
vt 0.7705 0.4356 0
vt 0.7461 0.4052 0
vt 0.7695 0.412 0
vt 0.6789 0.4114 0
vt 0.679 0.4032 0
vt 0.746 0.4185 0
vt 0.6789 0.4194 0
vt 0.5582 0.4215 0
vt 0.5582 0.4105 0
vt 0.5584 0.3995 0
vt 0.8009 0.3965 0
vt 0.7699 0.3997 0
vt 0.8007 0.428 0
vt 0.7698 0.4243 0
vt 0.8003 0.4182 0
vt 0.8004 0.4063 0
vt 0.6792 0.428 0
vt 0.5586 0.433 0
vt 0.6795 0.3947 0
vt 0.5589 0.388 0
vt 0.2391 0.0357 0
vt 0.2158 0.0388 0
vt 0.1506 0.0333 0
vt 0.1514 0.0255 0
vt 0.0333 0.024 0
vt 0.0344 0.0133 0
vt 0.0337 0.1009 0
vt 0.0329 0.0902 0
vt 0.1502 0.0825 0
vt 0.1509 0.0904 0
vt 0.2155 0.0782 0
vt 0.2388 0.0816 0
vt 0.2151 0.0519 0
vt 0.2379 0.0586 0
vt 0.1496 0.058 0
vt 0.1496 0.0501 0
vt 0.2149 0.065 0
vt 0.1495 0.0661 0
vt 0.0319 0.0681 0
vt 0.0319 0.0572 0
vt 0.0321 0.0464 0
vt 0.2684 0.0435 0
vt 0.2382 0.0466 0
vt 0.2682 0.0742 0
vt 0.2381 0.0706 0
vt 0.2678 0.0646 0
vt 0.2679 0.053 0
vt 0.1499 0.0742 0
vt 0.0323 0.0791 0
vt 0.1501 0.0417 0
vt 0.0326 0.0352 0
vt 0.1978 0.6906 0
vt 0.1976 0.6959 0
vt 0.1862 0.6958 0
vt 0.1862 0.6887 0
vt 0.1969 0.7328 0
vt 0.186 0.7327 0
vt 0.1751 0.7327 0
vt 0.1748 0.6958 0
vt 0.1747 0.6905 0
vt 0.2222 0.6968 0
vt 0.2224 0.6915 0
vt 0.2341 0.6904 0
vt 0.2336 0.6976 0
vt 0.2435 0.6929 0
vt 0.2449 0.6983 0
vt 0.2396 0.735 0
vt 0.231 0.7344 0
vt 0.2202 0.7337 0
vt 0.867 0.8778 0
vt 0.8873 0.8766 0
vt 0.9028 0.8884 0
vt 0.8782 0.9005 0
vt 0.9028 0.9077 0
vt 0.8894 0.9232 0
vt 0.869 0.9244 0
vt 0.8536 0.9127 0
vt 0.8536 0.8933 0
vt 0.1625 0.6961 0
vt 0.1623 0.6889 0
vt 0.1635 0.733 0
vt 0.1502 0.6964 0
vt 0.1543 0.7332 0
vt 0.152 0.6911 0
vt 0.2052 0.8247 0
vt 0.2008 0.9434 0
vt 0.1926 0.9432 0
vt 0.1951 0.8243 0
vt 0.2085 0.7332 0
vt 0.2153 0.8251 0
vt 0.2091 0.9437 0
vt 0.0604 0.6867 0
vt 0.0604 0.692 0
vt 0.0491 0.6923 0
vt 0.0489 0.6851 0
vt 0.061 0.7289 0
vt 0.0501 0.7292 0
vt 0.0415 0.7294 0
vt 0.0377 0.6926 0
vt 0.0394 0.6872 0
vt 0.0967 0.6853 0
vt 0.0965 0.6925 0
vt 0.0851 0.6921 0
vt 0.0851 0.6868 0
vt 0.1082 0.6876 0
vt 0.1078 0.6929 0
vt 0.106 0.7298 0
vt 0.0951 0.7294 0
vt 0.0842 0.729 0
vt 0.8897 0.8236 0
vt 0.9051 0.8354 0
vt 0.8806 0.8475 0
vt 0.8693 0.8249 0
vt 0.9052 0.8548 0
vt 0.8918 0.8703 0
vt 0.856 0.8597 0
vt 0.8714 0.8715 0
vt 0.856 0.8403 0
vt 0.1201 0.6938 0
vt 0.1206 0.6866 0
vt 0.1308 0.6892 0
vt 0.1324 0.6946 0
vt 0.1176 0.7306 0
vt 0.1268 0.7312 0
vt 0.0722 0.8205 0
vt 0.0716 0.9393 0
vt 0.0634 0.9393 0
vt 0.0621 0.8204 0
vt 0.0726 0.7289 0
vt 0.0823 0.8205 0
vt 0.0798 0.9394 0
vt 0.4706 0.6876 0
vt 0.4721 0.6931 0
vt 0.4607 0.6923 0
vt 0.4612 0.6851 0
vt 0.4666 0.7297 0
vt 0.4581 0.7291 0
vt 0.4472 0.7283 0
vt 0.4494 0.6914 0
vt 0.4496 0.6861 0
vt 0.4134 0.6833 0
vt 0.4134 0.6905 0
vt 0.402 0.6904 0
vt 0.4018 0.6851 0
vt 0.4249 0.6852 0
vt 0.4247 0.6905 0
vt 0.4241 0.7275 0
vt 0.4132 0.7274 0
vt 0.4023 0.7274 0
vt 0.9483 0.8226 0
vt 0.9637 0.8344 0
vt 0.9391 0.8466 0
vt 0.9279 0.8239 0
vt 0.9504 0.8693 0
vt 0.9638 0.8538 0
vt 0.93 0.8705 0
vt 0.9146 0.8587 0
vt 0.9146 0.8394 0
vt 0.4373 0.6838 0
vt 0.437 0.691 0
vt 0.4357 0.7278 0
vt 0.3849 0.8193 0
vt 0.3931 0.8191 0
vt 0.3964 0.9379 0
vt 0.3881 0.9382 0
vt 0.3814 0.7279 0
vt 0.3907 0.7276 0
vt 0.4032 0.8189 0
vt 0.4046 0.9377 0
vt 0.3515 0.6914 0
vt 0.3609 0.6939 0
vt 0.3623 0.6994 0
vt 0.351 0.6986 0
vt 0.357 0.736 0
vt 0.3485 0.7354 0
vt 0.3396 0.6978 0
vt 0.3376 0.7347 0
vt 0.3398 0.6925 0
vt 0.2921 0.6915 0
vt 0.3037 0.6897 0
vt 0.3036 0.6969 0
vt 0.2922 0.6968 0
vt 0.3152 0.6916 0
vt 0.315 0.6969 0
vt 0.3035 0.7338 0
vt 0.3143 0.7339 0
vt 0.2925 0.7338 0
vt 0.9227 0.8793 0
vt 0.9431 0.878 0
vt 0.9585 0.8898 0
vt 0.934 0.902 0
vt 0.9586 0.9092 0
vt 0.9452 0.9247 0
vt 0.9248 0.9259 0
vt 0.9094 0.9141 0
vt 0.9094 0.8947 0
vt 0.3273 0.6974 0
vt 0.3276 0.6902 0
vt 0.326 0.7342 0
vt 0.2752 0.8257 0
vt 0.2834 0.8255 0
vt 0.2866 0.9443 0
vt 0.2784 0.9446 0
vt 0.2717 0.7343 0
vt 0.2809 0.734 0
vt 0.2935 0.8253 0
vt 0.2949 0.9441 0
vt 0.1856 0.8243 0
vt 0.185 0.9431 0
vt 0.1774 0.9431 0
vt 0.1761 0.8242 0
vt 0.2324 0.8262 0
vt 0.2248 0.8257 0
vt 0.2166 0.9443 0
vt 0.2242 0.9448 0
vt 0.166 0.8245 0
vt 0.1692 0.9433 0
vt 0.161 0.9435 0
vt 0.1578 0.8247 0
vt 0.2099 0.6963 0
vt 0.2102 0.6892 0
vt 0.0525 0.8207 0
vt 0.0558 0.9395 0
vt 0.0482 0.9397 0
vt 0.045 0.8209 0
vt 0.1013 0.8212 0
vt 0.0918 0.8209 0
vt 0.0874 0.9396 0
vt 0.095 0.9399 0
vt 0.1113 0.8219 0
vt 0.1195 0.8225 0
vt 0.1114 0.941 0
vt 0.1032 0.9405 0
vt 0.0728 0.692 0
vt 0.0728 0.6849 0
vt 0.4514 0.8204 0
vt 0.459 0.8209 0
vt 0.4504 0.9395 0
vt 0.4429 0.9389 0
vt 0.4417 0.8197 0
vt 0.4353 0.9384 0
vt 0.4222 0.819 0
vt 0.4128 0.8189 0
vt 0.4198 0.9378 0
vt 0.4122 0.9377 0
vt 0.4323 0.8193 0
vt 0.428 0.9381 0
vt 0.3773 0.6911 0
vt 0.3897 0.6907 0
vt 0.3792 0.6857 0
vt 0.3895 0.6836 0
vt 0.3498 0.8272 0
vt 0.3422 0.8267 0
vt 0.3341 0.9453 0
vt 0.3417 0.9458 0
vt 0.3265 0.9448 0
vt 0.3327 0.8261 0
vt 0.3125 0.8254 0
vt 0.303 0.8253 0
vt 0.3025 0.9441 0
vt 0.3101 0.9442 0
vt 0.3226 0.8257 0
vt 0.3183 0.9445 0
vt 0.2799 0.6971 0
vt 0.2676 0.6975 0
vt 0.2797 0.69 0
vt 0.2694 0.6921 0
vt 0.54 0.7984 0
vt 0.54 0.7844 0
vt 0.7896 0.7844 0
vt 0.7896 0.7984 0
vt 0.7896 0.7692 0
vt 0.54 0.7692 0
vt 0.54 0.7552 0
vt 0.7896 0.7552 0
vt 0.8048 0.7552 0
vt 0.8048 0.7692 0
vt 0.5248 0.7984 0
vt 0.5248 0.7844 0
vt 0.54 0.8136 0
vt 0.7896 0.8136 0
vt 0.5486 0.8514 0
vt 0.5486 0.8369 0
vt 0.7859 0.8369 0
vt 0.7859 0.8514 0
vt 0.7859 0.8792 0
vt 0.5486 0.8792 0
vt 0.5486 0.8647 0
vt 0.7859 0.8647 0
vt 0.7859 0.8236 0
vt 0.5486 0.8236 0
vt 0.5342 0.8647 0
vt 0.5342 0.8514 0
vt 0.54 0.7459 0
vt 0.54 0.7307 0
vt 0.7896 0.7307 0
vt 0.7896 0.7459 0
vt 0.7896 0.7167 0
vt 0.54 0.7167 0
vt 0.54 0.7015 0
vt 0.7896 0.7015 0
vt 0.7896 0.6875 0
vt 0.8048 0.6875 0
vt 0.8048 0.7015 0
vt 0.5248 0.7167 0
vt 0.5248 0.7307 0
vt 0.54 0.6875 0
vt 0.5445 0.9269 0
vt 0.5445 0.9135 0
vt 0.7818 0.9135 0
vt 0.7818 0.9269 0
vt 0.7818 0.8991 0
vt 0.5445 0.8991 0
vt 0.5445 0.8858 0
vt 0.7818 0.8858 0
vt 0.7962 0.8858 0
vt 0.7962 0.8991 0
vt 0.5445 0.9413 0
vt 0.7818 0.9413 0
vt 0.8004 0.8236 0
vt 0.8004 0.8369 0
vt 0.53 0.9135 0
vt 0.53 0.9269 0
vt 0.9893 0.9617 0
vt 0.0097 0.9617 0
vt 0.0097 0.9584 0
vt 0.9893 0.9584 0
vt 0.0097 0.9648 0
vt 0.9893 0.9648 0
vt 0.9893 0.9678 0
vt 0.0097 0.9678 0
vt 0.0097 0.9708 0
vt 0.9893 0.9708 0
vt 0.9893 0.9741 0
vt 0.0097 0.9741 0
vt 0.0097 0.9773 0
vt 0.9893 0.9773 0
vt 0.0097 0.9804 0
vt 0.9893 0.9804 0
vt 0.9893 0.9834 0
vt 0.0097 0.9834 0
vt 0.9893 0.9865 0
vt 0.0097 0.9865 0
vt 0.0097 0.9898 0
vt 0.9893 0.9898 0
vt 0.8849 0.7398 0
vt 0.8856 0.6863 0
vt 0.8901 0.6862 0
vt 0.8877 0.7587 0
vt 0.8862 0.6327 0
vt 0.8888 0.6139 0
vt 0.8573 0.6316 0
vt 0.8563 0.6852 0
vt 0.8516 0.6852 0
vt 0.8548 0.6128 0
vt 0.8555 0.7387 0
vt 0.8522 0.7575 0
vt 0.8755 0.686 0
vt 0.8726 0.7395 0
vt 0.8662 0.7578 0
vt 0.8709 0.6857 0
vt 0.864 0.7389 0
vt 0.8662 0.6854 0
vt 0.8756 0.6135 0
vt 0.8682 0.6319 0
vt 0.8786 0.6325 0
vt 0.8774 0.7828 0
vt 0.8782 0.7585 0
vt 0.8592 0.7576 0
vt 0.8585 0.7819 0
vt 0.8712 0.7583 0
vt 0.8612 0.6853 0
vt 0.8633 0.613 0
vt 0.864 0.5887 0
vt 0.8828 0.6139 0
vt 0.8835 0.5896 0
vt 0.8694 0.613 0
vt 0.8805 0.6862 0
vt 0.9412 0.6915 0
vt 0.9458 0.6915 0
vt 0.9458 0.7891 0
vt 0.9412 0.7891 0
vt 0.9458 0.5939 0
vt 0.9412 0.5939 0
vt 0.9504 0.5939 0
vt 0.9504 0.6915 0
vt 0.9504 0.7891 0
vt 0.9314 0.6915 0
vt 0.9314 0.7891 0
vt 0.9268 0.7891 0
vt 0.9268 0.6915 0
vt 0.9222 0.6915 0
vt 0.9222 0.7891 0
vt 0.9222 0.5939 0
vt 0.9268 0.5939 0
vt 0.9314 0.5939 0
vt 0.9124 0.6915 0
vt 0.9173 0.6915 0
vt 0.9173 0.7891 0
vt 0.9124 0.7891 0
vt 0.9173 0.5939 0
vt 0.9124 0.5939 0
vt 0.9363 0.6915 0
vt 0.9363 0.5939 0
vt 0.9363 0.7891 0

# 143 vertex normals
vn -0.728 -0.0328 -0.6848
vn -0.7234 -0.0202 -0.6902
vn 0 -0.0195 -0.9998
vn 0 -0.1852 -0.9827
vn -0.7238 0 -0.69
vn 0 0 -1
vn 0.7238 0 -0.69
vn 0.7234 -0.0202 -0.6902
vn 0.728 -0.0328 -0.6848
vn -0.7234 -0.0202 0.6902
vn -0.7279 -0.0328 0.6849
vn 0 -0.1852 0.9827
vn 0 -0.0195 0.9998
vn 0.7279 -0.0328 0.6848
vn 0.7234 -0.0202 0.6902
vn 0.7238 0 0.69
vn 0 0 1
vn -0.7238 0 0.69
vn 0 -1 -0
vn -0.9851 -0.1722 -0
vn 0.9851 -0.1722 -0
vn 0.9998 -0.018 -0
vn 1 0 -0
vn -0.9998 -0.018 -0
vn -1 0 -0
vn -0.7279 -0.0328 0.6848
vn -0.7234 -0.0202 0.6901
vn 0.7234 -0.0202 0.6901
vn -0.9827 -0.1852 -0
vn -0.6848 -0.0328 0.728
vn -0.6902 -0.0202 0.7234
vn -0.9998 -0.0195 -0
vn -0.69 0 0.7238
vn -0.69 0 -0.7238
vn -0.6902 -0.0202 -0.7234
vn -0.6848 -0.0328 -0.728
vn 0.6848 -0.0328 0.7279
vn 0.9827 -0.1852 -0
vn 0.9998 -0.0195 -0
vn 0.6902 -0.0202 0.7234
vn 0.6849 -0.0328 -0.7279
vn 0.6902 -0.0202 -0.7234
vn 0.69 0 -0.7238
vn 0.69 0 0.7238
vn 0 -0.1722 0.9851
vn 0 -0.1722 -0.9851
vn 0 -0.018 -0.9998
vn 0 -0.018 0.9998
vn 0.6848 -0.0328 0.728
vn 0.6848 -0.0328 -0.7279
vn -0.7279 -0.0328 -0.6848
vn 0.7279 -0.0328 -0.6849
vn -0.728 -0.0328 0.6848
vn 0.728 -0.0328 0.6848
vn 0.7279 -0.0328 0.6849
vn -0.6849 -0.0328 0.7279
vn -0.6848 -0.0328 -0.7279
vn 0.6849 -0.0328 0.7279
vn 0.6848 -0.0328 -0.728
vn -0.6848 -0.0328 0.7279
vn -0.6901 -0.0202 0.7234
vn -0.6901 -0.0202 -0.7234
vn -0.5465 -0.6671 -0.5063
vn -0.7111 -0.1643 -0.6836
vn 0 -0.0797 -0.9968
vn 0 -0.6769 -0.7361
vn -0.7229 0.0648 -0.6879
vn 0 0.0634 -0.998
vn 0.7229 0.0648 -0.6879
vn 0.7111 -0.1642 -0.6836
vn 0.5465 -0.6671 -0.5063
vn -0.7111 -0.1642 0.6836
vn -0.5465 -0.6671 0.5063
vn 0 -0.6769 0.7361
vn 0 -0.0797 0.9968
vn 0.5465 -0.6671 0.5063
vn 0.7111 -0.1643 0.6836
vn 0.7229 0.0648 0.6879
vn 0 0.0634 0.998
vn -0.7229 0.0648 0.6879
vn -0.7382 -0.6746 -0
vn 0.7382 -0.6746 -0
vn 0.9973 -0.0728 -0
vn 0.9983 0.0585 -0
vn -1 0.0069 -0
vn -0.7238 0.0076 -0.6899
vn -0.9983 0.0585 -0
vn -0.7239 0.0076 0.6899
vn -0.7111 -0.1642 -0.6836
vn 0.7111 -0.1642 0.6836
vn -0.7239 0.0076 -0.6899
vn -0.7238 0.0076 0.6899
vn 0 0.0075 -1
vn 0.7239 0.0076 -0.6899
vn 0.7239 0.0076 0.6899
vn 0 0.0075 1
vn 1 0.0069 -0
vn -0.9973 -0.0728 -0
vn 0.7238 0.0076 0.6899
vn 0 1 -0
vn 0.8004 0.0143 -0.5992
vn 0.7981 0.0143 -0.6024
vn 0.9998 0.0175 -0
vn 0.2966 0.0059 -0.955
vn 0.3024 0.006 -0.9532
vn -0.2966 -0.004 -0.955
vn -0.3024 -0.0041 -0.9532
vn -0.8005 -0.0125 -0.5992
vn -0.7981 -0.0125 -0.6024
vn -0.9999 -0.016 -0.0001
vn -0.9999 -0.016 0.0001
vn -0.8005 -0.0128 0.5993
vn -0.7981 -0.0128 0.6024
vn -0.3024 -0.0046 0.9532
vn -0.2966 -0.0045 0.955
vn 0.3024 0.0055 0.9532
vn 0.2966 0.0054 0.955
vn 0.8005 0.014 0.5992
vn 0.798 0.0139 0.6024
vn -0.6851 -0.7282 -0.0223
vn -0.6904 -0.7234 -0
vn -0.9904 0 -0.1379
vn -0.6851 -0.7281 0.0223
vn -0.9904 0 0.1379
vn -0.6851 0.7281 0.0223
vn -0.6904 0.7234 -0
vn -0.6851 0.7281 -0.0223
vn 0.6904 -0.7234 -0
vn 0.6851 -0.7281 -0.0223
vn 0.9904 0 -0.1379
vn 0.6851 0.7281 -0.0223
vn 0.6904 0.7234 -0
vn 0.9904 0 0.1379
vn 0.685 0.7282 0.0223
vn 0.6851 -0.7281 0.0223
vn 0 -0.9918 -0.1279
vn 0 0.9918 -0.1279
vn 0 0.9918 0.1279
vn 0 -0.9918 0.1279
vn 0 -0.7238 -0.69
vn 0 0.7238 -0.69
vn 0 -0.7238 0.69
vn 0 0.7238 0.69

# Mesh 'g Low_Spikes_Low_Spikes' with 800 faces
g g Low_Spikes_Low_Spikes
usemtl default
f  1/1/1 2/2/2 3/3/3
f  3/3/3 4/4/4 1/1/1
f  3/3/3 2/2/2 5/5/5
f  5/5/5 6/6/6 3/3/3
f  7/7/7 8/8/8 3/3/3
f  3/3/3 6/6/6 7/7/7
f  8/8/8 9/9/9 4/4/4
f  4/4/4 3/3/3 8/8/8
f  10/10/10 11/11/11 12/12/12
f  12/12/12 13/13/13 10/10/10
f  13/14/13 12/15/12 14/16/14
f  14/16/14 15/17/15 13/14/13
f  13/14/13 15/17/15 16/18/16
f  16/18/16 17/19/17 13/14/13
f  17/20/17 18/21/18 10/10/10
f  10/10/10 13/13/13 17/20/17
f  19/22/19 20/23/20 1/1/1
f  1/1/1 4/4/4 19/22/19
f  4/4/4 9/9/9 21/24/21
f  21/24/21 19/25/19 4/4/4
f  19/26/19 21/24/21 14/16/14
f  14/16/14 12/15/12 19/26/19
f  11/11/11 20/23/20 19/27/19
f  19/27/19 12/12/12 11/11/11
f  8/8/8 22/28/22 21/24/21
f  21/24/21 9/9/9 8/8/8
f  22/28/22 8/8/8 7/7/7
f  7/7/7 23/29/23 22/28/22
f  16/18/16 15/17/15 22/28/22
f  22/28/22 23/29/23 16/18/16
f  14/16/14 21/24/21 22/28/22
f  22/28/22 15/17/15 14/16/14
f  5/5/5 2/2/2 24/30/24
f  24/30/24 25/31/25 5/5/5
f  1/1/1 20/23/20 24/30/24
f  24/30/24 2/2/2 1/1/1
f  24/30/24 20/23/20 11/11/11
f  11/11/11 10/10/10 24/30/24
f  25/31/25 24/30/24 10/10/10
f  10/10/10 18/21/18 25/31/25
f  26/32/4 27/33/1 28/34/2
f  28/34/2 29/35/3 26/32/4
f  30/36/6 29/35/3 28/34/2
f  28/34/2 31/37/5 30/36/6
f  32/38/8 29/35/3 30/36/6
f  30/36/6 33/39/7 32/38/8
f  26/32/4 29/35/3 32/38/8
f  32/38/8 34/40/9 26/32/4
f  35/41/12 36/42/13 37/43/10
f  37/43/10 38/44/11 35/41/12
f  39/45/15 36/46/13 35/47/12
f  35/47/12 40/48/14 39/45/15
f  36/46/13 39/45/15 41/49/16
f  41/49/16 42/50/17 36/46/13
f  42/51/17 43/52/18 37/43/10
f  37/43/10 36/42/13 42/51/17
f  27/33/1 26/32/4 44/53/19
f  44/53/19 45/54/20 27/33/1
f  26/32/4 34/40/9 46/55/21
f  46/55/21 44/56/19 26/32/4
f  40/48/14 35/47/12 44/57/19
f  44/57/19 46/55/21 40/48/14
f  45/54/20 44/58/19 35/41/12
f  35/41/12 38/44/11 45/54/20
f  47/59/22 46/55/21 34/40/9
f  34/40/9 32/38/8 47/59/22
f  32/38/8 33/39/7 48/60/23
f  48/60/23 47/59/22 32/38/8
f  48/60/23 41/49/16 39/45/15
f  39/45/15 47/59/22 48/60/23
f  47/59/22 39/45/15 40/48/14
f  40/48/14 46/55/21 47/59/22
f  28/34/2 49/61/24 50/62/25
f  50/62/25 31/37/5 28/34/2
f  45/54/20 49/61/24 28/34/2
f  28/34/2 27/33/1 45/54/20
f  49/61/24 45/54/20 38/44/11
f  38/44/11 37/43/10 49/61/24
f  37/43/10 43/52/18 50/62/25
f  50/62/25 49/61/24 37/43/10
f  51/63/1 52/64/2 53/65/3
f  53/65/3 54/66/4 51/63/1
f  52/64/2 55/67/5 56/68/6
f  56/68/6 53/65/3 52/64/2
f  57/69/7 58/70/8 53/65/3
f  53/65/3 56/68/6 57/69/7
f  59/71/9 54/66/4 53/65/3
f  53/65/3 58/70/8 59/71/9
f  60/72/11 61/73/12 62/74/13
f  62/74/13 63/75/10 60/72/11
f  64/76/15 62/77/13 61/78/12
f  61/78/12 65/79/14 64/76/15
f  66/80/16 67/81/17 62/77/13
f  62/77/13 64/76/15 66/80/16
f  63/75/10 62/74/13 67/82/17
f  67/82/17 68/83/18 63/75/10
f  51/63/1 54/66/4 69/84/19
f  69/84/19 70/85/20 51/63/1
f  54/66/4 59/71/9 71/86/21
f  71/86/21 69/87/19 54/66/4
f  69/88/19 71/86/21 65/79/14
f  65/79/14 61/78/12 69/88/19
f  60/72/11 70/85/20 69/89/19
f  69/89/19 61/73/12 60/72/11
f  58/70/8 72/90/22 71/86/21
f  71/86/21 59/71/9 58/70/8
f  72/90/22 58/70/8 57/69/7
f  57/69/7 73/91/23 72/90/22
f  73/91/23 66/80/16 64/76/15
f  64/76/15 72/90/22 73/91/23
f  64/76/15 65/79/14 71/86/21
f  71/86/21 72/90/22 64/76/15
f  52/64/2 74/92/24 75/93/25
f  75/93/25 55/67/5 52/64/2
f  52/64/2 51/63/1 70/85/20
f  70/85/20 74/92/24 52/64/2
f  63/75/10 74/92/24 70/85/20
f  70/85/20 60/72/11 63/75/10
f  75/93/25 74/92/24 63/75/10
f  63/75/10 68/83/18 75/93/25
f  76/94/3 77/95/4 78/96/1
f  78/96/1 79/97/2 76/94/3
f  80/98/6 76/94/3 79/97/2
f  79/97/2 81/99/5 80/98/6
f  76/94/3 80/98/6 82/100/7
f  82/100/7 83/101/8 76/94/3
f  84/102/9 77/95/4 76/94/3
f  76/94/3 83/101/8 84/102/9
f  85/103/26 86/104/12 87/105/13
f  87/105/13 88/106/27 85/103/26
f  86/107/12 89/108/14 90/109/15
f  90/109/15 87/110/13 86/107/12
f  91/111/16 92/112/17 87/110/13
f  87/110/13 90/109/15 91/111/16
f  87/105/13 92/113/17 93/114/18
f  93/114/18 88/106/27 87/105/13
f  94/115/20 78/96/1 77/95/4
f  77/95/4 95/116/19 94/115/20
f  84/102/9 96/117/21 95/118/19
f  95/118/19 77/95/4 84/102/9
f  89/108/14 86/107/12 95/119/19
f  95/119/19 96/117/21 89/108/14
f  94/115/20 95/120/19 86/104/12
f  86/104/12 85/103/26 94/115/20
f  97/121/22 96/117/21 84/102/9
f  84/102/9 83/101/8 97/121/22
f  98/122/23 97/121/22 83/101/8
f  83/101/8 82/100/7 98/122/23
f  90/109/15 97/121/22 98/122/23
f  98/122/23 91/111/16 90/109/15
f  97/121/22 90/109/15 89/108/14
f  89/108/14 96/117/21 97/121/22
f  79/97/2 99/123/24 100/124/25
f  100/124/25 81/99/5 79/97/2
f  94/115/20 99/123/24 79/97/2
f  79/97/2 78/96/1 94/115/20
f  85/103/26 88/106/27 99/123/24
f  99/123/24 94/115/20 85/103/26
f  88/106/27 93/114/18 100/124/25
f  100/124/25 99/123/24 88/106/27
f  101/125/4 102/126/1 103/127/2
f  103/127/2 104/128/3 101/125/4
f  105/129/5 106/130/6 104/128/3
f  104/128/3 103/127/2 105/129/5
f  106/130/6 107/131/7 108/132/8
f  108/132/8 104/128/3 106/130/6
f  109/133/9 101/125/4 104/128/3
f  104/128/3 108/132/8 109/133/9
f  110/134/26 111/135/12 112/136/13
f  112/136/13 113/137/27 110/134/26
f  111/138/12 114/139/14 115/140/28
f  115/140/28 112/141/13 111/138/12
f  116/142/16 117/143/17 112/141/13
f  112/141/13 115/140/28 116/142/16
f  117/144/17 118/145/18 113/137/27
f  113/137/27 112/136/13 117/144/17
f  102/126/1 101/125/4 119/146/19
f  119/146/19 120/147/20 102/126/1
f  119/148/19 101/125/4 109/133/9
f  109/133/9 121/149/21 119/148/19
f  121/149/21 114/139/14 111/138/12
f  111/138/12 119/150/19 121/149/21
f  119/151/19 111/135/12 110/134/26
f  110/134/26 120/147/20 119/151/19
f  122/152/22 121/149/21 109/133/9
f  109/133/9 108/132/8 122/152/22
f  123/153/23 122/152/22 108/132/8
f  108/132/8 107/131/7 123/153/23
f  116/142/16 115/140/28 122/152/22
f  122/152/22 123/153/23 116/142/16
f  122/152/22 115/140/28 114/139/14
f  114/139/14 121/149/21 122/152/22
f  103/127/2 124/154/24 125/155/25
f  125/155/25 105/129/5 103/127/2
f  102/126/1 120/147/20 124/154/24
f  124/154/24 103/127/2 102/126/1
f  110/134/26 113/137/27 124/154/24
f  124/154/24 120/147/20 110/134/26
f  125/155/25 124/154/24 113/137/27
f  113/137/27 118/145/18 125/155/25
f  126/156/29 127/157/30 128/158/31
f  128/158/31 129/159/32 126/156/29
f  130/160/33 131/161/25 129/159/32
f  129/159/32 128/158/31 130/160/33
f  131/161/25 132/162/34 133/163/35
f  133/163/35 129/159/32 131/161/25
f  134/164/36 126/156/29 129/159/32
f  129/159/32 133/163/35 134/164/36
f  135/165/37 136/166/38 137/167/39
f  137/167/39 138/168/40 135/165/37
f  136/169/38 139/170/41 140/171/42
f  140/171/42 137/172/39 136/169/38
f  141/173/43 142/174/23 137/172/39
f  137/172/39 140/171/42 141/173/43
f  142/175/23 143/176/44 138/168/40
f  138/168/40 137/167/39 142/175/23
f  127/157/30 126/156/29 144/177/19
f  144/177/19 145/178/45 127/157/30
f  144/179/19 126/156/29 134/164/36
f  134/164/36 146/180/46 144/179/19
f  146/180/46 139/170/41 136/169/38
f  136/169/38 144/181/19 146/180/46
f  144/182/19 136/166/38 135/165/37
f  135/165/37 145/178/45 144/182/19
f  147/183/47 146/180/46 134/164/36
f  134/164/36 133/163/35 147/183/47
f  148/184/6 147/183/47 133/163/35
f  133/163/35 132/162/34 148/184/6
f  141/173/43 140/171/42 147/183/47
f  147/183/47 148/184/6 141/173/43
f  147/183/47 140/171/42 139/170/41
f  139/170/41 146/180/46 147/183/47
f  128/158/31 149/185/48 150/186/17
f  150/186/17 130/160/33 128/158/31
f  127/157/30 145/178/45 149/185/48
f  149/185/48 128/158/31 127/157/30
f  135/165/37 138/168/40 149/185/48
f  149/185/48 145/178/45 135/165/37
f  150/186/17 149/185/48 138/168/40
f  138/168/40 143/176/44 150/186/17
f  151/187/29 152/188/30 153/189/31
f  153/189/31 154/190/32 151/187/29
f  155/191/33 156/192/25 154/190/32
f  154/190/32 153/189/31 155/191/33
f  156/192/25 157/193/34 158/194/35
f  158/194/35 154/190/32 156/192/25
f  159/195/36 151/187/29 154/190/32
f  154/190/32 158/194/35 159/195/36
f  160/196/37 161/197/38 162/198/39
f  162/198/39 163/199/40 160/196/37
f  161/200/38 164/201/41 165/202/42
f  165/202/42 162/203/39 161/200/38
f  166/204/43 167/205/23 162/203/39
f  162/203/39 165/202/42 166/204/43
f  167/206/23 168/207/44 163/199/40
f  163/199/40 162/198/39 167/206/23
f  152/188/30 151/187/29 169/208/19
f  169/208/19 170/209/45 152/188/30
f  169/210/19 151/187/29 159/195/36
f  159/195/36 171/211/46 169/210/19
f  171/211/46 164/201/41 161/200/38
f  161/200/38 169/212/19 171/211/46
f  169/213/19 161/197/38 160/196/37
f  160/196/37 170/209/45 169/213/19
f  172/214/47 171/211/46 159/195/36
f  159/195/36 158/194/35 172/214/47
f  173/215/6 172/214/47 158/194/35
f  158/194/35 157/193/34 173/215/6
f  166/204/43 165/202/42 172/214/47
f  172/214/47 173/215/6 166/204/43
f  172/214/47 165/202/42 164/201/41
f  164/201/41 171/211/46 172/214/47
f  153/189/31 174/216/48 175/217/17
f  175/217/17 155/191/33 153/189/31
f  152/188/30 170/209/45 174/216/48
f  174/216/48 153/189/31 152/188/30
f  160/196/37 163/199/40 174/216/48
f  174/216/48 170/209/45 160/196/37
f  175/217/17 174/216/48 163/199/40
f  163/199/40 168/207/44 175/217/17
f  176/218/29 177/219/30 178/220/31
f  178/220/31 179/221/32 176/218/29
f  180/222/33 181/223/25 179/221/32
f  179/221/32 178/220/31 180/222/33
f  181/223/25 182/224/34 183/225/35
f  183/225/35 179/221/32 181/223/25
f  184/226/36 176/218/29 179/221/32
f  179/221/32 183/225/35 184/226/36
f  185/227/37 186/228/38 187/229/39
f  187/229/39 188/230/40 185/227/37
f  186/231/38 189/232/41 190/233/42
f  190/233/42 187/234/39 186/231/38
f  191/235/43 192/236/23 187/234/39
f  187/234/39 190/233/42 191/235/43
f  192/237/23 193/238/44 188/230/40
f  188/230/40 187/229/39 192/237/23
f  177/219/30 176/218/29 194/239/19
f  194/239/19 195/240/45 177/219/30
f  194/241/19 176/218/29 184/226/36
f  184/226/36 196/242/46 194/241/19
f  196/242/46 189/232/41 186/231/38
f  186/231/38 194/243/19 196/242/46
f  194/244/19 186/228/38 185/227/37
f  185/227/37 195/240/45 194/244/19
f  197/245/47 196/242/46 184/226/36
f  184/226/36 183/225/35 197/245/47
f  198/246/6 197/245/47 183/225/35
f  183/225/35 182/224/34 198/246/6
f  191/235/43 190/233/42 197/245/47
f  197/245/47 198/246/6 191/235/43
f  197/245/47 190/233/42 189/232/41
f  189/232/41 196/242/46 197/245/47
f  178/220/31 199/247/48 200/248/17
f  200/248/17 180/222/33 178/220/31
f  177/219/30 195/240/45 199/247/48
f  199/247/48 178/220/31 177/219/30
f  185/227/37 188/230/40 199/247/48
f  199/247/48 195/240/45 185/227/37
f  200/248/17 199/247/48 188/230/40
f  188/230/40 193/238/44 200/248/17
f  201/249/29 202/250/30 203/251/31
f  203/251/31 204/252/32 201/249/29
f  205/253/33 206/254/25 204/252/32
f  204/252/32 203/251/31 205/253/33
f  206/254/25 207/255/34 208/256/35
f  208/256/35 204/252/32 206/254/25
f  209/257/36 201/249/29 204/252/32
f  204/252/32 208/256/35 209/257/36
f  210/258/37 211/259/38 212/260/39
f  212/260/39 213/261/40 210/258/37
f  211/262/38 214/263/41 215/264/42
f  215/264/42 212/265/39 211/262/38
f  216/266/43 217/267/23 212/265/39
f  212/265/39 215/264/42 216/266/43
f  217/268/23 218/269/44 213/261/40
f  213/261/40 212/260/39 217/268/23
f  202/250/30 201/249/29 219/270/19
f  219/270/19 220/271/45 202/250/30
f  219/272/19 201/249/29 209/257/36
f  209/257/36 221/273/46 219/272/19
f  221/273/46 214/263/41 211/262/38
f  211/262/38 219/274/19 221/273/46
f  219/275/19 211/259/38 210/258/37
f  210/258/37 220/271/45 219/275/19
f  222/276/47 221/273/46 209/257/36
f  209/257/36 208/256/35 222/276/47
f  223/277/6 222/276/47 208/256/35
f  208/256/35 207/255/34 223/277/6
f  216/266/43 215/264/42 222/276/47
f  222/276/47 223/277/6 216/266/43
f  222/276/47 215/264/42 214/263/41
f  214/263/41 221/273/46 222/276/47
f  203/251/31 224/278/48 225/279/17
f  225/279/17 205/253/33 203/251/31
f  202/250/30 220/271/45 224/278/48
f  224/278/48 203/251/31 202/250/30
f  213/261/40 224/278/48 220/271/45
f  220/271/45 210/258/37 213/261/40
f  213/261/40 218/269/44 225/279/17
f  225/279/17 224/278/48 213/261/40
f  226/280/29 227/281/30 228/282/31
f  228/282/31 229/283/32 226/280/29
f  230/284/33 231/285/25 229/283/32
f  229/283/32 228/282/31 230/284/33
f  231/286/25 232/287/34 233/288/35
f  233/288/35 229/289/32 231/286/25
f  234/290/36 226/291/29 229/289/32
f  229/289/32 233/288/35 234/290/36
f  235/292/49 236/293/38 237/294/39
f  237/294/39 238/295/40 235/292/49
f  236/293/38 239/296/50 240/297/42
f  240/297/42 237/294/39 236/293/38
f  241/298/43 242/299/23 237/294/39
f  237/294/39 240/297/42 241/298/43
f  242/299/23 243/300/44 238/295/40
f  238/295/40 237/294/39 242/299/23
f  227/281/30 226/280/29 244/301/19
f  244/301/19 245/302/45 227/281/30
f  244/303/19 226/291/29 234/290/36
f  234/290/36 246/304/46 244/303/19
f  246/304/46 239/296/50 236/293/38
f  236/293/38 244/305/19 246/304/46
f  244/306/19 236/293/38 235/292/49
f  235/292/49 245/302/45 244/306/19
f  247/307/47 246/304/46 234/290/36
f  234/290/36 233/288/35 247/307/47
f  248/308/6 247/307/47 233/288/35
f  233/288/35 232/287/34 248/308/6
f  241/298/43 240/297/42 247/307/47
f  247/307/47 248/308/6 241/298/43
f  247/307/47 240/297/42 239/296/50
f  239/296/50 246/304/46 247/307/47
f  228/282/31 249/309/48 250/310/17
f  250/310/17 230/284/33 228/282/31
f  249/309/48 228/282/31 227/281/30
f  227/281/30 245/302/45 249/309/48
f  235/292/49 238/295/40 249/309/48
f  249/309/48 245/302/45 235/292/49
f  238/295/40 243/300/44 250/310/17
f  250/310/17 249/309/48 238/295/40
f  251/311/4 252/312/51 253/313/2
f  253/313/2 254/314/3 251/311/4
f  255/315/5 256/316/6 254/314/3
f  254/314/3 253/313/2 255/315/5
f  256/317/6 257/318/7 258/319/8
f  258/319/8 254/320/3 256/317/6
f  259/321/52 251/322/4 254/320/3
f  254/320/3 258/319/8 259/321/52
f  260/323/53 261/324/12 262/325/13
f  262/325/13 263/326/10 260/323/53
f  261/324/12 264/327/14 265/328/15
f  265/328/15 262/325/13 261/324/12
f  266/329/16 267/330/17 262/325/13
f  262/325/13 265/328/15 266/329/16
f  267/330/17 268/331/18 263/326/10
f  263/326/10 262/325/13 267/330/17
f  252/312/51 251/311/4 269/332/19
f  269/332/19 270/333/20 252/312/51
f  269/334/19 251/322/4 259/321/52
f  259/321/52 271/335/21 269/334/19
f  271/335/21 264/327/14 261/324/12
f  261/324/12 269/336/19 271/335/21
f  269/337/19 261/324/12 260/323/53
f  260/323/53 270/333/20 269/337/19
f  272/338/22 271/335/21 259/321/52
f  259/321/52 258/319/8 272/338/22
f  273/339/23 272/338/22 258/319/8
f  258/319/8 257/318/7 273/339/23
f  266/329/16 265/328/15 272/338/22
f  272/338/22 273/339/23 266/329/16
f  272/338/22 265/328/15 264/327/14
f  264/327/14 271/335/21 272/338/22
f  253/313/2 274/340/24 275/341/25
f  275/341/25 255/315/5 253/313/2
f  274/340/24 253/313/2 252/312/51
f  252/312/51 270/333/20 274/340/24
f  260/323/53 263/326/10 274/340/24
f  274/340/24 270/333/20 260/323/53
f  263/326/10 268/331/18 275/341/25
f  275/341/25 274/340/24 263/326/10
f  276/342/4 277/343/51 278/344/2
f  278/344/2 279/345/3 276/342/4
f  280/346/5 281/347/6 279/345/3
f  279/345/3 278/344/2 280/346/5
f  281/348/6 282/349/7 283/350/8
f  283/350/8 279/351/3 281/348/6
f  284/352/52 276/353/4 279/351/3
f  279/351/3 283/350/8 284/352/52
f  285/354/53 286/355/12 287/356/13
f  287/356/13 288/357/10 285/354/53
f  286/355/12 289/358/54 290/359/15
f  290/359/15 287/356/13 286/355/12
f  291/360/16 292/361/17 287/356/13
f  287/356/13 290/359/15 291/360/16
f  292/361/17 293/362/18 288/357/10
f  288/357/10 287/356/13 292/361/17
f  277/343/51 276/342/4 294/363/19
f  294/363/19 295/364/20 277/343/51
f  294/365/19 276/353/4 284/352/52
f  284/352/52 296/366/21 294/365/19
f  296/366/21 289/358/54 286/355/12
f  286/355/12 294/367/19 296/366/21
f  294/368/19 286/355/12 285/354/53
f  285/354/53 295/364/20 294/368/19
f  297/369/22 296/366/21 284/352/52
f  284/352/52 283/350/8 297/369/22
f  298/370/23 297/369/22 283/350/8
f  283/350/8 282/349/7 298/370/23
f  291/360/16 290/359/15 297/369/22
f  297/369/22 298/370/23 291/360/16
f  297/369/22 290/359/15 289/358/54
f  289/358/54 296/366/21 297/369/22
f  278/344/2 299/371/24 300/372/25
f  300/372/25 280/346/5 278/344/2
f  299/371/24 278/344/2 277/343/51
f  277/343/51 295/364/20 299/371/24
f  285/354/53 288/357/10 299/371/24
f  299/371/24 295/364/20 285/354/53
f  288/357/10 293/362/18 300/372/25
f  300/372/25 299/371/24 288/357/10
f  301/373/4 302/374/51 303/375/2
f  303/375/2 304/376/3 301/373/4
f  305/377/5 306/378/6 304/376/3
f  304/376/3 303/375/2 305/377/5
f  306/378/6 307/379/7 308/380/8
f  308/380/8 304/376/3 306/378/6
f  309/381/52 301/373/4 304/376/3
f  304/376/3 308/380/8 309/381/52
f  310/382/26 311/383/12 312/384/13
f  312/384/13 313/385/10 310/382/26
f  311/386/12 314/387/55 315/388/15
f  315/388/15 312/389/13 311/386/12
f  316/390/16 317/391/17 312/389/13
f  312/389/13 315/388/15 316/390/16
f  317/392/17 318/393/18 313/385/10
f  313/385/10 312/384/13 317/392/17
f  302/374/51 301/373/4 319/394/19
f  319/394/19 320/395/20 302/374/51
f  319/396/19 301/373/4 309/381/52
f  309/381/52 321/397/21 319/396/19
f  321/397/21 314/387/55 311/386/12
f  311/386/12 319/398/19 321/397/21
f  319/399/19 311/383/12 310/382/26
f  310/382/26 320/395/20 319/399/19
f  322/400/22 321/397/21 309/381/52
f  309/381/52 308/380/8 322/400/22
f  323/401/23 322/400/22 308/380/8
f  308/380/8 307/379/7 323/401/23
f  316/390/16 315/388/15 322/400/22
f  322/400/22 323/401/23 316/390/16
f  322/400/22 315/388/15 314/387/55
f  314/387/55 321/397/21 322/400/22
f  303/375/2 324/402/24 325/403/25
f  325/403/25 305/377/5 303/375/2
f  324/402/24 303/375/2 302/374/51
f  302/374/51 320/395/20 324/402/24
f  310/382/26 313/385/10 324/402/24
f  324/402/24 320/395/20 310/382/26
f  313/385/10 318/393/18 325/403/25
f  325/403/25 324/402/24 313/385/10
f  326/404/4 327/405/51 328/406/2
f  328/406/2 329/407/3 326/404/4
f  330/408/5 331/409/6 329/407/3
f  329/407/3 328/406/2 330/408/5
f  331/409/6 332/410/7 333/411/8
f  333/411/8 329/407/3 331/409/6
f  334/412/52 326/404/4 329/407/3
f  329/407/3 333/411/8 334/412/52
f  335/413/26 336/414/12 337/415/13
f  337/415/13 338/416/10 335/413/26
f  336/417/12 339/418/14 340/419/15
f  340/419/15 337/420/13 336/417/12
f  341/421/16 342/422/17 337/420/13
f  337/420/13 340/419/15 341/421/16
f  342/423/17 343/424/18 338/416/10
f  338/416/10 337/415/13 342/423/17
f  327/405/51 326/404/4 344/425/19
f  344/425/19 345/426/20 327/405/51
f  344/427/19 326/404/4 334/412/52
f  334/412/52 346/428/21 344/427/19
f  346/428/21 339/418/14 336/417/12
f  336/417/12 344/429/19 346/428/21
f  344/430/19 336/414/12 335/413/26
f  335/413/26 345/426/20 344/430/19
f  347/431/22 346/428/21 334/412/52
f  334/412/52 333/411/8 347/431/22
f  348/432/23 347/431/22 333/411/8
f  333/411/8 332/410/7 348/432/23
f  341/421/16 340/419/15 347/431/22
f  347/431/22 348/432/23 341/421/16
f  347/431/22 340/419/15 339/418/14
f  339/418/14 346/428/21 347/431/22
f  328/406/2 349/433/24 350/434/25
f  350/434/25 330/408/5 328/406/2
f  349/433/24 328/406/2 327/405/51
f  327/405/51 345/426/20 349/433/24
f  335/413/26 338/416/10 349/433/24
f  349/433/24 345/426/20 335/413/26
f  350/434/25 349/433/24 338/416/10
f  338/416/10 343/424/18 350/434/25
f  351/435/4 352/436/51 353/437/2
f  353/437/2 354/438/3 351/435/4
f  355/439/5 356/440/6 354/438/3
f  354/438/3 353/437/2 355/439/5
f  356/440/6 357/441/7 358/442/8
f  358/442/8 354/438/3 356/440/6
f  359/443/52 351/435/4 354/438/3
f  354/438/3 358/442/8 359/443/52
f  360/444/53 361/445/12 362/446/13
f  362/446/13 363/447/27 360/444/53
f  361/448/12 364/449/14 365/450/28
f  365/450/28 362/451/13 361/448/12
f  366/452/16 367/453/17 362/451/13
f  362/451/13 365/450/28 366/452/16
f  367/454/17 368/455/18 363/447/27
f  363/447/27 362/446/13 367/454/17
f  352/436/51 351/435/4 369/456/19
f  369/456/19 370/457/20 352/436/51
f  369/458/19 351/435/4 359/443/52
f  359/443/52 371/459/21 369/458/19
f  371/459/21 364/449/14 361/448/12
f  361/448/12 369/460/19 371/459/21
f  369/461/19 361/445/12 360/444/53
f  360/444/53 370/457/20 369/461/19
f  372/462/22 371/459/21 359/443/52
f  359/443/52 358/442/8 372/462/22
f  373/463/23 372/462/22 358/442/8
f  358/442/8 357/441/7 373/463/23
f  366/452/16 365/450/28 372/462/22
f  372/462/22 373/463/23 366/452/16
f  372/462/22 365/450/28 364/449/14
f  364/449/14 371/459/21 372/462/22
f  353/437/2 374/464/24 375/465/25
f  375/465/25 355/439/5 353/437/2
f  374/464/24 353/437/2 352/436/51
f  352/436/51 370/457/20 374/464/24
f  360/444/53 363/447/27 374/464/24
f  374/464/24 370/457/20 360/444/53
f  363/447/27 368/455/18 375/465/25
f  375/465/25 374/464/24 363/447/27
f  376/466/29 377/467/56 378/468/31
f  378/468/31 379/469/32 376/466/29
f  380/470/33 381/471/25 379/469/32
f  379/469/32 378/468/31 380/470/33
f  381/472/25 382/473/34 383/474/35
f  383/474/35 379/475/32 381/472/25
f  384/476/57 376/477/29 379/475/32
f  379/475/32 383/474/35 384/476/57
f  385/478/58 386/479/38 387/480/39
f  387/480/39 388/481/40 385/478/58
f  386/479/38 389/482/59 390/483/42
f  390/483/42 387/480/39 386/479/38
f  391/484/43 392/485/23 387/480/39
f  387/480/39 390/483/42 391/484/43
f  392/485/23 393/486/44 388/481/40
f  388/481/40 387/480/39 392/485/23
f  377/467/56 376/466/29 394/487/19
f  394/487/19 395/488/45 377/467/56
f  394/489/19 376/477/29 384/476/57
f  384/476/57 396/490/46 394/489/19
f  396/490/46 389/482/59 386/479/38
f  386/479/38 394/491/19 396/490/46
f  394/492/19 386/479/38 385/478/58
f  385/478/58 395/488/45 394/492/19
f  397/493/47 396/490/46 384/476/57
f  384/476/57 383/474/35 397/493/47
f  398/494/6 397/493/47 383/474/35
f  383/474/35 382/473/34 398/494/6
f  391/484/43 390/483/42 397/493/47
f  397/493/47 398/494/6 391/484/43
f  397/493/47 390/483/42 389/482/59
f  389/482/59 396/490/46 397/493/47
f  378/468/31 399/495/48 400/496/17
f  400/496/17 380/470/33 378/468/31
f  399/495/48 378/468/31 377/467/56
f  377/467/56 395/488/45 399/495/48
f  385/478/58 388/481/40 399/495/48
f  399/495/48 395/488/45 385/478/58
f  388/481/40 393/486/44 400/496/17
f  400/496/17 399/495/48 388/481/40
f  401/497/29 402/498/56 403/499/31
f  403/499/31 404/500/32 401/497/29
f  405/501/33 406/502/25 404/500/32
f  404/500/32 403/499/31 405/501/33
f  406/503/25 407/504/34 408/505/35
f  408/505/35 404/506/32 406/503/25
f  409/507/57 401/508/29 404/506/32
f  404/506/32 408/505/35 409/507/57
f  410/509/49 411/510/38 412/511/39
f  412/511/39 413/512/40 410/509/49
f  411/510/38 414/513/59 415/514/42
f  415/514/42 412/511/39 411/510/38
f  416/515/43 417/516/23 412/511/39
f  412/511/39 415/514/42 416/515/43
f  417/516/23 418/517/44 413/512/40
f  413/512/40 412/511/39 417/516/23
f  402/498/56 401/497/29 419/518/19
f  419/518/19 420/519/45 402/498/56
f  419/520/19 401/508/29 409/507/57
f  409/507/57 421/521/46 419/520/19
f  421/521/46 414/513/59 411/510/38
f  411/510/38 419/522/19 421/521/46
f  419/523/19 411/510/38 410/509/49
f  410/509/49 420/519/45 419/523/19
f  422/524/47 421/521/46 409/507/57
f  409/507/57 408/505/35 422/524/47
f  423/525/6 422/524/47 408/505/35
f  408/505/35 407/504/34 423/525/6
f  416/515/43 415/514/42 422/524/47
f  422/524/47 423/525/6 416/515/43
f  422/524/47 415/514/42 414/513/59
f  414/513/59 421/521/46 422/524/47
f  403/499/31 424/526/48 425/527/17
f  425/527/17 405/501/33 403/499/31
f  424/526/48 403/499/31 402/498/56
f  402/498/56 420/519/45 424/526/48
f  410/509/49 413/512/40 424/526/48
f  424/526/48 420/519/45 410/509/49
f  413/512/40 418/517/44 425/527/17
f  425/527/17 424/526/48 413/512/40
f  426/528/29 427/529/60 428/530/61
f  428/530/61 429/531/32 426/528/29
f  430/532/33 431/533/25 429/531/32
f  429/531/32 428/530/61 430/532/33
f  431/534/25 432/535/34 433/536/35
f  433/536/35 429/537/32 431/534/25
f  434/538/57 426/539/29 429/537/32
f  429/537/32 433/536/35 434/538/57
f  435/540/49 436/541/38 437/542/39
f  437/542/39 438/543/40 435/540/49
f  436/541/38 439/544/59 440/545/42
f  440/545/42 437/542/39 436/541/38
f  441/546/43 442/547/23 437/542/39
f  437/542/39 440/545/42 441/546/43
f  442/547/23 443/548/44 438/543/40
f  438/543/40 437/542/39 442/547/23
f  427/529/60 426/528/29 444/549/19
f  444/549/19 445/550/45 427/529/60
f  444/551/19 426/539/29 434/538/57
f  434/538/57 446/552/46 444/551/19
f  446/552/46 439/544/59 436/541/38
f  436/541/38 444/553/19 446/552/46
f  444/554/19 436/541/38 435/540/49
f  435/540/49 445/550/45 444/554/19
f  447/555/47 446/552/46 434/538/57
f  434/538/57 433/536/35 447/555/47
f  448/556/6 447/555/47 433/536/35
f  433/536/35 432/535/34 448/556/6
f  441/546/43 440/545/42 447/555/47
f  447/555/47 448/556/6 441/546/43
f  447/555/47 440/545/42 439/544/59
f  439/544/59 446/552/46 447/555/47
f  428/530/61 449/557/48 450/558/17
f  450/558/17 430/532/33 428/530/61
f  449/557/48 428/530/61 427/529/60
f  427/529/60 445/550/45 449/557/48
f  435/540/49 438/543/40 449/557/48
f  449/557/48 445/550/45 435/540/49
f  438/543/40 443/548/44 450/558/17
f  450/558/17 449/557/48 438/543/40
f  451/559/29 452/560/60 453/561/61
f  453/561/61 454/562/32 451/559/29
f  455/563/33 456/564/25 454/562/32
f  454/562/32 453/561/61 455/563/33
f  456/565/25 457/566/34 458/567/35
f  458/567/35 454/568/32 456/565/25
f  459/569/36 451/570/29 454/568/32
f  454/568/32 458/567/35 459/569/36
f  460/571/49 461/572/38 462/573/39
f  462/573/39 463/574/40 460/571/49
f  461/572/38 464/575/59 465/576/42
f  465/576/42 462/573/39 461/572/38
f  466/577/43 467/578/23 462/573/39
f  462/573/39 465/576/42 466/577/43
f  467/578/23 468/579/44 463/574/40
f  463/574/40 462/573/39 467/578/23
f  452/560/60 451/559/29 469/580/19
f  469/580/19 470/581/45 452/560/60
f  469/582/19 451/570/29 459/569/36
f  459/569/36 471/583/46 469/582/19
f  471/583/46 464/575/59 461/572/38
f  461/572/38 469/584/19 471/583/46
f  469/585/19 461/572/38 460/571/49
f  460/571/49 470/581/45 469/585/19
f  472/586/47 471/583/46 459/569/36
f  459/569/36 458/567/35 472/586/47
f  473/587/6 472/586/47 458/567/35
f  458/567/35 457/566/34 473/587/6
f  466/577/43 465/576/42 472/586/47
f  472/586/47 473/587/6 466/577/43
f  472/586/47 465/576/42 464/575/59
f  464/575/59 471/583/46 472/586/47
f  453/561/61 474/588/48 475/589/17
f  475/589/17 455/563/33 453/561/61
f  474/588/48 453/561/61 452/560/60
f  452/560/60 470/581/45 474/588/48
f  460/571/49 463/574/40 474/588/48
f  474/588/48 470/581/45 460/571/49
f  475/589/17 474/588/48 463/574/40
f  463/574/40 468/579/44 475/589/17
f  476/590/29 477/591/60 478/592/61
f  478/592/61 479/593/32 476/590/29
f  480/594/33 481/595/25 479/593/32
f  479/593/32 478/592/61 480/594/33
f  481/596/25 482/597/34 483/598/62
f  483/598/62 479/599/32 481/596/25
f  484/600/57 476/601/29 479/599/32
f  479/599/32 483/598/62 484/600/57
f  485/602/49 486/603/38 487/604/39
f  487/604/39 488/605/40 485/602/49
f  486/603/38 489/606/59 490/607/42
f  490/607/42 487/604/39 486/603/38
f  491/608/43 492/609/23 487/604/39
f  487/604/39 490/607/42 491/608/43
f  492/609/23 493/610/44 488/605/40
f  488/605/40 487/604/39 492/609/23
f  477/591/60 476/590/29 494/611/19
f  494/611/19 495/612/45 477/591/60
f  494/613/19 476/601/29 484/600/57
f  484/600/57 496/614/46 494/613/19
f  496/614/46 489/606/59 486/603/38
f  486/603/38 494/615/19 496/614/46
f  494/616/19 486/603/38 485/602/49
f  485/602/49 495/612/45 494/616/19
f  497/617/47 496/614/46 484/600/57
f  484/600/57 483/598/62 497/617/47
f  498/618/6 497/617/47 483/598/62
f  483/598/62 482/597/34 498/618/6
f  491/608/43 490/607/42 497/617/47
f  497/617/47 498/618/6 491/608/43
f  497/617/47 490/607/42 489/606/59
f  489/606/59 496/614/46 497/617/47
f  478/592/61 499/619/48 500/620/17
f  500/620/17 480/594/33 478/592/61
f  477/591/60 495/612/45 499/619/48
f  499/619/48 478/592/61 477/591/60
f  485/602/49 488/605/40 499/619/48
f  499/619/48 495/612/45 485/602/49
f  500/620/17 499/619/48 488/605/40
f  488/605/40 493/610/44 500/620/17

# Mesh 'g Low_Legs_Low_Legs' with 288 faces
g g Low_Legs_Low_Legs
usemtl default
f  501/621/63 502/622/64 503/623/65
f  503/623/65 504/624/66 501/621/63
f  503/623/65 502/622/64 505/625/67
f  505/625/67 506/626/68 503/623/65
f  507/627/69 508/628/70 503/623/65
f  503/623/65 506/626/68 507/627/69
f  508/628/70 509/629/71 504/624/66
f  504/624/66 503/623/65 508/628/70
f  510/630/72 511/631/73 512/632/74
f  512/632/74 513/633/75 510/630/72
f  513/633/75 512/632/74 514/634/76
f  514/634/76 515/635/77 513/633/75
f  513/633/75 515/635/77 516/636/78
f  516/636/78 517/637/79 513/633/75
f  517/637/79 518/638/80 510/630/72
f  510/630/72 513/633/75 517/637/79
f  519/639/81 501/640/63 504/641/66
f  504/641/66 520/642/19 519/639/81
f  504/641/66 509/643/71 521/644/82
f  521/644/82 520/642/19 504/641/66
f  520/642/19 521/644/82 514/645/76
f  514/645/76 512/646/74 520/642/19
f  519/639/81 520/642/19 512/646/74
f  512/646/74 511/647/73 519/639/81
f  508/628/70 522/648/83 521/649/82
f  521/649/82 509/629/71 508/628/70
f  522/648/83 508/628/70 507/627/69
f  507/627/69 523/650/84 522/648/83
f  515/651/77 522/648/83 523/650/84
f  523/650/84 516/652/78 515/651/77
f  514/653/76 521/649/82 522/648/83
f  522/648/83 515/651/77 514/653/76
f  524/654/85 525/655/25 526/656/5
f  526/656/5 527/657/86 524/654/85
f  505/625/67 528/658/87 524/654/85
f  524/654/85 527/657/86 505/625/67
f  518/638/80 529/659/88 524/654/85
f  524/654/85 528/658/87 518/638/80
f  529/659/88 530/660/18 525/655/25
f  525/655/25 524/654/85 529/659/88
f  531/661/63 532/662/89 533/663/65
f  533/663/65 534/664/66 531/661/63
f  532/662/89 535/665/67 536/666/68
f  536/666/68 533/663/65 532/662/89
f  533/663/65 536/666/68 537/667/69
f  537/667/69 538/668/70 533/663/65
f  538/668/70 539/669/71 534/664/66
f  534/664/66 533/663/65 538/668/70
f  540/670/74 541/671/75 542/672/72
f  542/672/72 543/673/73 540/670/74
f  541/671/75 540/670/74 544/674/76
f  544/674/76 545/675/90 541/671/75
f  541/671/75 545/675/90 546/676/78
f  546/676/78 547/677/79 541/671/75
f  541/671/75 547/677/79 548/678/80
f  548/678/80 542/672/72 541/671/75
f  531/679/63 534/680/66 549/681/19
f  549/681/19 550/682/81 531/679/63
f  534/680/66 539/683/71 551/684/82
f  551/684/82 549/681/19 534/680/66
f  540/685/74 549/681/19 551/684/82
f  551/684/82 544/686/76 540/685/74
f  549/681/19 540/685/74 543/687/73
f  543/687/73 550/682/81 549/681/19
f  552/688/83 551/689/82 539/690/71
f  539/690/71 538/691/70 552/688/83
f  553/692/84 552/688/83 538/691/70
f  538/691/70 537/693/69 553/692/84
f  552/688/83 553/692/84 546/676/78
f  546/676/78 545/675/90 552/688/83
f  552/688/83 545/675/90 544/674/76
f  544/674/76 551/689/82 552/688/83
f  554/694/85 555/695/25 556/696/5
f  556/696/5 557/697/91 554/694/85
f  535/665/67 558/698/87 554/694/85
f  554/694/85 557/697/91 535/665/67
f  558/698/87 548/678/80 559/699/92
f  559/699/92 554/694/85 558/698/87
f  559/699/92 560/700/18 555/695/25
f  555/695/25 554/694/85 559/699/92
f  561/701/63 562/702/89 563/703/65
f  563/703/65 564/704/66 561/701/63
f  562/702/89 565/705/67 566/706/68
f  566/706/68 563/703/65 562/702/89
f  567/707/69 568/708/70 563/703/65
f  563/703/65 566/706/68 567/707/69
f  563/703/65 568/708/70 569/709/71
f  569/709/71 564/704/66 563/703/65
f  570/710/74 571/711/75 572/712/72
f  572/712/72 573/713/73 570/710/74
f  571/711/75 570/710/74 574/714/76
f  574/714/76 575/715/90 571/711/75
f  571/711/75 575/715/90 576/716/78
f  576/716/78 577/717/79 571/711/75
f  572/712/72 571/711/75 577/717/79
f  577/717/79 578/718/80 572/712/72
f  561/719/63 564/720/66 579/721/19
f  579/721/19 580/722/81 561/719/63
f  581/723/82 579/721/19 564/720/66
f  564/720/66 569/724/71 581/723/82
f  579/721/19 581/723/82 574/725/76
f  574/725/76 570/726/74 579/721/19
f  580/722/81 579/721/19 570/726/74
f  570/726/74 573/727/73 580/722/81
f  581/728/82 569/709/71 568/708/70
f  568/708/70 582/729/83 581/728/82
f  568/708/70 567/707/69 583/730/84
f  583/730/84 582/729/83 568/708/70
f  582/729/83 583/730/84 576/716/78
f  576/716/78 575/715/90 582/729/83
f  575/715/90 574/714/76 581/728/82
f  581/728/82 582/729/83 575/715/90
f  584/731/91 585/732/85 586/733/25
f  586/733/25 587/734/5 584/731/91
f  565/735/67 588/736/87 585/732/85
f  585/732/85 584/731/91 565/735/67
f  578/718/80 589/737/88 585/732/85
f  585/732/85 588/736/87 578/718/80
f  586/733/25 585/732/85 589/737/88
f  589/737/88 590/738/18 586/733/25
f  591/739/66 592/740/63 593/741/89
f  593/741/89 594/742/65 591/739/66
f  594/742/65 593/741/89 595/743/67
f  595/743/67 596/744/68 594/742/65
f  597/745/70 594/742/65 596/744/68
f  596/744/68 598/746/69 597/745/70
f  597/745/70 599/747/71 591/739/66
f  591/739/66 594/742/65 597/745/70
f  600/748/73 601/749/74 602/750/75
f  602/750/75 603/751/72 600/748/73
f  601/749/74 604/752/76 605/753/90
f  605/753/90 602/750/75 601/749/74
f  606/754/79 602/750/75 605/753/90
f  605/753/90 607/755/78 606/754/79
f  603/751/72 602/750/75 606/754/79
f  606/754/79 608/756/80 603/751/72
f  609/757/81 592/758/63 591/759/66
f  591/759/66 610/760/19 609/757/81
f  610/760/19 591/759/66 599/761/71
f  599/761/71 611/762/82 610/760/19
f  610/760/19 611/762/82 604/763/76
f  604/763/76 601/764/74 610/760/19
f  601/764/74 600/765/73 609/757/81
f  609/757/81 610/760/19 601/764/74
f  612/766/83 611/767/82 599/747/71
f  599/747/71 597/745/70 612/766/83
f  597/745/70 598/746/69 613/768/84
f  613/768/84 612/766/83 597/745/70
f  613/768/84 607/755/78 605/753/90
f  605/753/90 612/766/83 613/768/84
f  611/767/82 612/766/83 605/753/90
f  605/753/90 604/752/76 611/767/82
f  614/769/91 615/770/85 616/771/25
f  616/771/25 617/772/5 614/769/91
f  595/773/67 618/774/87 615/770/85
f  615/770/85 614/769/91 595/773/67
f  608/756/80 619/775/92 615/770/85
f  615/770/85 618/774/87 608/756/80
f  620/776/18 616/771/25 615/770/85
f  615/770/85 619/775/92 620/776/18
f  506/626/68 505/625/67 527/657/86
f  527/657/86 621/777/93 506/626/68
f  622/778/6 621/777/93 527/657/86
f  527/657/86 526/656/5 622/778/6
f  621/777/93 622/778/6 623/779/7
f  623/779/7 624/780/94 621/777/93
f  621/777/93 624/780/94 507/627/69
f  507/627/69 506/626/68 621/777/93
f  517/637/79 516/636/78 625/781/95
f  625/781/95 626/782/96 517/637/79
f  627/783/17 626/782/96 625/781/95
f  625/781/95 628/784/16 627/783/17
f  530/660/18 529/659/88 626/782/96
f  626/782/96 627/783/17 530/660/18
f  517/637/79 626/782/96 529/659/88
f  529/659/88 518/638/80 517/637/79
f  523/650/84 507/627/69 624/780/94
f  624/780/94 629/785/97 523/650/84
f  623/779/7 630/786/23 629/785/97
f  629/785/97 624/780/94 623/779/7
f  628/787/16 625/788/95 629/785/97
f  629/785/97 630/786/23 628/787/16
f  523/650/84 629/785/97 625/788/95
f  625/788/95 516/652/78 523/650/84
f  528/658/87 505/625/67 502/622/64
f  502/622/64 631/789/98 528/658/87
f  519/790/81 631/789/98 502/622/64
f  502/622/64 501/621/63 519/790/81
f  631/789/98 519/790/81 511/631/73
f  511/631/73 510/630/72 631/789/98
f  631/789/98 510/630/72 518/638/80
f  518/638/80 528/658/87 631/789/98
f  557/697/91 632/791/93 536/666/68
f  536/666/68 535/665/67 557/697/91
f  633/792/6 632/791/93 557/697/91
f  557/697/91 556/696/5 633/792/6
f  634/793/7 635/794/94 632/791/93
f  632/791/93 633/792/6 634/793/7
f  536/666/68 632/791/93 635/794/94
f  635/794/94 537/667/69 536/666/68
f  636/795/99 637/796/96 547/677/79
f  547/677/79 546/676/78 636/795/99
f  638/797/17 637/796/96 636/795/99
f  636/795/99 639/798/16 638/797/17
f  560/700/18 559/699/92 637/796/96
f  637/796/96 638/797/17 560/700/18
f  637/796/96 559/699/92 548/678/80
f  548/678/80 547/677/79 637/796/96
f  640/799/97 553/692/84 537/693/69
f  537/693/69 635/800/94 640/799/97
f  635/800/94 634/801/7 641/802/23
f  641/802/23 640/799/97 635/800/94
f  639/798/16 636/795/99 640/799/97
f  640/799/97 641/802/23 639/798/16
f  546/676/78 553/692/84 640/799/97
f  640/799/97 636/795/99 546/676/78
f  558/698/87 535/665/67 532/662/89
f  532/662/89 642/803/98 558/698/87
f  550/804/81 642/803/98 532/662/89
f  532/662/89 531/661/63 550/804/81
f  642/803/98 550/804/81 543/673/73
f  543/673/73 542/672/72 642/803/98
f  558/698/87 642/803/98 542/672/72
f  542/672/72 548/678/80 558/698/87
f  643/805/93 566/706/68 565/705/67
f  565/705/67 584/806/91 643/805/93
f  587/807/5 644/808/6 643/805/93
f  643/805/93 584/806/91 587/807/5
f  645/809/94 643/805/93 644/808/6
f  644/808/6 646/810/7 645/809/94
f  566/706/68 643/805/93 645/809/94
f  645/809/94 567/707/69 566/706/68
f  576/716/78 647/811/95 648/812/96
f  648/812/96 577/717/79 576/716/78
f  648/812/96 647/811/95 649/813/16
f  649/813/16 650/814/17 648/812/96
f  590/738/18 589/737/88 648/812/96
f  648/812/96 650/814/17 590/738/18
f  577/717/79 648/812/96 589/737/88
f  589/737/88 578/718/80 577/717/79
f  645/809/94 651/815/97 583/730/84
f  583/730/84 567/707/69 645/809/94
f  652/816/23 651/815/97 645/809/94
f  645/809/94 646/810/7 652/816/23
f  651/815/97 652/816/23 649/813/16
f  649/813/16 647/811/95 651/815/97
f  647/811/95 576/716/78 583/730/84
f  583/730/84 651/815/97 647/811/95
f  588/736/87 565/735/67 562/817/89
f  562/817/89 653/818/98 588/736/87
f  562/817/89 561/819/63 580/820/81
f  580/820/81 653/818/98 562/817/89
f  653/818/98 580/820/81 573/713/73
f  573/713/73 572/712/72 653/818/98
f  578/718/80 588/736/87 653/818/98
f  653/818/98 572/712/72 578/718/80
f  614/821/91 654/822/93 596/744/68
f  596/744/68 595/743/67 614/821/91
f  655/823/6 654/822/93 614/821/91
f  614/821/91 617/824/5 655/823/6
f  655/823/6 656/825/7 657/826/94
f  657/826/94 654/822/93 655/823/6
f  654/822/93 657/826/94 598/746/69
f  598/746/69 596/744/68 654/822/93
f  607/755/78 658/827/99 659/828/96
f  659/828/96 606/754/79 607/755/78
f  660/829/17 659/828/96 658/827/99
f  658/827/99 661/830/16 660/829/17
f  659/828/96 660/829/17 620/776/18
f  620/776/18 619/775/92 659/828/96
f  659/828/96 619/775/92 608/756/80
f  608/756/80 606/754/79 659/828/96
f  598/746/69 657/826/94 662/831/97
f  662/831/97 613/768/84 598/746/69
f  656/825/7 663/832/23 662/831/97
f  662/831/97 657/826/94 656/825/7
f  661/830/16 658/827/99 662/831/97
f  662/831/97 663/832/23 661/830/16
f  658/827/99 607/755/78 613/768/84
f  613/768/84 662/831/97 658/827/99
f  664/833/98 618/774/87 595/773/67
f  595/773/67 593/834/89 664/833/98
f  609/835/81 664/833/98 593/834/89
f  593/834/89 592/836/63 609/835/81
f  664/833/98 609/835/81 600/748/73
f  600/748/73 603/751/72 664/833/98
f  664/833/98 603/751/72 608/756/80
f  608/756/80 618/774/87 664/833/98

# Mesh 'g Low_Metal_Low_Metal' with 48 faces
g g Low_Metal_Low_Metal
usemtl default
f  665/837/6 666/838/6 667/839/6
f  667/839/6 668/840/6 665/837/6
f  669/841/17 670/842/17 671/843/17
f  671/843/17 672/844/17 669/841/17
f  669/841/23 672/844/23 668/845/23
f  668/845/23 667/846/23 669/841/23
f  670/842/100 669/841/100 667/839/100
f  667/839/100 666/838/100 670/842/100
f  665/837/25 671/847/25 670/848/25
f  670/848/25 666/838/25 665/837/25
f  671/849/19 665/837/19 668/840/19
f  668/840/19 672/850/19 671/849/19
f  673/851/25 674/852/25 675/853/25
f  675/853/25 676/854/25 673/851/25
f  677/855/23 678/856/23 679/857/23
f  679/857/23 680/858/23 677/855/23
f  677/859/100 675/853/100 674/852/100
f  674/852/100 678/860/100 677/859/100
f  679/857/17 678/861/17 674/862/17
f  674/862/17 673/851/17 679/857/17
f  680/858/19 679/857/19 673/851/19
f  673/851/19 676/854/19 680/858/19
f  681/863/6 682/864/6 683/865/6
f  683/865/6 684/866/6 681/863/6
f  685/867/17 686/868/17 687/869/17
f  687/869/17 688/870/17 685/867/17
f  688/870/23 684/871/23 683/872/23
f  683/872/23 685/873/23 688/870/23
f  685/867/100 683/865/100 682/864/100
f  682/864/100 686/868/100 685/867/100
f  687/874/25 686/868/25 682/864/25
f  682/864/25 681/875/25 687/874/25
f  681/876/19 684/871/19 688/870/19
f  688/870/19 687/869/19 681/876/19
f  689/877/25 690/878/25 691/879/25
f  691/879/25 692/880/25 689/877/25
f  693/881/23 694/882/23 695/883/23
f  695/883/23 696/884/23 693/881/23
f  693/881/6 696/884/6 692/885/6
f  692/885/6 691/886/6 693/881/6
f  691/879/100 690/878/100 694/882/100
f  694/882/100 693/881/100 691/879/100
f  695/887/19 689/877/19 692/880/19
f  692/880/19 696/888/19 695/887/19
f  675/853/6 677/859/6 680/889/6
f  680/889/6 676/890/6 675/853/6
f  694/891/17 690/878/17 689/877/17
f  689/877/17 695/892/17 694/891/17

# Mesh 'g Low_Rope_Low_Rope' with 20 faces
g g Low_Rope_Low_Rope
usemtl default
f  697/893/101 698/894/102 699/895/103
f  699/895/103 700/896/103 697/893/101
f  701/897/104 698/894/102 697/893/101
f  697/893/101 702/898/105 701/897/104
f  701/897/104 702/898/105 703/899/106
f  703/899/106 704/900/107 701/897/104
f  705/901/108 704/900/107 703/899/106
f  703/899/106 706/902/109 705/901/108
f  705/901/108 706/902/109 707/903/110
f  707/903/110 708/904/111 705/901/108
f  709/905/112 708/904/111 707/903/110
f  707/903/110 710/906/113 709/905/112
f  711/907/114 709/905/112 710/906/113
f  710/906/113 712/908/115 711/907/114
f  713/909/116 714/910/117 711/907/114
f  711/907/114 712/908/115 713/909/116
f  714/910/117 713/909/116 715/911/118
f  715/911/118 716/912/119 714/910/117
f  699/913/103 716/912/119 715/911/118
f  715/911/118 700/914/103 699/913/103

# Mesh 'g Low_Crossbars_Low_Crossbars' with 80 faces
g g Low_Crossbars_Low_Crossbars
usemtl default
f  717/915/120 718/916/121 719/917/25
f  719/917/25 720/918/122 717/915/120
f  719/917/25 718/916/121 721/919/123
f  721/919/123 722/920/124 719/917/25
f  723/921/125 724/922/126 719/923/25
f  719/923/25 722/924/124 723/921/125
f  724/922/126 725/925/127 720/926/122
f  720/926/122 719/923/25 724/922/126
f  726/927/128 727/928/129 728/929/130
f  728/929/130 729/930/23 726/927/128
f  729/930/23 728/929/130 730/931/131
f  730/931/131 731/932/132 729/930/23
f  732/933/133 729/930/23 731/932/132
f  731/932/132 733/934/134 732/933/133
f  732/933/133 734/935/135 726/927/128
f  726/927/128 729/930/23 732/933/133
f  735/936/6 736/937/136 717/915/120
f  717/915/120 720/918/122 735/936/6
f  720/926/122 725/925/127 737/938/137
f  737/938/137 735/939/6 720/926/122
f  735/939/6 737/938/137 730/931/131
f  730/931/131 728/929/130 735/939/6
f  727/928/129 736/937/136 735/936/6
f  735/936/6 728/940/130 727/928/129
f  724/922/126 738/941/100 737/938/137
f  737/938/137 725/925/127 724/922/126
f  738/941/100 724/922/126 723/921/125
f  723/921/125 739/942/138 738/941/100
f  731/932/132 738/941/100 739/942/138
f  739/942/138 733/934/134 731/932/132
f  730/931/131 737/938/137 738/941/100
f  738/941/100 731/932/132 730/931/131
f  722/924/124 740/943/17 739/942/138
f  739/942/138 723/921/125 722/924/124
f  741/944/139 740/945/17 722/920/124
f  722/920/124 721/919/123 741/944/139
f  741/944/139 734/935/135 732/933/133
f  732/933/133 740/945/17 741/944/139
f  739/942/138 740/943/17 732/946/133
f  732/946/133 733/934/134 739/942/138
f  741/944/139 721/919/123 718/916/121
f  718/916/121 742/947/19 741/944/139
f  717/915/120 736/937/136 742/947/19
f  742/947/19 718/916/121 717/915/120
f  742/947/19 736/937/136 727/928/129
f  727/928/129 726/927/128 742/947/19
f  742/947/19 726/927/128 734/935/135
f  734/935/135 741/944/139 742/947/19
f  743/948/140 744/949/6 745/950/6
f  745/950/6 746/951/140 743/948/140
f  747/952/6 744/949/6 743/948/140
f  743/948/140 748/953/140 747/952/6
f  744/949/6 747/952/6 749/954/141
f  749/954/141 750/955/141 744/949/6
f  750/955/141 751/956/141 745/950/6
f  745/950/6 744/949/6 750/955/141
f  752/957/142 753/958/142 754/959/17
f  754/959/17 755/960/17 752/957/142
f  756/961/143 755/960/17 754/959/17
f  754/959/17 757/962/143 756/961/143
f  755/960/17 756/961/143 758/963/143
f  758/963/143 759/964/17 755/960/17
f  755/960/17 759/964/17 760/965/142
f  760/965/142 752/957/142 755/960/17
f  750/966/141 761/967/100 762/968/100
f  762/968/100 751/969/141 750/966/141
f  763/970/100 761/967/100 750/966/141
f  750/966/141 749/971/141 763/970/100
f  761/967/100 763/970/100 758/963/143
f  758/963/143 756/961/143 761/967/100
f  762/968/100 761/967/100 756/961/143
f  756/961/143 757/962/143 762/968/100
f  748/953/140 743/948/140 764/972/19
f  764/972/19 765/973/19 748/953/140
f  743/948/140 746/951/140 766/974/19
f  766/974/19 764/972/19 743/948/140
f  764/972/19 766/974/19 753/958/142
f  753/958/142 752/957/142 764/972/19
f  764/972/19 752/957/142 760/965/142
f  760/965/142 765/973/19 764/972/19

