# 3ds Max Wavefront OBJ Exporter v0.97b - (c)2007 guruware
# File Created: 18.04.2018 09:55:50

#
# object EyeLow
#

v  23.0636 -69.6321 125.7115
v  39.8859 -75.2590 122.0352
v  38.1069 -58.9478 114.9446
v  18.5589 -60.8702 119.0646
v  62.2299 -68.7818 109.9363
v  57.2838 -55.1274 107.4939
v  39.4125 -99.1279 117.7699
v  25.4198 -89.3099 132.5033
v  20.7371 -105.2090 124.4156
v  50.3550 -88.4107 104.3194
v  23.0750 -80.2152 132.6358
v  67.7750 -43.0300 139.6032
v  69.5035 -31.8192 147.9318
v  46.3926 -35.1696 156.3065
v  44.8228 -46.8854 146.1526
v  42.5089 -12.7766 156.5004
v  32.3836 -28.5490 154.1641
v  56.9169 -15.7913 157.8751
v  71.4803 -17.8013 151.5039
v  -108.2168 -92.5539 76.5929
v  -95.8691 -96.0011 83.1519
v  -96.8137 -87.8356 79.6861
v  -105.1845 -83.0013 74.5583
v  -90.2864 -86.3133 79.3145
v  -85.8228 -95.4537 87.6770
v  -98.3974 -78.2256 70.5880
v  119.5800 -55.2765 61.3621
v  125.6268 -31.2650 61.9022
v  121.4104 -33.4775 72.3263
v  115.5403 -56.7162 71.9497
v  120.3645 4.8795 77.5180
v  118.8063 3.0784 81.5816
v  127.1760 -48.2813 50.1026
v  125.4104 -63.5332 61.2927
v  137.6998 -39.2298 52.2124
v  138.4352 -21.3689 62.3498
v  -27.7193 42.8459 102.8372
v  -50.0277 39.9510 113.5975
v  -41.5550 34.2825 114.0387
v  -29.2767 34.9224 101.8869
v  -48.3796 35.7401 128.7638
v  -59.3213 35.6421 126.9178
v  -74.4626 29.2347 108.4397
v  -73.4595 28.5850 117.0350
v  -49.9348 45.1225 107.6666
v  -24.6823 52.1249 103.9512
v  128.0151 -24.7252 75.8826
v  119.1130 4.4126 86.0778
v  114.9834 -39.7617 80.7137
v  108.0964 -45.3669 75.6547
v  107.3577 -56.4263 84.2518
v  85.2885 -50.0619 94.9734
v  85.8206 -54.3247 99.2232
v  95.5601 -55.4758 94.7744
v  96.3709 -49.3303 86.8442
v  92.2476 -63.4457 104.1146
v  78.1670 -57.9762 104.9743
v  73.0618 -51.4518 101.3420
v  83.1424 -76.4885 110.1022
v  71.9485 -90.7160 100.9490
v  13.8564 -80.0860 128.8140
v  8.8255 -88.7672 125.7266
v  7.8034 -74.6211 121.4143
v  -6.1150 -83.6761 118.0997
v  -4.5702 -65.3115 117.9555
v  -44.5694 -89.0197 132.1826
v  -31.3214 -92.6433 131.9647
v  -31.9751 -84.3509 132.2462
v  -41.5708 -78.9939 131.2991
v  -34.7553 -72.1616 125.2147
v  -23.9426 -80.2849 128.0386
v  -18.1507 -90.0883 126.4804
v  142.7720 -42.9320 49.7080
v  130.5919 -60.5092 44.8777
v  150.5242 -19.5028 62.6571
v  -63.5449 32.1287 136.7135
v  -56.4023 28.9851 141.4235
v  -75.6407 26.4312 127.7073
v  -74.8871 22.2682 137.9404
v  -69.3532 17.2036 144.1475
v  -55.6828 8.7204 134.3978
v  -51.8022 16.1171 131.9143
v  -51.2280 20.4486 136.8701
v  -60.6464 12.7106 143.5781
v  -46.6149 25.1065 125.3415
v  -49.9701 17.2019 122.9607
v  -53.8822 8.1124 123.8836
v  -90.1171 -6.8175 137.8928
v  -76.7679 -18.0331 144.7367
v  -79.3682 3.7114 143.0382
v  -85.5385 8.9618 138.1935
v  -92.1158 -20.3022 133.0936
v  -79.7555 -32.9962 136.9256
v  -67.8130 0.0983 144.6445
v  -64.3281 -16.2680 145.2147
v  97.7298 -21.3200 134.9314
v  115.6376 -24.6489 120.2391
v  114.8164 -15.0784 122.9154
v  100.9669 -7.9234 135.2178
v  120.4149 -10.5921 118.4395
v  126.0112 -24.2304 110.6588
v  104.7857 3.8975 133.0450
v  45.7732 20.7511 157.2812
v  42.6989 35.0251 152.6386
v  31.9132 28.7837 148.5315
v  35.6856 17.9920 149.3709
v  39.1341 42.8389 142.5486
v  31.7110 29.3046 138.3997
v  36.3057 16.5534 138.4456
v  -22.6521 -39.7551 113.7312
v  -22.0022 -37.9910 102.1321
v  -30.7516 -33.5868 104.5983
v  -34.6728 -32.6408 112.4882
v  -23.7893 -32.4558 91.6462
v  -34.0469 -27.4006 98.8495
v  -42.2946 -22.5174 107.9138
v  9.0577 -18.5485 81.0160
v  -0.4854 -25.4203 80.8662
v  3.8816 -33.9703 86.9939
v  18.6626 -26.7906 88.1467
v  -2.7548 -13.7736 81.5591
v  -10.1817 -23.9815 82.3855
v  -10.4344 -35.7847 87.8727
v  24.6637 47.8729 104.2224
v  41.0227 44.5967 112.8176
v  25.9402 57.7545 115.0387
v  8.0578 56.2566 106.9543
v  70.2636 57.5161 118.3594
v  27.1996 68.9842 125.8175
v  66.4051 47.2170 111.5659
v  68.6395 40.2334 109.8870
v  -98.3263 -11.7175 129.2187
v  -101.1629 -15.6683 121.0027
v  -92.3813 -28.8463 123.8934
v  -97.3327 -0.5469 130.0899
v  -100.9246 -0.5525 119.0317
v  -128.4196 -99.5722 34.0197
v  -121.2226 -107.0028 36.6443
v  -122.5113 -102.5362 46.2126
v  -126.8889 -96.4204 48.3068
v  -112.4827 -113.4924 43.4820
v  -116.7325 -105.5304 54.0519
v  -119.9316 -97.0912 62.1182
v  -120.3308 -69.9434 15.6632
v  -121.2344 -76.3337 5.8061
v  -125.3519 -79.1604 9.4393
v  -126.4445 -75.8139 17.8557
v  -131.4776 -83.5097 16.9950
v  -127.1643 -86.0030 5.8907
v  -120.5135 -84.8463 -1.9760
v  -99.1968 -68.5919 96.6769
v  -98.0512 -67.5822 89.5501
v  -89.8288 -71.8857 87.9706
v  -86.9019 -78.8987 98.7663
v  -96.6470 -65.6646 75.7080
v  -105.9418 -62.9952 81.6809
v  -112.8951 -60.4618 89.6424
v  120.9605 -66.5910 77.9002
v  125.2846 -36.3854 103.7652
v  131.3620 -34.9696 98.1729
v  133.4429 -22.1987 102.6226
v  136.1846 -22.1120 88.9279
v  129.9214 -38.3268 90.5669
v  118.3173 -40.4310 98.7439
v  39.7237 -126.8115 -97.7072
v  63.4244 -104.0610 -113.5885
v  78.5659 -116.4826 -90.0948
v  69.4720 -133.9813 -69.2124
v  100.1293 -80.0142 -108.4263
v  108.9519 -103.7642 -76.8431
v  136.0606 -69.6786 43.6367
v  141.1855 -80.4127 34.3619
v  152.3447 -51.0397 39.6993
v  147.9508 -46.6986 45.9879
v  166.3833 -19.0959 35.1282
v  160.1292 -17.8524 55.2555
v  155.6674 -60.3880 8.4653
v  14.5912 45.1481 98.9736
v  22.6918 40.3721 98.1645
v  30.4234 39.6765 101.9455
v  21.5893 33.6352 94.4136
v  32.2962 30.5449 98.1149
v  10.1320 37.3004 94.2780
v  37.4620 38.2444 119.8622
v  50.4956 41.9243 119.9330
v  37.1507 37.3101 110.8305
v  71.5884 36.5079 115.2875
v  -140.8113 41.4022 74.0193
v  -156.0821 6.3274 40.8265
v  -143.2952 5.0372 70.6422
v  -133.7061 33.2351 89.5728
v  -143.2811 -14.9911 63.2039
v  -153.7228 -19.2042 37.6791
v  -144.9310 59.6209 49.0474
v  -159.8933 32.9443 12.1601
v  -107.3395 -6.0032 94.7709
v  -115.6664 2.6689 91.4853
v  -122.0397 -7.7338 90.3825
v  -116.4641 -17.3955 95.1024
v  -126.6458 -23.2719 92.4791
v  -128.3225 -9.7336 84.2205
v  -124.7910 4.5992 87.4622
v  -144.0764 -29.8407 63.7334
v  -133.3391 -31.5414 85.7043
v  -135.0415 -13.6264 79.1654
v  -141.5514 -40.5975 63.6463
v  -131.7489 -46.3333 81.9582
v  -118.8279 -47.5039 101.7759
v  -118.5624 -55.1313 96.1499
v  -115.5711 -39.7860 104.3283
v  7.7867 138.8737 -87.8514
v  2.6774 154.3172 -54.6384
v  33.1442 151.7722 -54.5943
v  47.6694 138.9455 -76.2501
v  8.1382 162.9436 -12.8037
v  49.3944 154.5822 -23.3006
v  83.4777 135.7319 -44.2784
v  69.4071 87.7206 -120.4290
v  62.9442 56.3542 -140.1952
v  32.5543 68.3908 -144.7797
v  26.7253 90.9655 -133.3622
v  44.4076 24.4435 -156.3240
v  11.9739 52.3947 -154.1091
v  -7.8981 80.3681 -140.6367
v  -64.0454 -100.0881 117.0666
v  -82.0060 -86.3646 110.6282
v  -76.8485 -99.0890 103.0653
v  -63.5465 -110.5505 108.1553
v  -62.6105 -91.2541 125.2456
v  -81.4415 -78.7039 119.7832
v  -81.4862 -88.7212 94.6197
v  -28.5505 -57.6981 120.2848
v  -31.5817 -66.6526 118.4759
v  -16.5707 -74.3267 120.4797
v  -101.4452 -27.0608 96.7689
v  -106.9361 -33.6911 100.3966
v  -98.4819 -22.3053 103.0079
v  -100.5995 -4.6630 101.3273
v  -101.6410 15.1229 97.5949
v  -93.4620 11.2220 98.9341
v  -107.6293 20.4969 100.8874
v  -151.2383 59.7451 -21.1398
v  -141.1799 83.6451 9.4301
v  -130.6508 96.6034 -18.8301
v  -131.3783 84.7765 -46.7981
v  -110.0036 118.7362 -14.8864
v  -101.3314 112.2675 -60.0229
v  -116.2102 110.9123 28.6906
v  -115.6577 92.7878 67.2190
v  -76.4763 121.2910 77.7580
v  -78.6205 138.1469 38.7080
v  -77.2170 142.1465 -4.9458
v  -35.6412 157.8191 -3.1830
v  -32.3610 155.2444 40.1659
v  -36.2649 148.5656 -51.6566
v  -71.4370 134.5031 -51.5726
v  -32.7876 131.3574 -91.0937
v  -62.8153 116.2155 -95.5046
v  -94.8404 93.5058 -94.1828
v  -55.7875 90.4222 -122.5773
v  -87.4717 67.2173 -120.7089
v  -126.1754 64.7363 -79.7709
v  -115.5152 39.3919 -107.6091
v  -139.1263 9.3797 -84.9959
v  -149.8117 34.2015 -55.4318
v  -151.8493 -19.6483 -57.6574
v  -160.5520 6.5956 -26.5955
v  -154.3165 -40.4687 -37.0775
v  -160.6449 -16.1199 -4.5817
v  -160.0366 -33.1532 3.9189
v  -153.7433 -51.8770 -26.4789
v  -155.5524 -44.4245 7.7280
v  -151.4277 -58.6781 -19.7562
v  -152.7991 -33.8995 37.6489
v  -149.1897 -40.7286 37.8070
v  -151.5202 -49.7949 8.1121
v  -141.5507 -48.0776 35.5867
v  -142.8783 -54.8518 10.3903
v  -135.0114 -48.9789 59.2414
v  -126.8244 -53.9426 54.5634
v  -132.8723 -53.1583 32.9631
v  -125.1574 -53.9312 76.9877
v  -116.3114 -58.2755 70.9398
v  -108.4844 -61.3025 64.0973
v  -119.1679 -58.0924 49.1611
v  -102.8970 -65.6117 57.3727
v  -113.0118 -64.4594 44.2294
v  -90.8939 -70.2995 69.4590
v  -108.5889 -72.7465 60.3845
v  -83.4217 -79.6300 84.0579
v  -120.4956 -70.7120 47.3819
v  -116.2899 -78.1284 65.6367
v  -128.8951 -75.7512 50.5601
v  -120.6772 -87.4179 66.8882
v  -131.8937 -87.5880 50.7925
v  -106.1147 -103.9241 73.1992
v  -92.6292 -107.2572 83.8090
v  -100.7680 -113.7932 66.4411
v  -85.5657 -117.5488 79.9182
v  -81.4645 -106.2097 93.7435
v  -70.7521 -117.8464 94.3441
v  -51.7360 -118.2294 107.1179
v  -61.1995 -125.6926 90.9204
v  -77.0261 -127.3118 73.0632
v  -67.5373 -133.9955 64.8018
v  -50.0023 -132.0073 85.6736
v  -95.7961 -122.1370 56.4562
v  -87.7249 -129.0813 45.1735
v  -77.0754 -131.6588 35.3462
v  -57.1138 -136.8585 56.6791
v  -104.7131 -120.5023 31.2224
v  -94.8353 -123.0011 19.7663
v  -85.7239 -121.9779 11.5567
v  -67.5295 -130.9923 28.6627
v  -108.2648 -114.4253 10.1572
v  -116.9212 -111.9896 22.9065
v  -99.7703 -112.5546 0.7308
v  -92.0404 -110.2149 -7.3968
v  -77.0749 -121.0268 4.4357
v  -110.1290 -103.6584 -4.3232
v  -117.9558 -106.0614 4.9925
v  -103.5511 -100.0444 -12.2399
v  -102.2815 -100.4625 -21.8439
v  -88.1255 -112.9836 -15.9397
v  -111.8917 -89.9920 -12.6205
v  -117.1004 -94.4075 -5.0511
v  -114.2078 -89.6892 -21.3705
v  -119.0781 -93.2813 -28.1520
v  -106.0871 -107.5562 -27.8163
v  -117.9588 -80.0654 -9.0083
v  -123.4481 -78.5857 -16.1821
v  -130.3788 -79.1162 -21.7973
v  -124.1760 -95.5841 -35.2860
v  -136.8867 -78.8189 -28.0682
v  -129.6655 -67.9383 -4.6697
v  -138.3965 -66.0385 -8.3455
v  -146.1665 -63.5887 -13.3767
v  -140.9397 -76.1903 -35.9888
v  -126.5098 -95.4166 -44.0138
v  -141.9720 -71.7155 -44.2348
v  -125.9807 -93.2689 -52.9955
v  -110.1760 -115.0348 -43.6327
v  -107.2270 -114.6456 -52.8414
v  -110.2089 -113.0540 -34.6047
v  -94.8955 -130.0806 -26.5825
v  -91.4314 -133.6230 -35.3484
v  -91.8173 -122.0489 -20.6065
v  -77.1062 -136.4954 -5.3632
v  -76.9936 -145.4328 -10.7814
v  -73.5599 -126.2640 -2.2838
v  -55.6301 -138.3264 17.6031
v  -57.3579 -149.0021 15.7029
v  -58.6242 -130.9807 22.4611
v  -39.4851 -136.1082 44.8238
v  -36.1249 -145.1017 42.0447
v  -47.9762 -136.2848 50.3529
v  -30.2404 -132.7493 72.0796
v  -21.8432 -134.4937 67.0146
v  -39.0547 -134.2109 78.9708
v  -25.7246 -123.6905 98.5189
v  -16.2644 -119.2755 90.0016
v  -38.6708 -123.4538 104.0974
v  -34.1247 -113.5807 117.1822
v  -20.3616 -112.1729 111.8364
v  -48.1762 -108.7910 119.1445
v  -31.5558 -104.0097 126.7133
v  -46.1945 -99.9295 127.5753
v  -57.8023 -82.8253 130.1029
v  -77.0492 -69.8828 123.3757
v  -54.0477 -72.5605 127.2949
v  -73.2144 -62.0763 117.8912
v  -98.4175 -54.1225 113.4495
v  -92.3560 -49.1171 107.5515
v  -101.4758 -62.8855 112.5122
v  -100.4832 -68.7115 105.0323
v  -88.7892 -44.9648 101.4881
v  -70.1997 -55.6276 110.0638
v  -67.8438 -48.1356 104.5764
v  -85.6316 -36.0104 104.7180
v  -50.6609 -65.0719 119.5594
v  -47.4523 -58.0199 111.9383
v  -50.2770 -52.0320 118.5277
v  -71.3253 -43.7961 115.0172
v  -88.9189 -33.1548 112.8251
v  -76.2695 -40.8234 125.8559
v  -54.5676 -50.4297 127.7420
v  -58.7445 -47.9778 138.7550
v  -30.5342 -56.1889 128.7534
v  -33.0213 -55.2294 138.9829
v  -34.3981 -53.4858 148.5877
v  -58.7110 -39.9886 148.8460
v  -7.2995 -56.4673 139.5741
v  -6.3103 -57.5742 128.1210
v  -8.2933 -55.4964 149.9425
v  -9.3248 -52.0188 158.1553
v  -33.7348 -47.6611 152.7781
v  18.7760 -52.5760 148.9039
v  17.8240 -53.6402 139.1694
v  19.1834 -48.9663 156.4583
v  14.3984 -41.4014 151.3473
v  -8.1817 -47.1869 150.0068
v  -30.9361 -43.4999 145.1624
v  -6.8683 -46.6407 139.6475
v  -28.0430 -41.7460 136.2173
v  12.9676 -42.7704 141.5783
v  11.1647 -42.3124 128.1625
v  -6.5643 -46.0385 127.6653
v  28.7190 -29.6335 143.6144
v  26.4294 -30.9000 130.0460
v  24.0206 -29.7564 115.2826
v  8.7944 -39.5413 113.0922
v  36.3286 -14.8319 133.6487
v  37.3504 -13.3449 147.5624
v  35.9488 -15.2174 119.5758
v  34.6993 -14.8639 105.6187
v  21.9149 -28.7569 100.8473
v  40.6282 1.5625 125.0662
v  38.9868 1.8845 137.6979
v  41.2506 1.6255 111.7911
v  38.5907 2.4863 99.1401
v  31.0898 -13.2817 93.3668
v  41.1061 15.5817 115.8383
v  38.8129 15.9063 128.2224
v  39.9254 16.6355 103.9375
v  32.3902 19.1792 94.0507
v  29.7565 5.3762 89.8632
v  38.4521 28.1629 107.9388
v  38.0467 27.3674 118.1270
v  34.7880 27.9601 128.1802
v  36.9488 41.0999 129.2011
v  53.7399 43.4696 130.1935
v  54.4345 41.8529 142.3923
v  72.9040 37.3613 127.5183
v  75.7454 34.2586 137.3742
v  105.7555 20.5622 121.0395
v  101.6259 23.7020 111.7425
v  96.6456 24.0632 102.2052
v  123.3985 4.8547 93.4515
v  95.2091 25.9636 95.6949
v  99.4776 31.8988 96.8265
v  131.4073 10.6585 80.0568
v  111.5470 42.9169 104.0387
v  118.6895 50.6792 104.7617
v  148.5323 18.0818 77.5179
v  75.1198 71.7893 125.2650
v  30.0548 83.7712 134.5496
v  77.6127 81.8437 119.3849
v  121.0163 59.1426 98.0964
v  30.5955 95.6898 130.3445
v  -19.6843 86.1310 137.1084
v  -21.3180 95.6524 132.7278
v  78.8242 91.0317 111.1399
v  29.9449 106.3480 121.7485
v  -22.7673 104.4062 125.2846
v  -70.1850 87.3325 120.8851
v  -67.8748 79.4968 127.5985
v  -24.3670 115.4381 112.8325
v  28.4402 119.1623 107.5870
v  -72.6171 98.3584 109.5413
v  -111.8825 70.5988 97.2438
v  -108.8736 60.8291 107.1089
v  -28.0463 138.7183 78.5816
v  23.9215 143.3275 73.1511
v  16.2003 160.1730 34.0374
v  64.8467 149.6332 18.5874
v  75.3663 132.9197 58.9174
v  119.5589 108.6739 34.6699
v  105.5568 126.6227 -6.0385
v  149.3645 73.6492 2.8245
v  131.3536 94.9017 -35.2223
v  104.5908 108.9774 -69.7951
v  141.1224 55.4489 -67.1236
v  111.1916 75.0292 -98.3794
v  62.7700 115.0036 -99.6696
v  14.8726 116.8375 -114.8762
v  -23.5979 109.1511 -118.7169
v  -41.2350 60.4147 -144.8731
v  -16.8214 28.3205 -160.3600
v  -71.2027 36.3811 -142.8403
v  -45.6602 3.3660 -157.4120
v  -98.4426 8.8350 -130.4241
v  -74.1083 -24.6719 -144.5663
v  -121.1649 -19.9666 -107.6893
v  -97.6495 -51.8205 -121.1267
v  -136.2047 -47.0257 -78.8385
v  -115.1742 -75.2827 -89.9864
v  -141.1763 -64.0945 -55.9236
v  -123.1811 -88.3939 -65.1498
v  -90.0420 -102.7239 -92.1448
v  -102.0937 -112.2735 -65.5418
v  -62.0042 -126.9231 -85.9073
v  -78.1239 -134.1326 -58.4521
v  -86.1350 -134.7989 -44.6064
v  -64.2050 -151.8163 -28.0250
v  -51.9589 -152.4901 -44.7568
v  -71.1255 -149.6304 -19.0006
v  -46.9018 -160.5587 3.1187
v  -38.3617 -162.9691 -5.6875
v  -53.7781 -156.8085 10.4975
v  -27.1887 -161.0813 36.2474
v  -19.3367 -163.9047 30.1462
v  -33.6452 -155.0535 40.9917
v  -11.0579 -152.3811 67.4400
v  -0.7271 -156.5102 63.7467
v  -17.2110 -143.8130 68.0313
v  -0.7506 -133.6283 93.1820
v  9.4393 -139.8773 92.2268
v  -7.0656 -123.2077 87.9365
v  1.5972 -110.3603 105.9655
v  11.3227 -118.9752 113.3482
v  -9.4708 -105.5470 102.8219
v  -6.2859 -95.7508 112.0663
v  6.1266 -100.0431 118.3535
v  -17.9613 -102.0982 121.2352
v  27.3042 -120.7602 108.9571
v  43.6632 -113.1421 98.0852
v  24.6543 -140.2238 87.0360
v  41.8910 -134.3842 77.3571
v  60.5398 -103.0856 84.1827
v  12.8720 -157.3729 57.2121
v  29.1883 -155.2087 48.5013
v  56.5906 -129.9524 68.3202
v  -4.4741 -165.8642 21.1709
v  14.2365 -164.1237 7.3651
v  49.0735 -151.7117 37.4361
v  -22.7721 -163.9710 -22.0982
v  -1.5023 -158.5292 -47.1177
v  35.0117 -159.3787 -10.8249
v  -33.2025 -146.7417 -72.0223
v  20.3589 -145.9085 -72.2520
v  -14.0574 -132.4230 -99.6137
v  -41.6392 -109.8075 -115.3322
v  11.5118 -110.3910 -123.6823
v  -16.8555 -86.2347 -139.9165
v  -70.3270 -82.4353 -123.1339
v  -45.3388 -57.1738 -147.4954
v  -14.9514 -29.4961 -160.8127
v  14.8388 -58.3253 -155.0750
v  39.4473 -80.5600 -140.5481
v  50.2732 -29.5505 -156.6788
v  79.8706 -54.3257 -136.9449
v  16.5890 -2.9666 -163.9121
v  80.4711 1.1019 -143.6613
v  111.1697 -23.3602 -120.3009
v  102.6608 37.3443 -123.3492
v  133.8220 13.7713 -96.6835
v  131.9022 -50.2731 -88.4795
v  154.5765 -12.0563 -62.4638
v  140.1069 -75.1094 -52.3133
v  161.1879 -38.9785 -22.5890
v  135.8764 -94.2406 -14.4045
v  106.4094 -123.9692 -41.8938
v  93.6104 -136.5150 -3.0802
v  121.7458 -111.8889 16.4069
v  56.5095 -149.5776 -35.3549
v  71.2530 -146.4761 19.0981
v  101.0019 -125.1895 41.9774
v  77.5733 -129.5137 60.3359
v  99.9744 -110.5537 74.6349
v  122.1617 -103.4052 56.2800
v  77.5733 -109.5687 84.3279
v  94.0173 -95.7992 96.2723
v  114.5003 -94.5419 81.3475
v  104.4262 -80.0101 99.4836
v  121.9281 -79.6188 82.6289
v  108.4669 -66.3330 93.6287
v  130.8922 -72.5481 62.2117
v  131.9926 -85.9571 61.8800
v  168.3948 4.3210 7.0908
v  161.1823 31.0471 -30.7161
v  155.5751 48.5639 39.4965
v  154.1888 32.3128 60.5975
v  123.7315 83.6339 71.0724
v  122.3505 67.5474 89.5360
v  152.3346 24.8855 70.0045
v  79.1840 106.8189 94.4801
v  -126.9422 27.4414 99.1825
v  -105.7053 53.6427 114.0534
v  -115.8394 22.4784 102.5472
v  -95.5790 45.5505 118.7813
v  -64.7454 71.5872 132.6027
v  -59.7761 64.1954 129.0732
v  -88.0184 41.7076 115.3461
v  -18.3639 76.7833 132.8934
v  -54.4464 60.1116 121.7438
v  -17.0498 67.7143 118.4304
v  -21.1021 61.5132 109.3644
v  -51.8007 55.4130 113.5178
v  -1.6283 50.7338 101.1113
v  -7.0552 42.2267 97.2197
v  -12.0157 31.3198 93.7541
v  5.8345 25.8531 89.7870
v  -16.5445 19.0073 91.2230
v  0.9129 13.2758 85.7985
v  16.4029 8.6503 85.8237
v  19.9807 22.0612 89.8312
v  7.0603 -2.6949 82.5262
v  -7.2796 1.6043 84.2192
v  20.1546 -7.1387 84.9885
v  -15.0250 -10.0157 85.0878
v  -21.7426 -20.8504 86.4417
v  -27.2112 -6.6293 91.3681
v  -32.6254 -17.8287 93.6229
v  -22.0915 5.5607 89.8762
v  -38.9388 -0.7935 100.1081
v  -35.0951 11.0763 99.3934
v  -31.6638 23.4302 99.8984
v  -45.1625 15.6703 110.5942
v  -42.1627 25.3725 111.7394
v  -49.1818 5.1701 111.4503
v  -51.2921 -6.0150 113.2545
v  -56.2602 -3.8559 125.3381
v  -42.3720 -11.5451 102.5560
v  -49.2707 -18.2775 117.5168
v  -53.6384 -16.7714 127.9824
v  -44.5263 -29.9871 132.2751
v  -40.1868 -30.5197 122.9149
v  -25.0811 -40.6836 126.3901
v  -7.3979 -42.7150 113.8080
v  -8.3622 -39.9210 99.9309
v  6.3910 -36.9258 99.0548
v  -48.7755 -30.7717 141.7367
v  -58.0869 -15.6133 138.8723
v  -51.9232 -33.1199 147.8649
v  -59.1666 -2.2846 136.8922
v  -78.4689 33.7567 105.2822
v  -84.6723 38.1752 110.8421
v  -91.8719 12.3621 108.1486
v  -92.3217 13.9465 118.1328
v  -100.7570 -2.8415 108.9772
v  -91.1194 12.7666 128.5122
v  -100.3623 -19.2227 110.4905
v  -133.3441 4.4059 83.4403
v  129.0458 0.5951 100.1652
v  132.8643 -20.4998 82.3329
v  121.9955 -39.8211 85.5867
v  110.7357 -40.8559 93.1445
v  102.9651 -40.8285 89.3058
v  90.8151 -40.7980 98.3367
v  99.9085 -40.7012 103.3220
v  83.6371 -41.8976 115.5675
v  75.9912 -42.0701 107.0144
v  108.2982 -40.0155 109.8389
v  90.6199 -40.5142 125.2990
v  63.1216 -45.0373 126.3486
v  95.4237 -32.9333 132.3411
v  115.1613 -35.0957 114.9091
v  38.2748 -49.7762 121.8687
v  57.8544 -45.1337 113.3824
v  42.1693 -49.1069 134.2474
v  16.9542 -54.3757 127.7561
v  125.5725 -4.7468 112.8618
v  107.0021 13.4742 128.6785
v  75.1492 15.8976 150.3964
v  76.0300 27.0261 145.7464
v  59.3867 3.7921 157.6865
v  74.1487 -0.0791 152.4924
v  57.6842 21.6466 155.1595
v  55.8736 34.3604 150.3826
v  47.4538 4.2381 158.6697
v  39.4995 3.2183 150.1978
v  -133.2316 -58.6729 11.5878
v  -124.0163 -62.5876 12.9270
v  -121.7748 -70.5295 -0.5013
v  -124.2301 -58.0217 30.4271
v  -118.9137 -65.9569 29.4510
v  -126.5458 -72.3715 31.1007
v  -133.6376 -79.4229 31.4545
v  -134.1989 -90.5241 33.0860
v  -130.9285 -94.9757 16.3543
v  -125.6314 -103.8371 18.3368
v  -124.1759 -96.9641 3.5719
# 672 vertices

vn -0.0164 0.5396 0.8417
vn 0.5368 0.1140 0.8360
vn 0.3561 -0.0653 0.9321
vn 0.0759 -0.1920 0.9784
vn 0.2118 -0.0173 0.9772
vn 0.3488 -0.0954 0.9323
vn 0.6789 -0.3664 0.6363
vn 0.1675 -0.2201 0.9610
vn -0.0079 -0.5128 0.8585
vn 0.5496 -0.4436 0.7079
vn 0.0089 0.2423 0.9702
vn 0.3077 -0.8402 0.4465
vn 0.4044 -0.4282 0.8081
vn 0.1642 -0.3295 0.9298
vn 0.2794 -0.8540 0.4389
vn -0.4994 0.0755 0.8631
vn -0.5224 0.3772 0.7647
vn 0.1737 -0.1235 0.9770
vn 0.4347 -0.1996 0.8782
vn -0.5553 -0.0161 0.8315
vn -0.4477 0.1154 0.8867
vn -0.1851 0.4779 0.8587
vn -0.2883 0.5531 0.7816
vn -0.4598 0.4515 0.7647
vn -0.7076 0.1613 0.6880
vn -0.2884 0.6309 0.7203
vn 0.8551 0.1716 0.4892
vn 0.6769 -0.3251 0.6603
vn 0.9115 -0.3469 0.2210
vn 0.7976 0.3283 0.5061
vn 0.5088 -0.2510 0.8235
vn 0.9125 0.3932 0.1124
vn 0.6091 -0.2296 0.7591
vn 0.7895 0.4767 0.3867
vn 0.1825 -0.4755 0.8606
vn 0.1468 -0.4537 0.8790
vn 0.3502 -0.1287 0.9278
vn -0.0047 0.8763 0.4817
vn 0.7384 0.2433 0.6290
vn 0.5493 -0.2246 0.8049
vn 0.5605 0.6727 0.4830
vn -0.2673 0.9428 0.1990
vn -0.4577 0.6708 0.5836
vn -0.5222 0.8489 0.0816
vn 0.0906 0.0984 0.9910
vn 0.1844 -0.3989 0.8983
vn 0.6601 -0.0937 -0.7453
vn 0.6794 0.6547 -0.3314
vn 0.4465 -0.8918 -0.0729
vn 0.6489 -0.2590 0.7155
vn 0.6206 0.5457 0.5630
vn 0.5211 0.0889 0.8488
vn 0.3153 0.6501 0.6913
vn 0.4652 0.6347 0.6171
vn 0.6542 0.0619 0.7538
vn 0.4021 0.3807 0.8327
vn 0.1980 0.4620 0.8645
vn 0.3829 0.0176 0.9236
vn 0.1520 -0.1530 0.9765
vn -0.0289 -0.6013 0.7985
vn -0.4794 0.2326 0.8462
vn -0.4849 -0.1582 0.8602
vn -0.3370 0.2731 0.9010
vn 0.0544 -0.0868 0.9947
vn -0.0140 -0.3326 0.9430
vn -0.1402 -0.1511 0.9785
vn 0.1989 -0.2273 0.9533
vn 0.2143 0.1949 0.9571
vn 0.0244 0.3779 0.9255
vn 0.1798 0.6502 0.7382
vn 0.3855 0.3678 0.8463
vn 0.5283 -0.1025 0.8429
vn 0.2418 -0.4359 0.8669
vn 0.6096 0.0668 0.7899
vn 0.3809 -0.4453 0.8103
vn -0.2779 0.8293 0.4848
vn 0.3004 0.4820 0.8231
vn -0.5813 0.7934 0.1808
vn -0.5416 0.5979 0.5909
vn -0.2054 0.2712 0.9404
vn 0.8858 -0.2886 0.3634
vn 0.9004 -0.3899 0.1931
vn 0.8335 -0.1580 0.5295
vn 0.4596 -0.1043 0.8820
vn 0.9272 -0.1975 0.3181
vn 0.8885 -0.3797 0.2576
vn 0.9228 -0.2618 0.2828
vn -0.6037 -0.0068 0.7972
vn -0.3549 -0.0949 0.9301
vn -0.3513 0.1149 0.9292
vn -0.5992 0.3370 0.7262
vn -0.6934 -0.3448 0.6327
vn -0.5974 -0.5476 0.5860
vn 0.2286 -0.0016 0.9735
vn 0.2901 0.2169 0.9321
vn 0.5460 -0.2175 0.8091
vn 0.6310 -0.2652 0.7290
vn 0.6466 -0.1214 0.7532
vn 0.5753 -0.0935 0.8125
vn 0.7054 -0.0343 0.7080
vn 0.7105 -0.2425 0.6606
vn 0.6287 0.0867 0.7728
vn -0.2156 0.1224 0.9688
vn -0.1828 0.5298 0.8282
vn -0.8814 0.1197 0.4569
vn -0.8632 -0.2352 0.4467
vn -0.4331 0.8512 0.2965
vn -0.9951 0.0464 -0.0876
vn -0.9583 -0.2641 -0.1088
vn 0.3354 0.9310 0.1441
vn 0.3450 0.9024 0.2582
vn 0.5892 0.7637 0.2638
vn 0.6161 0.7616 0.2011
vn 0.4931 0.5907 0.6387
vn 0.7163 0.4696 0.5162
vn 0.7805 0.4626 0.4204
vn -0.2343 0.1277 0.9637
vn -0.0304 0.2861 0.9577
vn -0.2448 0.7580 0.6046
vn -0.5504 0.5655 0.6143
vn 0.1243 -0.0900 0.9881
vn 0.2673 0.1679 0.9489
vn 0.1563 0.7494 0.6434
vn -0.3489 -0.6091 0.7122
vn -0.3882 0.2410 0.8895
vn -0.1745 -0.6655 0.7257
vn -0.1481 -0.7422 0.6536
vn 0.0626 -0.5130 0.8561
vn -0.0167 -0.6109 0.7915
vn 0.0820 -0.3884 0.9179
vn 0.4163 0.4243 0.8042
vn -0.8458 -0.1207 0.5197
vn -0.9494 -0.2391 0.2035
vn -0.7340 -0.6268 0.2615
vn -0.8343 0.2208 0.5052
vn -0.9556 0.2798 0.0929
vn -0.7991 -0.5918 0.1058
vn -0.6956 -0.7061 0.1328
vn -0.7224 -0.6462 0.2460
vn -0.7777 -0.5661 0.2734
vn -0.6179 -0.7638 0.1864
vn -0.6716 -0.6649 0.3267
vn -0.7189 -0.4867 0.4963
vn -0.9896 0.1418 0.0264
vn -0.9604 0.1795 -0.2133
vn -0.7583 0.5166 -0.3977
vn -0.7424 0.6154 -0.2647
vn -0.9219 0.2511 -0.2950
vn -0.8433 0.1516 -0.5156
vn -0.8571 -0.0218 -0.5147
vn -0.5223 -0.8371 -0.1626
vn -0.4481 -0.8769 -0.1738
vn -0.6596 -0.7340 -0.1618
vn -0.7563 -0.6345 -0.1593
vn -0.4814 -0.8763 -0.0163
vn -0.3779 -0.9225 -0.0788
vn -0.5191 -0.8545 0.0197
vn 0.7738 0.4359 0.4595
vn 0.5275 -0.6972 0.4855
vn 0.7763 -0.5398 0.3256
vn 0.9022 -0.0801 0.4238
vn 0.9821 -0.0129 -0.1880
vn 0.6368 -0.7388 -0.2208
vn 0.1893 -0.9698 0.1540
vn 0.2132 -0.7892 -0.5759
vn 0.3534 -0.6261 -0.6951
vn 0.4363 -0.7167 -0.5441
vn 0.3668 -0.8445 -0.3901
vn 0.5986 -0.4522 -0.6612
vn 0.6516 -0.6065 -0.4556
vn 0.7753 0.0106 0.6315
vn 0.8754 -0.4119 0.2531
vn 0.7985 -0.3550 0.4862
vn 0.5227 -0.3708 0.7676
vn 0.9700 -0.1471 0.1936
vn 0.8285 -0.2536 0.4992
vn 0.9163 -0.3989 0.0349
vn -0.1582 -0.5478 0.8215
vn -0.3122 -0.4689 0.8262
vn -0.5718 -0.4072 0.7122
vn -0.2668 -0.3768 0.8870
vn -0.6373 -0.3296 0.6966
vn -0.0608 -0.4072 0.9113
vn -0.8619 0.5057 -0.0362
vn 0.0506 0.9976 0.0478
vn -0.9480 0.0516 0.3140
vn 0.3929 0.9150 0.0914
vn -0.8768 0.2331 0.4205
vn -0.9623 -0.0137 0.2717
vn -0.8765 -0.0775 0.4751
vn -0.8265 0.1209 0.5498
vn -0.9073 -0.0470 0.4179
vn -0.9609 -0.0711 0.2676
vn -0.8824 0.3688 0.2922
vn -0.9817 0.1711 0.0839
vn -0.4726 0.0607 0.8792
vn -0.3385 -0.1388 0.9307
vn -0.5090 0.1710 0.8436
vn -0.2331 0.1896 0.9538
vn -0.5958 0.1940 0.7794
vn -0.6467 0.0984 0.7563
vn -0.4486 -0.2404 0.8608
vn -0.9197 -0.0855 0.3832
vn -0.8391 -0.0390 0.5425
vn -0.8033 0.0291 0.5949
vn -0.8530 -0.4310 0.2943
vn -0.8092 -0.4686 0.3544
vn -0.7035 -0.1895 0.6850
vn -0.7133 -0.6065 0.3512
vn -0.3477 0.2828 0.8939
vn 0.0117 0.8450 -0.5347
vn -0.0467 0.9497 -0.3095
vn 0.1895 0.9336 -0.3040
vn 0.2992 0.8311 -0.4688
vn 0.0191 0.9976 -0.0659
vn 0.3008 0.9479 -0.1050
vn 0.4977 0.8305 -0.2501
vn 0.4143 0.5253 -0.7433
vn 0.3931 0.3358 -0.8560
vn 0.1904 0.4167 -0.8889
vn 0.1515 0.5535 -0.8189
vn 0.2682 0.1715 -0.9480
vn 0.0461 0.3246 -0.9447
vn -0.0781 0.4898 -0.8683
vn -0.5284 -0.5546 0.6428
vn -0.7378 -0.5835 0.3394
vn -0.7749 -0.4117 0.4795
vn -0.5091 -0.6028 0.6144
vn -0.4516 -0.4250 0.7845
vn -0.5437 -0.3972 0.7393
vn -0.9599 -0.1992 0.1972
vn -0.2333 -0.6905 0.6847
vn -0.0579 0.3576 0.9321
vn 0.2629 0.2287 0.9373
vn -0.2955 0.0398 0.9545
vn 0.0725 0.4409 0.8946
vn -0.8593 -0.3962 0.3234
vn -0.9039 0.1201 0.4106
vn -0.1155 -0.2585 0.9591
vn -0.6136 0.3109 0.7259
vn 0.0425 -0.5303 0.8468
vn -0.9274 0.3461 -0.1419
vn -0.8548 0.5131 0.0783
vn -0.7747 0.6181 -0.1334
vn -0.7911 0.5240 -0.3157
vn -0.6438 0.7588 -0.0989
vn -0.6117 0.7058 -0.3572
vn -0.6962 0.6938 0.1843
vn -0.7020 0.5883 0.4013
vn -0.4602 0.7554 0.4666
vn -0.4776 0.8481 0.2294
vn -0.4651 0.8836 -0.0545
vn -0.2377 0.9705 -0.0415
vn -0.2048 0.9467 0.2487
vn -0.2574 0.9212 -0.2917
vn -0.4342 0.8491 -0.3008
vn -0.2219 0.8168 -0.5326
vn -0.3951 0.7228 -0.5669
vn -0.5897 0.5735 -0.5687
vn -0.3347 0.5495 -0.7655
vn -0.5353 0.4116 -0.7376
vn -0.7725 0.3987 -0.4943
vn -0.7154 0.2388 -0.6567
vn -0.8440 0.0697 -0.5318
vn -0.9134 0.2128 -0.3470
vn -0.9299 -0.0880 -0.3572
vn -0.9879 0.0414 -0.1498
vn -0.9560 -0.1877 -0.2255
vn -0.9988 -0.0480 0.0028
vn -0.9850 -0.1577 0.0700
vn -0.9471 -0.2943 -0.1282
vn -0.8810 -0.4456 0.1587
vn -0.8766 -0.4789 0.0484
vn -0.9252 -0.2559 0.2803
vn -0.7809 -0.5687 0.2583
vn -0.6936 -0.6753 0.2508
vn -0.5592 -0.8052 0.1972
vn -0.4713 -0.8253 0.3110
vn -0.6164 -0.7755 0.1366
vn -0.4486 -0.8909 0.0713
vn -0.4441 -0.8785 0.1761
vn -0.5745 -0.8120 0.1028
vn -0.4034 -0.9150 -0.0101
vn -0.4217 -0.9040 0.0703
vn -0.4943 -0.8549 0.1578
vn -0.7663 -0.2285 0.6005
vn -0.8793 -0.0180 0.4759
vn -0.8014 -0.2515 0.5427
vn -0.3523 0.7432 0.5688
vn -0.9497 -0.1822 0.2548
vn -0.4665 0.8328 0.2982
vn -0.4294 0.6322 0.6449
vn -0.7219 0.5969 0.3501
vn -0.7071 0.0287 0.7066
vn -0.9226 -0.1308 0.3628
vn -0.6320 -0.4858 0.6038
vn -0.6011 -0.3608 0.7131
vn -0.5911 -0.6985 0.4032
vn -0.5447 -0.6735 0.4997
vn -0.6940 -0.3071 0.6512
vn -0.5118 -0.6471 0.5651
vn -0.2823 -0.7532 0.5941
vn -0.3439 -0.8097 0.4756
vn -0.4372 -0.8262 0.3552
vn -0.2786 -0.9416 0.1890
vn -0.1392 -0.9208 0.3643
vn -0.5324 -0.8064 0.2574
vn -0.3927 -0.9182 0.0511
vn -0.2033 -0.9653 -0.1637
vn -0.0844 -0.9964 0.0103
vn -0.4952 -0.8684 -0.0262
vn -0.3116 -0.9130 -0.2632
vn -0.2163 -0.9011 -0.3758
vn -0.1312 -0.9616 -0.2412
vn -0.4240 -0.8385 -0.3423
vn -0.6025 -0.7946 -0.0753
vn -0.3157 -0.8082 -0.4972
vn -0.4975 -0.8252 -0.2673
vn -0.4870 -0.8677 -0.0994
vn -0.4720 -0.6316 -0.6151
vn -0.5876 -0.6762 -0.4443
vn -0.6223 -0.6984 -0.3534
vn -0.6681 -0.5984 0.4422
vn -0.7382 -0.4988 0.4542
vn -0.7969 -0.5554 -0.2377
vn -0.6911 -0.3078 -0.6539
vn -0.5894 -0.6613 0.4641
vn -0.5156 -0.5713 0.6385
vn -0.5737 -0.3695 0.7309
vn -0.8506 -0.5258 -0.0059
vn -0.5085 -0.7197 0.4728
vn -0.4622 -0.7086 0.5332
vn -0.6899 -0.6212 0.3717
vn -0.6629 -0.6754 0.3230
vn -0.4289 -0.7855 0.4462
vn -0.4409 -0.7891 0.4278
vn -0.6669 -0.6907 0.2797
vn -0.8296 -0.5583 -0.0064
vn -0.7859 -0.6181 -0.0205
vn -0.8697 -0.4303 -0.2419
vn -0.7727 -0.5595 -0.2999
vn -0.7326 -0.6764 -0.0756
vn -0.6529 -0.6862 -0.3207
vn -0.7378 -0.5428 0.4012
vn -0.7700 -0.5382 0.3426
vn -0.6243 -0.7730 -0.1129
vn -0.6938 -0.1650 0.7010
vn -0.7626 -0.1543 0.6282
vn -0.7060 -0.6477 0.2867
vn -0.7858 -0.3454 0.5131
vn -0.7797 -0.2624 0.5686
vn -0.7474 -0.3332 0.5748
vn -0.4995 -0.8589 0.1131
vn -0.4493 -0.8358 0.3157
vn -0.7518 -0.3187 0.5773
vn 0.0104 -0.9985 -0.0531
vn 0.1681 -0.9570 0.2364
vn -0.4637 -0.6795 0.5685
vn 0.1338 -0.9672 0.2158
vn 0.4050 -0.8319 0.3795
vn 0.2480 -0.8152 0.5234
vn 0.0053 -0.8511 0.5250
vn 0.0777 -0.7576 0.6481
vn 0.5148 -0.6953 0.5014
vn -0.2761 -0.6679 0.6911
vn 0.1492 -0.5731 0.8058
vn -0.2357 -0.5089 0.8280
vn -0.2686 -0.0257 0.9629
vn -0.2497 0.2088 0.9455
vn -0.0381 0.5277 0.8486
vn 0.0414 0.6721 0.7393
vn -0.1860 0.3892 0.9022
vn 0.1802 0.6923 0.6988
vn -0.6053 -0.3123 0.7321
vn -0.6530 -0.7345 0.1846
vn 0.0081 0.3787 0.9255
vn 0.0501 0.6882 0.7238
vn -0.3888 -0.2198 0.8947
vn -0.5849 -0.5976 0.5483
vn 0.0589 0.7192 0.6923
vn -0.2536 0.0089 0.9673
vn -0.3556 -0.8977 0.2603
vn -0.4675 -0.8776 0.1060
vn -0.6618 -0.7488 0.0347
vn -0.5287 -0.8309 0.1734
vn -0.3226 -0.9451 0.0531
vn -0.4240 -0.8460 0.3234
vn -0.1492 -0.9843 0.0942
vn -0.1632 -0.9811 0.1038
vn -0.2478 -0.8348 0.4917
vn -0.3339 -0.3210 0.8863
vn 0.0305 -0.9949 0.0964
vn -0.0011 -0.9401 0.3408
vn 0.0219 -0.9669 0.2544
vn -0.0763 -0.1395 0.9873
vn -0.0702 0.1366 0.9881
vn 0.1693 -0.9497 0.2634
vn 0.1583 -0.9844 0.0764
vn 0.0392 -0.3908 0.9196
vn -0.3883 0.7875 0.4786
vn -0.0748 0.9542 0.2895
vn 0.2964 0.8652 0.4045
vn -0.0060 0.9975 0.0710
vn 0.3538 0.9026 0.2453
vn -0.4286 0.9034 0.0133
vn -0.4026 0.9038 0.1452
vn 0.0283 0.9904 0.1352
vn -0.7602 0.6411 0.1050
vn -0.7310 0.6741 0.1056
vn -0.6774 0.7182 0.1591
vn -0.3635 0.9057 0.2181
vn -0.9337 0.3577 0.0159
vn -0.9264 0.2832 0.2480
vn -0.8938 0.4449 0.0571
vn -0.8584 0.4734 0.1975
vn -0.6385 0.7355 0.2267
vn -0.9917 0.0933 -0.0879
vn -0.9989 0.0057 -0.0465
vn -0.9847 0.1526 0.0836
vn -0.8849 0.0942 0.4562
vn -0.7505 0.3341 0.5702
vn -0.9917 -0.1199 -0.0461
vn -0.9599 -0.1978 -0.1985
vn -0.9319 -0.1297 0.3388
vn -0.6063 -0.2101 0.7670
vn -0.5455 -0.0597 0.8360
vn -0.9467 -0.2252 0.2301
vn -0.9757 -0.1602 -0.1497
vn -0.9603 -0.1031 -0.2594
vn -0.6672 0.7300 -0.1482
vn 0.1264 0.9907 -0.0498
vn 0.2249 0.8901 0.3964
vn 0.3646 0.9308 0.0265
vn 0.4663 0.7977 0.3823
vn 0.6415 0.7254 0.2494
vn 0.5068 0.8587 -0.0757
vn 0.5214 0.8515 -0.0555
vn 0.6729 0.6818 -0.2870
vn 0.6385 0.2701 0.7207
vn 0.1636 -0.4942 0.8538
vn 0.1822 -0.4542 0.8721
vn 0.1981 -0.4504 0.8706
vn 0.5448 0.0002 0.8386
vn 0.6611 -0.1124 0.7418
vn 0.2930 -0.0260 0.9558
vn 0.1312 -0.0700 0.9889
vn 0.4446 0.4706 0.7621
vn 0.6964 0.3889 0.6031
vn 0.1922 0.4889 0.8509
vn -0.0376 0.0416 0.9984
vn -0.1139 0.5265 0.8425
vn 0.4732 0.5957 0.6490
vn 0.1857 0.6843 0.7052
vn -0.1359 0.6822 0.7184
vn -0.4335 0.5546 0.7103
vn -0.4128 0.4321 0.8018
vn -0.1449 0.7708 0.6203
vn 0.1661 0.7802 0.6031
vn -0.4476 0.6492 0.6150
vn -0.6876 0.4750 0.5492
vn -0.6655 0.3815 0.6415
vn -0.1653 0.8572 0.4878
vn 0.1393 0.8757 0.4624
vn 0.0962 0.9714 0.2171
vn 0.3881 0.9132 0.1240
vn 0.4438 0.8149 0.3729
vn 0.7041 0.6762 0.2167
vn 0.6280 0.7780 -0.0202
vn 0.8857 0.4641 0.0080
vn 0.7911 0.5763 -0.2049
vn 0.6188 0.6631 -0.4212
vn 0.8502 0.3351 -0.4061
vn 0.6592 0.4446 -0.6064
vn 0.3785 0.6929 -0.6137
vn 0.0785 0.6991 -0.7107
vn -0.1601 0.6510 -0.7420
vn -0.2442 0.3904 -0.8877
vn -0.1089 0.1909 -0.9756
vn -0.4331 0.2291 -0.8717
vn -0.2817 0.0243 -0.9592
vn -0.6128 0.0600 -0.7880
vn -0.4566 -0.1416 -0.8783
vn -0.7407 -0.1054 -0.6635
vn -0.5988 -0.3060 -0.7402
vn -0.8243 -0.2527 -0.5067
vn -0.6902 -0.4339 -0.5791
vn -0.8613 -0.3505 -0.3679
vn -0.7387 -0.5097 -0.4410
vn -0.5386 -0.6014 -0.5902
vn -0.6050 -0.6624 -0.4419
vn -0.3834 -0.7426 -0.5492
vn -0.4685 -0.7897 -0.3961
vn -0.5313 -0.7997 -0.2796
vn -0.3961 -0.9012 -0.1760
vn -0.2958 -0.9073 -0.2987
vn -0.4944 -0.8677 -0.0511
vn -0.3236 -0.9447 0.0535
vn -0.2119 -0.9762 -0.0461
vn -0.5324 -0.8005 0.2753
vn -0.3125 -0.9008 0.3014
vn -0.1173 -0.9799 0.1613
vn -0.6264 -0.5767 0.5245
vn -0.4076 -0.7330 0.5445
vn -0.0328 -0.9211 0.3879
vn -0.6940 -0.3883 0.6063
vn -0.5951 -0.4696 0.6522
vn -0.0672 -0.7785 0.6240
vn -0.5674 -0.4845 0.6658
vn -0.6258 -0.4402 0.6439
vn -0.3258 -0.5609 0.7611
vn 0.1500 -0.7317 0.6649
vn 0.0706 -0.5836 0.8089
vn -0.5316 -0.4110 0.7406
vn 0.5475 -0.5034 0.6685
vn 0.3879 -0.6606 0.6428
vn 0.6846 -0.5075 0.5232
vn 0.3594 -0.7906 0.4958
vn 0.5260 -0.6976 0.4865
vn 0.2051 -0.6263 0.7522
vn 0.1966 -0.9334 0.3003
vn 0.3050 -0.9069 0.2906
vn 0.3480 -0.7179 0.6030
vn 0.0389 -0.9957 0.0842
vn 0.1626 -0.9867 0.0048
vn 0.3335 -0.9062 0.2601
vn -0.0758 -0.9841 -0.1605
vn 0.0484 -0.9562 -0.2886
vn 0.2413 -0.9675 -0.0758
vn -0.1797 -0.8778 -0.4440
vn 0.1427 -0.8947 -0.4232
vn -0.0725 -0.7934 -0.6044
vn -0.2716 -0.6455 -0.7138
vn 0.0593 -0.6666 -0.7430
vn -0.1279 -0.5100 -0.8506
vn -0.4347 -0.4921 -0.7543
vn -0.2832 -0.3356 -0.8984
vn -0.1191 -0.1639 -0.9793
vn 0.0455 -0.3388 -0.9398
vn 0.2256 -0.4912 -0.8413
vn 0.2926 -0.1474 -0.9448
vn 0.4844 -0.3072 -0.8192
vn 0.0680 0.0096 -0.9976
vn 0.4980 0.0428 -0.8661
vn 0.6772 -0.1093 -0.7276
vn 0.6067 0.2233 -0.7629
vn 0.7988 0.0907 -0.5947
vn 0.7960 -0.2715 -0.5410
vn 0.9215 -0.0589 -0.3838
vn 0.8496 -0.4334 -0.3005
vn 0.9588 -0.2322 -0.1637
vn 0.8176 -0.5710 -0.0744
vn 0.6206 -0.7561 -0.2080
vn 0.5348 -0.8448 -0.0145
vn 0.7301 -0.6817 0.0479
vn 0.3190 -0.9272 -0.1963
vn 0.3998 -0.9092 0.1165
vn 0.5342 -0.8110 0.2386
vn 0.3326 -0.8193 0.4671
vn 0.4215 -0.7542 0.5036
vn 0.7063 -0.6509 0.2784
vn 0.0355 -0.7002 0.7130
vn 0.2857 -0.6094 0.7396
vn 0.6244 -0.5506 0.5541
vn 0.5590 -0.1699 0.8116
vn 0.8011 -0.0804 0.5932
vn 0.6405 0.3653 0.6755
vn 0.8947 0.2736 0.3531
vn 0.8965 -0.2671 0.3536
vn 0.9977 0.0668 -0.0110
vn 0.9585 0.2025 -0.2008
vn 0.9171 0.3433 0.2027
vn 0.9108 0.2581 0.3221
vn 0.7206 0.5560 0.4142
vn 0.7120 0.4740 0.5181
vn 0.8825 0.1790 0.4349
vn 0.4706 0.6896 0.5505
vn -0.6434 -0.1230 0.7556
vn -0.5760 0.1600 0.8017
vn -0.2426 -0.4207 0.8741
vn -0.2273 -0.3068 0.9242
vn -0.2474 0.0088 0.9689
vn 0.1147 -0.5943 0.7961
vn 0.1460 -0.6374 0.7566
vn 0.0565 -0.6193 0.7831
vn 0.2559 -0.7795 0.5717
vn 0.0424 -0.8333 0.5512
vn 0.1014 -0.7209 0.6856
vn 0.2552 -0.6691 0.6980
vn -0.0145 -0.5564 0.8308
vn 0.1143 -0.3942 0.9119
vn 0.2266 -0.3083 0.9239
vn 0.0100 -0.3237 0.9461
vn 0.3199 -0.2749 0.9067
vn 0.0650 -0.2735 0.9597
vn -0.2003 -0.1931 0.9605
vn -0.2297 -0.2815 0.9317
vn -0.0706 -0.1456 0.9868
vn 0.1968 -0.1763 0.9645
vn -0.4045 0.0211 0.9143
vn 0.3308 -0.1094 0.9373
vn 0.4547 0.0910 0.8860
vn 0.5083 -0.1084 0.8543
vn 0.6448 0.1024 0.7575
vn 0.4314 -0.1827 0.8835
vn 0.6487 -0.1095 0.7531
vn 0.5962 -0.1889 0.7803
vn 0.5583 -0.2383 0.7947
vn 0.7875 -0.2741 0.5520
vn 0.8097 -0.2683 0.5219
vn 0.8198 -0.1691 0.5471
vn 0.8656 0.0879 0.4929
vn 0.9541 0.0370 0.2972
vn 0.7566 0.1108 0.6444
vn 0.8242 0.4450 0.3504
vn 0.8636 0.4058 0.2992
vn 0.6296 0.7199 0.2920
vn 0.6314 0.7426 0.2232
vn 0.3654 0.9155 0.1684
vn 0.0135 0.9793 0.2022
vn 0.0027 0.9679 0.2513
vn -0.3245 0.9117 0.2521
vn 0.6058 0.6668 0.4342
vn 0.7793 0.3511 0.5190
vn 0.2554 0.4434 0.8592
vn 0.8526 -0.0239 0.5221
vn -0.0462 -0.1899 0.9807
vn 0.2321 -0.6462 0.7270
vn -0.8205 0.5715 0.0129
vn -0.7658 0.6427 0.0187
vn -0.9712 0.2309 -0.0589
vn -0.7386 0.5736 0.3541
vn -0.9391 -0.3426 -0.0261
vn -0.6509 -0.1758 0.7386
vn 0.8637 0.5023 0.0413
vn 0.8207 0.0968 -0.5631
vn 0.3529 -0.8618 -0.3642
vn 0.0324 -0.9994 -0.0135
vn 0.3029 -0.9100 0.2832
vn 0.2857 -0.8892 0.3572
vn 0.0373 -0.9991 0.0182
vn 0.1120 -0.9937 -0.0064
vn 0.2753 -0.8938 0.3539
vn 0.2053 -0.9487 0.2404
vn 0.3030 -0.9030 0.3046
vn 0.1788 -0.9838 0.0108
vn 0.4925 -0.5280 0.6918
vn 0.4959 -0.6564 0.5685
vn 0.2997 -0.8776 0.3741
vn 0.3322 -0.8518 0.4051
vn 0.2050 -0.9768 0.0618
vn 0.1984 -0.9252 0.3234
vn 0.8156 0.2104 0.5390
vn 0.6915 0.4061 0.5974
vn 0.4421 0.2083 0.8724
vn 0.4743 0.5026 0.7228
vn 0.2154 0.0672 0.9742
vn 0.4404 -0.0076 0.8978
vn 0.2341 0.2660 0.9351
vn 0.2658 0.5692 0.7780
vn -0.3169 0.0497 0.9472
vn -0.9105 -0.0151 0.4133
vn -0.3943 -0.8631 0.3156
vn -0.6900 -0.6742 0.2634
vn -0.8204 -0.5222 0.2328
vn -0.5978 -0.7747 0.2061
vn -0.9744 0.1280 0.1848
vn -0.6657 0.7455 -0.0328
vn -0.9164 0.3968 -0.0527
vn -0.9689 -0.2453 0.0322
vn -0.9188 -0.3119 -0.2420
vn -0.7516 -0.6444 -0.1407
vn -0.7712 -0.3476 -0.5332
# 672 vertex normals

vt 0.2995 0.6926 0.0000
vt 0.3232 0.6908 0.0000
vt 0.3330 0.7110 0.0000
vt 0.2994 0.7046 0.0000
vt 0.3598 0.6955 0.0000
vt 0.3646 0.7119 0.0000
vt 0.3153 0.6616 0.0000
vt 0.2964 0.6714 0.0000
vt 0.2915 0.6509 0.0000
vt 0.3387 0.6702 0.0000
vt 0.2957 0.6799 0.0000
vt 0.3948 0.7556 0.0000
vt 0.4111 0.7701 0.0000
vt 0.3758 0.7790 0.0000
vt 0.3588 0.7579 0.0000
vt 0.4080 0.8078 0.0000
vt 0.3629 0.7895 0.0000
vt 0.4201 0.7947 0.0000
vt 0.4335 0.7826 0.0000
vt 0.1739 0.4819 0.0000
vt 0.1756 0.5016 0.0000
vt 0.1679 0.4946 0.0000
vt 0.1649 0.4791 0.0000
vt 0.1647 0.5010 0.0000
vt 0.1744 0.5172 0.0000
vt 0.1577 0.4803 0.0000
vt 0.4599 0.6667 0.0000
vt 0.4889 0.6775 0.0000
vt 0.4806 0.6865 0.0000
vt 0.4505 0.6748 0.0000
vt 0.5359 0.7014 0.0000
vt 0.5328 0.7060 0.0000
vt 0.4757 0.6563 0.0000
vt 0.4547 0.6568 0.0000
vt 0.4904 0.6561 0.0000
vt 0.5085 0.6702 0.0000
vt 0.8200 0.7517 0.0000
vt 0.8750 0.7201 0.0000
vt 0.8647 0.7414 0.0000
vt 0.8267 0.7619 0.0000
vt 0.0863 0.7467 0.0000
vt 0.0964 0.7794 0.0000
vt 0.0684 0.7600 0.0000
vt 0.0734 0.7283 0.0000
vt 0.9251 0.6794 0.0000
vt 0.9287 0.6930 0.0000
vt 0.8677 0.7107 0.0000
vt 0.8108 0.7412 0.0000
vt 0.4895 0.6963 0.0000
vt 0.5323 0.7111 0.0000
vt 0.4622 0.6938 0.0000
vt 0.4517 0.6901 0.0000
vt 0.4353 0.6842 0.0000
vt 0.4098 0.7052 0.0000
vt 0.4037 0.7016 0.0000
vt 0.4166 0.6944 0.0000
vt 0.4288 0.6976 0.0000
vt 0.4009 0.6912 0.0000
vt 0.3886 0.7010 0.0000
vt 0.3899 0.7103 0.0000
vt 0.3810 0.6825 0.0000
vt 0.3626 0.6670 0.0000
vt 0.2838 0.6754 0.0000
vt 0.2751 0.6624 0.0000
vt 0.2746 0.6796 0.0000
vt 0.2537 0.6550 0.0000
vt 0.2578 0.6813 0.0000
vt 0.2035 0.6116 0.0000
vt 0.2188 0.6221 0.0000
vt 0.2156 0.6292 0.0000
vt 0.2028 0.6238 0.0000
vt 0.2087 0.6402 0.0000
vt 0.2254 0.6418 0.0000
vt 0.2349 0.6366 0.0000
vt 0.4901 0.6479 0.0000
vt 0.4673 0.6426 0.0000
vt 0.5176 0.6595 0.0000
vt 0.0789 0.7140 0.0000
vt 0.0904 0.7224 0.0000
vt 0.0597 0.6850 0.0000
vt 0.0774 0.6884 0.0000
vt 0.0925 0.6964 0.0000
vt 0.1195 0.7262 0.0000
vt 0.1132 0.7368 0.0000
vt 0.1044 0.7315 0.0000
vt 0.1059 0.7097 0.0000
vt 0.1048 0.7540 0.0000
vt 0.1183 0.7532 0.0000
vt 0.1293 0.7446 0.0000
vt 0.0968 0.6466 0.0000
vt 0.1252 0.6688 0.0000
vt 0.0985 0.6738 0.0000
vt 0.0840 0.6623 0.0000
vt 0.1060 0.6319 0.0000
vt 0.1322 0.6483 0.0000
vt 0.1157 0.6934 0.0000
vt 0.1397 0.6913 0.0000
vt 0.4541 0.7583 0.0000
vt 0.4668 0.7402 0.0000
vt 0.4780 0.7463 0.0000
vt 0.4761 0.7628 0.0000
vt 0.4884 0.7417 0.0000
vt 0.4767 0.7306 0.0000
vt 0.4974 0.7626 0.0000
vt 0.4905 0.8229 0.0000
vt 0.5234 0.8215 0.0000
vt 0.5163 0.8348 0.0000
vt 0.4864 0.8376 0.0000
vt 0.5499 0.8203 0.0000
vt 0.5340 0.8375 0.0000
vt 0.4852 0.8534 0.0000
vt 0.2297 0.7666 0.0000
vt 0.2281 0.7798 0.0000
vt 0.2123 0.7722 0.0000
vt 0.2056 0.7603 0.0000
vt 0.2210 0.7910 0.0000
vt 0.2028 0.7789 0.0000
vt 0.1862 0.7639 0.0000
vt 0.2571 0.8344 0.0000
vt 0.2460 0.8216 0.0000
vt 0.2588 0.8147 0.0000
vt 0.2790 0.8306 0.0000
vt 0.2347 0.8305 0.0000
vt 0.2314 0.8148 0.0000
vt 0.2401 0.8026 0.0000
vt 0.6911 0.7857 0.0000
vt 0.6423 0.7828 0.0000
vt 0.6953 0.7667 0.0000
vt 0.7349 0.7627 0.0000
vt 0.6372 0.7429 0.0000
vt 0.7109 0.7386 0.0000
vt 0.6174 0.7595 0.0000
vt 0.6014 0.7653 0.0000
vt 0.0901 0.6219 0.0000
vt 0.0875 0.6037 0.0000
vt 0.1094 0.6146 0.0000
vt 0.0795 0.6295 0.0000
vt 0.0683 0.6058 0.0000
vt 0.1939 0.4258 0.0000
vt 0.1996 0.4355 0.0000
vt 0.1919 0.4438 0.0000
vt 0.1855 0.4409 0.0000
vt 0.2033 0.4509 0.0000
vt 0.1918 0.4572 0.0000
vt 0.1817 0.4600 0.0000
vt 0.1804 0.3822 0.0000
vt 0.1953 0.3738 0.0000
vt 0.1931 0.3818 0.0000
vt 0.1833 0.3904 0.0000
vt 0.1898 0.3953 0.0000
vt 0.2004 0.3844 0.0000
vt 0.2088 0.3723 0.0000
vt 0.1389 0.5182 0.0000
vt 0.1395 0.5072 0.0000
vt 0.1486 0.5098 0.0000
vt 0.1559 0.5298 0.0000
vt 0.1419 0.4866 0.0000
vt 0.1327 0.4881 0.0000
vt 0.1242 0.4953 0.0000
vt 0.4383 0.6664 0.0000
vt 0.4653 0.7202 0.0000
vt 0.4723 0.7158 0.0000
vt 0.4855 0.7229 0.0000
vt 0.4900 0.7108 0.0000
vt 0.4704 0.7083 0.0000
vt 0.4558 0.7140 0.0000
vt 0.4018 0.4160 0.0000
vt 0.4338 0.4154 0.0000
vt 0.4268 0.4488 0.0000
vt 0.4055 0.4643 0.0000
vt 0.4661 0.4412 0.0000
vt 0.4470 0.4791 0.0000
vt 0.4616 0.6314 0.0000
vt 0.4564 0.6145 0.0000
vt 0.4876 0.6294 0.0000
vt 0.4893 0.6393 0.0000
vt 0.5231 0.6243 0.0000
vt 0.5225 0.6469 0.0000
vt 0.4843 0.5932 0.0000
vt 0.7158 0.7867 0.0000
vt 0.6934 0.7979 0.0000
vt 0.6696 0.8001 0.0000
vt 0.6961 0.8087 0.0000
vt 0.6655 0.8162 0.0000
vt 0.7258 0.7977 0.0000
vt 0.6075 0.8085 0.0000
vt 0.6081 0.7890 0.0000
vt 0.6364 0.8030 0.0000
vt 0.5856 0.7706 0.0000
vt 0.0311 0.3511 0.0000
vt 0.1021 0.3276 0.0000
vt 0.0669 0.3967 0.0000
vt 0.0180 0.4032 0.0000
vt 0.0903 0.4012 0.0000
vt 0.1220 0.3508 0.0000
vt 0.0551 0.2685 0.0000
vt 0.1343 0.2501 0.0000
vt 0.0587 0.5282 0.0000
vt 0.0481 0.4926 0.0000
vt 0.0627 0.4828 0.0000
vt 0.0735 0.5071 0.0000
vt 0.0810 0.4841 0.0000
vt 0.0678 0.4599 0.0000
vt 0.0493 0.4621 0.0000
vt 0.1036 0.4117 0.0000
vt 0.0906 0.4641 0.0000
vt 0.0763 0.4412 0.0000
vt 0.1123 0.4197 0.0000
vt 0.1071 0.4624 0.0000
vt 0.1080 0.5094 0.0000
vt 0.1154 0.5006 0.0000
vt 0.1015 0.5191 0.0000
vt 0.6784 0.3435 0.0000
vt 0.7139 0.3744 0.0000
vt 0.6989 0.4037 0.0000
vt 0.6731 0.3947 0.0000
vt 0.7418 0.4313 0.0000
vt 0.7082 0.4539 0.0000
vt 0.6722 0.4588 0.0000
vt 0.6093 0.3755 0.0000
vt 0.5763 0.3574 0.0000
vt 0.5842 0.3212 0.0000
vt 0.6095 0.3221 0.0000
vt 0.5414 0.3333 0.0000
vt 0.5633 0.2946 0.0000
vt 0.5943 0.2766 0.0000
vt 0.1909 0.5722 0.0000
vt 0.1664 0.5515 0.0000
vt 0.1809 0.5443 0.0000
vt 0.1987 0.5604 0.0000
vt 0.1868 0.5855 0.0000
vt 0.1619 0.5658 0.0000
vt 0.1681 0.5283 0.0000
vt 0.2163 0.6659 0.0000
vt 0.2117 0.6519 0.0000
vt 0.2375 0.6590 0.0000
vt 0.0895 0.5495 0.0000
vt 0.0957 0.5363 0.0000
vt 0.0870 0.5655 0.0000
vt 0.0593 0.5574 0.0000
vt 0.0268 0.5318 0.0000
vt 0.0334 0.5665 0.0000
vt 0.0182 0.5064 0.0000
vt 0.1850 0.1742 0.0000
vt 0.1152 0.1705 0.0000
vt 0.1618 0.1185 0.0000
vt 0.2262 0.1119 0.0000
vt 0.7634 0.1951 0.0000
vt 0.8428 0.2681 0.0000
vt 0.8200 0.3070 0.0000
vt 0.7365 0.2379 0.0000
vt 0.8820 0.3877 0.0000
vt 0.9145 0.3404 0.0000
vt 0.9749 0.4416 0.0000
vt 0.9126 0.4730 0.0000
vt 0.8594 0.5078 0.0000
vt 0.8389 0.4336 0.0000
vt 0.8074 0.3589 0.0000
vt 0.7759 0.4038 0.0000
vt 0.7980 0.4718 0.0000
vt 0.7338 0.3366 0.0000
vt 0.7454 0.2938 0.0000
vt 0.6834 0.2926 0.0000
vt 0.6706 0.2479 0.0000
vt 0.6517 0.1907 0.0000
vt 0.6112 0.2265 0.0000
vt 0.5619 0.1798 0.0000
vt 0.6343 0.1432 0.0000
vt 0.4635 0.1338 0.0000
vt 0.3445 0.1703 0.0000
vt 0.2669 0.1680 0.0000
vt 0.3269 0.1034 0.0000
vt 0.2719 0.2243 0.0000
vt 0.2109 0.2310 0.0000
vt 0.2366 0.2674 0.0000
vt 0.1816 0.2838 0.0000
vt 0.1754 0.3116 0.0000
vt 0.2229 0.2912 0.0000
vt 0.1750 0.3280 0.0000
vt 0.2159 0.3063 0.0000
vt 0.1318 0.3637 0.0000
vt 0.1362 0.3716 0.0000
vt 0.1769 0.3349 0.0000
vt 0.1440 0.3796 0.0000
vt 0.1766 0.3483 0.0000
vt 0.1232 0.4223 0.0000
vt 0.1332 0.4247 0.0000
vt 0.1512 0.3867 0.0000
vt 0.1180 0.4622 0.0000
vt 0.1285 0.4612 0.0000
vt 0.1382 0.4585 0.0000
vt 0.1426 0.4254 0.0000
vt 0.1465 0.4559 0.0000
vt 0.1513 0.4266 0.0000
vt 0.1493 0.4838 0.0000
vt 0.1539 0.4565 0.0000
vt 0.1585 0.5100 0.0000
vt 0.1591 0.4298 0.0000
vt 0.1633 0.4585 0.0000
vt 0.1667 0.4326 0.0000
vt 0.1724 0.4604 0.0000
vt 0.1768 0.4368 0.0000
vt 0.1845 0.4849 0.0000
vt 0.1861 0.5083 0.0000
vt 0.1963 0.4845 0.0000
vt 0.1987 0.5117 0.0000
vt 0.1863 0.5291 0.0000
vt 0.2017 0.5394 0.0000
vt 0.2135 0.5684 0.0000
vt 0.2149 0.5432 0.0000
vt 0.2126 0.5125 0.0000
vt 0.2258 0.5111 0.0000
vt 0.2288 0.5466 0.0000
vt 0.2084 0.4793 0.0000
vt 0.2216 0.4740 0.0000
vt 0.2336 0.4705 0.0000
vt 0.2379 0.5103 0.0000
vt 0.2163 0.4442 0.0000
vt 0.2286 0.4374 0.0000
vt 0.2378 0.4325 0.0000
vt 0.2429 0.4688 0.0000
vt 0.2227 0.4147 0.0000
vt 0.2108 0.4242 0.0000
vt 0.2322 0.4058 0.0000
vt 0.2407 0.3990 0.0000
vt 0.2463 0.4287 0.0000
vt 0.2256 0.3893 0.0000
vt 0.2165 0.3996 0.0000
vt 0.2336 0.3793 0.0000
vt 0.2417 0.3705 0.0000
vt 0.2484 0.3936 0.0000
vt 0.2257 0.3668 0.0000
vt 0.2181 0.3785 0.0000
vt 0.2325 0.3556 0.0000
vt 0.2411 0.3453 0.0000
vt 0.2509 0.3631 0.0000
vt 0.2144 0.3604 0.0000
vt 0.2203 0.3475 0.0000
vt 0.2264 0.3349 0.0000
vt 0.2494 0.3345 0.0000
vt 0.2336 0.3222 0.0000
vt 0.2015 0.3490 0.0000
vt 0.2047 0.3352 0.0000
vt 0.2096 0.3209 0.0000
vt 0.2414 0.3093 0.0000
vt 0.2581 0.3240 0.0000
vt 0.2510 0.2968 0.0000
vt 0.2677 0.3139 0.0000
vt 0.2685 0.3473 0.0000
vt 0.2781 0.3400 0.0000
vt 0.2595 0.3547 0.0000
vt 0.2665 0.3826 0.0000
vt 0.2755 0.3780 0.0000
vt 0.2574 0.3881 0.0000
vt 0.2622 0.4212 0.0000
vt 0.2707 0.4180 0.0000
vt 0.2532 0.4252 0.0000
vt 0.2586 0.4649 0.0000
vt 0.2671 0.4623 0.0000
vt 0.2514 0.4674 0.0000
vt 0.2559 0.5099 0.0000
vt 0.2640 0.5085 0.0000
vt 0.2477 0.5102 0.0000
vt 0.2517 0.5499 0.0000
vt 0.2607 0.5504 0.0000
vt 0.2416 0.5490 0.0000
vt 0.2421 0.5830 0.0000
vt 0.2550 0.5876 0.0000
vt 0.2283 0.5760 0.0000
vt 0.2254 0.5954 0.0000
vt 0.2402 0.6060 0.0000
vt 0.2096 0.5858 0.0000
vt 0.2228 0.6101 0.0000
vt 0.2066 0.5993 0.0000
vt 0.1870 0.6003 0.0000
vt 0.1598 0.5795 0.0000
vt 0.1850 0.6126 0.0000
vt 0.1556 0.5901 0.0000
vt 0.1266 0.5506 0.0000
vt 0.1235 0.5638 0.0000
vt 0.1323 0.5415 0.0000
vt 0.1374 0.5309 0.0000
vt 0.1199 0.5735 0.0000
vt 0.1511 0.6003 0.0000
vt 0.1474 0.6093 0.0000
vt 0.1161 0.5861 0.0000
vt 0.1832 0.6246 0.0000
vt 0.1823 0.6369 0.0000
vt 0.1785 0.6447 0.0000
vt 0.1428 0.6203 0.0000
vt 0.1130 0.5982 0.0000
vt 0.1383 0.6334 0.0000
vt 0.1747 0.6544 0.0000
vt 0.1713 0.6677 0.0000
vt 0.2159 0.6761 0.0000
vt 0.2146 0.6883 0.0000
vt 0.2151 0.7010 0.0000
vt 0.1694 0.6839 0.0000
vt 0.2602 0.7091 0.0000
vt 0.2584 0.6955 0.0000
vt 0.2611 0.7211 0.0000
vt 0.2618 0.7311 0.0000
vt 0.2163 0.7107 0.0000
vt 0.3107 0.7445 0.0000
vt 0.3058 0.7314 0.0000
vt 0.3153 0.7561 0.0000
vt 0.3125 0.7655 0.0000
vt 0.2642 0.7424 0.0000
vt 0.2188 0.7229 0.0000
vt 0.2651 0.7538 0.0000
vt 0.2227 0.7361 0.0000
vt 0.3059 0.7729 0.0000
vt 0.2968 0.7839 0.0000
vt 0.2629 0.7658 0.0000
vt 0.3501 0.7959 0.0000
vt 0.3342 0.8047 0.0000
vt 0.3166 0.8152 0.0000
vt 0.2849 0.7959 0.0000
vt 0.3761 0.8262 0.0000
vt 0.3957 0.8157 0.0000
vt 0.3523 0.8364 0.0000
vt 0.3267 0.8442 0.0000
vt 0.2974 0.8241 0.0000
vt 0.3921 0.8541 0.0000
vt 0.4237 0.8428 0.0000
vt 0.3566 0.8653 0.0000
vt 0.3241 0.8703 0.0000
vt 0.3020 0.8498 0.0000
vt 0.3786 0.8807 0.0000
vt 0.4272 0.8691 0.0000
vt 0.3368 0.8906 0.0000
vt 0.2968 0.8929 0.0000
vt 0.2916 0.8733 0.0000
vt 0.6320 0.8213 0.0000
vt 0.6356 0.8399 0.0000
vt 0.6001 0.8464 0.0000
vt 0.5994 0.8277 0.0000
vt 0.6677 0.8348 0.0000
vt 0.5501 0.8522 0.0000
vt 0.5630 0.8353 0.0000
vt 0.5793 0.8163 0.0000
vt 0.5800 0.7980 0.0000
vt 0.5514 0.8056 0.0000
vt 0.5650 0.7818 0.0000
vt 0.5435 0.7874 0.0000
vt 0.5314 0.7562 0.0000
vt 0.5469 0.7501 0.0000
vt 0.5624 0.7434 0.0000
vt 0.5271 0.7193 0.0000
vt 0.5698 0.7372 0.0000
vt 0.5787 0.7307 0.0000
vt 0.5482 0.6918 0.0000
vt 0.5972 0.7122 0.0000
vt 0.6060 0.6999 0.0000
vt 0.5596 0.6724 0.0000
vt 0.6574 0.7205 0.0000
vt 0.7235 0.7102 0.0000
vt 0.6671 0.7028 0.0000
vt 0.6151 0.6870 0.0000
vt 0.7312 0.6902 0.0000
vt 0.7995 0.6752 0.0000
vt 0.8023 0.6574 0.0000
vt 0.6758 0.6845 0.0000
vt 0.7386 0.6676 0.0000
vt 0.8050 0.6383 0.0000
vt 0.8690 0.6059 0.0000
vt 0.8687 0.6248 0.0000
vt 0.8073 0.6099 0.0000
vt 0.7468 0.6365 0.0000
vt 0.8686 0.5780 0.0000
vt 0.9290 0.5459 0.0000
vt 0.9329 0.5733 0.0000
vt 0.8091 0.5416 0.0000
vt 0.7566 0.5689 0.0000
vt 0.7586 0.5016 0.0000
vt 0.7129 0.5184 0.0000
vt 0.7058 0.5843 0.0000
vt 0.6581 0.5829 0.0000
vt 0.6683 0.5199 0.0000
vt 0.6124 0.5660 0.0000
vt 0.6276 0.5082 0.0000
vt 0.6377 0.4506 0.0000
vt 0.5879 0.4875 0.0000
vt 0.6008 0.4331 0.0000
vt 0.6404 0.3856 0.0000
vt 0.6429 0.3237 0.0000
vt 0.6381 0.2747 0.0000
vt 0.5621 0.2317 0.0000
vt 0.5278 0.2646 0.0000
vt 0.5136 0.1984 0.0000
vt 0.4866 0.2393 0.0000
vt 0.4459 0.1819 0.0000
vt 0.4318 0.2298 0.0000
vt 0.3670 0.2036 0.0000
vt 0.3724 0.2426 0.0000
vt 0.3022 0.2442 0.0000
vt 0.3164 0.2724 0.0000
vt 0.2660 0.2787 0.0000
vt 0.2819 0.2995 0.0000
vt 0.3242 0.3091 0.0000
vt 0.2923 0.3300 0.0000
vt 0.3312 0.3490 0.0000
vt 0.3002 0.3656 0.0000
vt 0.2852 0.3728 0.0000
vt 0.2896 0.4120 0.0000
vt 0.3075 0.4050 0.0000
vt 0.2797 0.4152 0.0000
vt 0.2841 0.4585 0.0000
vt 0.2945 0.4559 0.0000
vt 0.2751 0.4607 0.0000
vt 0.2811 0.5074 0.0000
vt 0.2901 0.5063 0.0000
vt 0.2724 0.5086 0.0000
vt 0.2795 0.5524 0.0000
vt 0.2905 0.5540 0.0000
vt 0.2696 0.5521 0.0000
vt 0.2775 0.5927 0.0000
vt 0.2892 0.5945 0.0000
vt 0.2643 0.5898 0.0000
vt 0.2686 0.6218 0.0000
vt 0.2836 0.6278 0.0000
vt 0.2556 0.6164 0.0000
vt 0.2553 0.6359 0.0000
vt 0.2716 0.6446 0.0000
vt 0.2383 0.6230 0.0000
vt 0.3017 0.6310 0.0000
vt 0.3241 0.6380 0.0000
vt 0.3054 0.5988 0.0000
vt 0.3263 0.6028 0.0000
vt 0.3482 0.6428 0.0000
vt 0.3046 0.5566 0.0000
vt 0.3221 0.5576 0.0000
vt 0.3439 0.6033 0.0000
vt 0.3052 0.5074 0.0000
vt 0.3256 0.5050 0.0000
vt 0.3433 0.5582 0.0000
vt 0.3132 0.4505 0.0000
vt 0.3411 0.4398 0.0000
vt 0.3494 0.4999 0.0000
vt 0.3360 0.3903 0.0000
vt 0.3708 0.4290 0.0000
vt 0.3683 0.3762 0.0000
vt 0.3694 0.3300 0.0000
vt 0.4052 0.3679 0.0000
vt 0.4118 0.3228 0.0000
vt 0.3713 0.2865 0.0000
vt 0.4207 0.2750 0.0000
vt 0.4674 0.2860 0.0000
vt 0.4547 0.3285 0.0000
vt 0.4454 0.3685 0.0000
vt 0.4935 0.3518 0.0000
vt 0.4819 0.3972 0.0000
vt 0.5074 0.3060 0.0000
vt 0.5292 0.3795 0.0000
vt 0.5151 0.4288 0.0000
vt 0.5646 0.4093 0.0000
vt 0.5501 0.4603 0.0000
vt 0.4968 0.4767 0.0000
vt 0.5316 0.5105 0.0000
vt 0.4759 0.5196 0.0000
vt 0.5081 0.5594 0.0000
vt 0.4531 0.5565 0.0000
vt 0.4237 0.5125 0.0000
vt 0.3974 0.5432 0.0000
vt 0.4252 0.5812 0.0000
vt 0.3771 0.4891 0.0000
vt 0.3690 0.5533 0.0000
vt 0.3937 0.5939 0.0000
vt 0.3657 0.6037 0.0000
vt 0.3898 0.6306 0.0000
vt 0.4190 0.6217 0.0000
vt 0.3655 0.6383 0.0000
vt 0.3856 0.6579 0.0000
vt 0.4095 0.6469 0.0000
vt 0.4036 0.6712 0.0000
vt 0.4249 0.6580 0.0000
vt 0.4198 0.6787 0.0000
vt 0.4467 0.6478 0.0000
vt 0.4366 0.6370 0.0000
vt 0.5469 0.5898 0.0000
vt 0.5709 0.5419 0.0000
vt 0.5919 0.6197 0.0000
vt 0.5752 0.6483 0.0000
vt 0.6380 0.6405 0.0000
vt 0.6240 0.6723 0.0000
vt 0.5671 0.6611 0.0000
vt 0.6902 0.6511 0.0000
vt 0.9869 0.5793 0.0000
vt 0.9334 0.5934 0.0000
vt 0.9902 0.5507 0.0000
vt 0.9912 0.5094 0.0000
vt 0.9803 0.6063 0.0000
vt 0.9276 0.6205 0.0000
vt 0.8674 0.6425 0.0000
vt 0.8654 0.6591 0.0000
vt 0.9246 0.6385 0.0000
vt 0.7971 0.6922 0.0000
vt 0.8615 0.6774 0.0000
vt 0.7919 0.7184 0.0000
vt 0.8004 0.7304 0.0000
vt 0.8619 0.6936 0.0000
vt 0.7567 0.7673 0.0000
vt 0.7691 0.7771 0.0000
vt 0.7807 0.7914 0.0000
vt 0.7351 0.8146 0.0000
vt 0.1763 0.8402 0.0000
vt 0.2183 0.8600 0.0000
vt 0.2138 0.8803 0.0000
vt 0.1669 0.8570 0.0000
vt 0.2556 0.8708 0.0000
vt 0.2555 0.8908 0.0000
vt 0.7001 0.8270 0.0000
vt 0.2445 0.8496 0.0000
vt 0.2144 0.8397 0.0000
vt 0.2724 0.8549 0.0000
vt 0.2112 0.8213 0.0000
vt 0.2136 0.8045 0.0000
vt 0.1901 0.8060 0.0000
vt 0.1957 0.7906 0.0000
vt 0.1834 0.8228 0.0000
vt 0.1659 0.7882 0.0000
vt 0.1548 0.8008 0.0000
vt 0.1410 0.8135 0.0000
vt 0.1306 0.7770 0.0000
vt 0.1152 0.7819 0.0000
vt 0.1268 0.8230 0.0000
vt 0.1434 0.7663 0.0000
vt 0.1559 0.7563 0.0000
vt 0.1429 0.7350 0.0000
vt 0.1749 0.7756 0.0000
vt 0.1709 0.7471 0.0000
vt 0.1603 0.7285 0.0000
vt 0.1856 0.7275 0.0000
vt 0.1943 0.7431 0.0000
vt 0.2269 0.7500 0.0000
vt 0.2570 0.7785 0.0000
vt 0.2493 0.7918 0.0000
vt 0.2720 0.8058 0.0000
vt 0.1781 0.7110 0.0000
vt 0.1486 0.7079 0.0000
vt 0.1746 0.6996 0.0000
vt 0.1306 0.7140 0.0000
vt 0.9262 0.6668 0.0000
vt 0.9264 0.6498 0.0000
vt 0.9771 0.6394 0.0000
vt 0.9732 0.6558 0.0000
vt 0.9750 0.6241 0.0000
vt 0.9683 0.6709 0.0000
vt 0.0522 0.6284 0.0000
vt 0.0390 0.6070 0.0000
vt 0.0619 0.5803 0.0000
vt 0.0329 0.6806 0.0000
vt 0.0461 0.6898 0.0000
vt 0.0669 0.6452 0.0000
vt 0.0860 0.5814 0.0000
vt 0.0153 0.4803 0.0000
vt 0.0142 0.4425 0.0000
vt 0.0541 0.4361 0.0000
vt 0.5149 0.7249 0.0000
vt 0.4928 0.7044 0.0000
vt 0.4650 0.7008 0.0000
vt 0.4486 0.7077 0.0000
vt 0.4404 0.7031 0.0000
vt 0.4212 0.7126 0.0000
vt 0.4328 0.7181 0.0000
vt 0.4112 0.7306 0.0000
vt 0.3989 0.7209 0.0000
vt 0.4444 0.7252 0.0000
vt 0.4233 0.7414 0.0000
vt 0.3816 0.7400 0.0000
vt 0.4373 0.7505 0.0000
vt 0.4556 0.7312 0.0000
vt 0.3391 0.7250 0.0000
vt 0.3715 0.7245 0.0000
vt 0.3489 0.7416 0.0000
vt 0.3011 0.7169 0.0000
vt 0.5005 0.7364 0.0000
vt 0.5151 0.7606 0.0000
vt 0.4965 0.7945 0.0000
vt 0.5210 0.7916 0.0000
vt 0.4599 0.8073 0.0000
vt 0.4657 0.7917 0.0000
vt 0.4980 0.8106 0.0000
vt 0.5270 0.8093 0.0000
vt 0.4517 0.8187 0.0000
vt 0.4418 0.8303 0.0000
vt 0.1778 0.3608 0.0000
vt 0.1794 0.3724 0.0000
vt 0.1989 0.3619 0.0000
vt 0.1580 0.3934 0.0000
vt 0.1638 0.3998 0.0000
vt 0.1706 0.4058 0.0000
vt 0.1785 0.4106 0.0000
vt 0.1865 0.4184 0.0000
vt 0.1984 0.4023 0.0000
vt 0.2049 0.4108 0.0000
vt 0.2097 0.3896 0.0000
# 697 texture coords

g EyeLow
s 1
f 1/1/1 2/2/2 3/3/3 4/4/4 
f 3/3/3 2/2/2 5/5/5 6/6/6 
f 7/7/7 2/2/2 8/8/8 9/9/9 
f 10/10/10 5/5/5 2/2/2 7/7/7 
f 11/11/11 8/8/8 2/2/2 1/1/1 
f 12/12/12 13/13/13 14/14/14 15/15/15 
f 16/16/16 17/17/17 14/14/14 18/18/18 
f 18/18/18 14/14/14 13/13/13 19/19/19 
f 20/20/20 21/21/21 22/22/22 23/23/23 
f 24/24/24 22/22/22 21/21/21 25/25/25 
f 26/26/26 23/23/23 22/22/22 24/24/24 
f 27/27/27 28/28/28 29/29/29 30/30/30 
f 29/29/29 28/28/28 31/31/31 32/32/32 
f 33/33/33 28/28/28 27/27/27 34/34/34 
f 35/35/35 36/36/36 28/28/28 33/33/33 
f 37/37/37 38/38/38 39/39/39 40/40/40 
f 41/41/41 39/42/39 38/43/38 42/44/42 
f 43/45/43 44/46/44 38/38/38 45/47/45 
f 45/47/45 38/38/38 37/37/37 46/48/46 
f 47/49/47 29/29/29 32/32/32 48/50/48 
f 49/51/49 50/52/50 29/29/29 47/49/47 
f 30/30/30 29/29/29 50/52/50 51/53/51 
f 52/54/52 53/55/53 54/56/54 55/57/55 
f 56/58/56 54/56/54 53/55/53 57/59/57 
f 58/60/58 57/59/57 53/55/53 52/54/52 
f 6/6/6 5/5/5 57/59/57 58/60/58 
f 57/59/57 5/5/5 59/61/59 56/58/56 
f 60/62/60 59/61/59 5/5/5 10/10/10 
f 8/8/8 11/11/11 61/63/61 62/64/62 
f 61/63/61 11/11/11 1/1/1 63/65/63 
f 62/64/62 61/63/61 63/65/63 64/66/64 
f 4/4/4 65/67/65 63/65/63 1/1/1 
f 66/68/66 67/69/67 68/70/68 69/71/69 
f 70/72/70 69/71/69 68/70/68 71/73/71 
f 71/73/71 68/70/68 67/69/67 72/74/72 
f 73/75/73 35/35/35 33/33/33 74/76/74 
f 36/36/36 35/35/35 73/75/73 75/77/75 
f 42/44/42 76/78/76 77/79/77 41/41/41 
f 78/80/78 79/81/79 76/78/76 42/44/42 
f 80/82/80 77/79/77 76/78/76 79/81/79 
f 81/83/81 82/84/82 83/85/83 84/86/84 
f 85/87/85 83/85/83 82/84/82 86/88/86 
f 87/89/87 86/88/86 82/84/82 81/83/81 
f 88/90/88 89/91/89 90/92/90 91/93/91 
f 92/94/92 93/95/93 89/91/89 88/90/88 
f 94/96/94 90/92/90 89/91/89 95/97/95 
f 96/98/96 97/99/97 98/100/98 99/101/99 
f 100/102/100 98/100/98 97/99/97 101/103/101 
f 102/104/102 99/101/99 98/100/98 100/102/100 
f 103/105/103 104/106/104 105/107/105 106/108/106 
f 107/109/107 108/110/108 105/107/105 104/106/104 
f 106/108/106 105/107/105 108/110/108 109/111/109 
f 110/112/110 111/113/111 112/114/112 113/115/113 
f 114/116/114 115/117/115 112/114/112 111/113/111 
f 113/115/113 112/114/112 115/117/115 116/118/116 
f 117/119/117 118/120/118 119/121/119 120/122/120 
f 121/123/121 122/124/122 118/120/118 117/119/117 
f 123/125/123 119/121/119 118/120/118 122/124/122 
f 124/126/124 125/127/125 126/128/126 127/129/127 
f 128/130/128 129/131/129 126/128/126 130/132/130 
f 130/132/130 126/128/126 125/127/125 131/133/131 
f 92/94/92 132/134/132 133/135/133 134/136/134 
f 88/90/88 135/137/135 132/134/132 92/94/92 
f 136/138/136 133/135/133 132/134/132 135/137/135 
f 137/139/137 138/140/138 139/141/139 140/142/140 
f 141/143/141 142/144/142 139/141/139 138/140/138 
f 140/142/140 139/141/139 142/144/142 143/145/143 
f 144/146/144 145/147/145 146/148/146 147/149/147 
f 148/150/148 147/149/147 146/148/146 149/151/149 
f 149/151/149 146/148/146 145/147/145 150/152/150 
f 151/153/151 152/154/152 153/155/153 154/156/154 
f 155/157/155 153/155/153 152/154/152 156/158/156 
f 157/159/157 156/158/156 152/154/152 151/153/151 
f 34/34/34 27/27/27 30/30/30 158/160/158 
f 159/161/159 160/162/160 161/163/161 101/103/101 
f 162/164/162 161/163/161 160/162/160 163/165/163 
f 163/165/163 160/162/160 159/161/159 164/166/164 
f 165/167/165 166/168/166 167/169/167 168/170/168 
f 169/171/169 170/172/170 167/169/167 166/168/166 
f 171/173/171 172/174/172 173/175/173 174/176/174 
f 174/176/174 173/175/173 175/177/175 176/178/176 
f 177/179/177 175/177/175 173/175/173 172/174/172 
f 124/126/124 178/180/178 179/181/179 180/182/180 
f 180/182/180 179/181/179 181/183/181 182/184/182 
f 183/185/183 181/183/181 179/181/179 178/180/178 
f 184/186/184 185/187/185 125/127/125 186/188/186 
f 180/182/180 186/188/186 125/127/125 124/126/124 
f 131/133/131 125/127/125 185/187/185 187/189/187 
f 188/190/188 189/191/189 190/192/190 191/193/191 
f 192/194/192 190/192/190 189/191/189 193/195/193 
f 194/196/194 195/197/195 189/191/189 188/190/188 
f 196/198/196 197/199/197 198/200/198 199/201/199 
f 200/202/200 199/201/199 198/200/198 201/203/201 
f 202/204/202 201/203/201 198/200/198 197/199/197 
f 203/205/203 204/206/204 205/207/205 192/194/192 
f 206/208/206 207/209/207 204/206/204 203/205/203 
f 208/210/208 204/206/204 207/209/207 209/211/209 
f 200/202/200 204/206/204 208/210/208 210/212/210 
f 205/207/205 204/206/204 200/202/200 201/203/201 
f 211/213/211 212/214/212 213/215/213 214/216/214 
f 215/217/215 216/218/216 213/215/213 212/214/212 
f 217/219/217 214/216/214 213/215/213 216/218/216 
f 218/220/218 219/221/219 220/222/220 221/223/221 
f 222/224/222 223/225/223 220/222/220 219/221/219 
f 224/226/224 221/223/221 220/222/220 223/225/223 
f 225/227/225 226/228/226 227/229/227 228/230/228 
f 229/231/229 230/232/230 226/228/226 225/227/225 
f 231/233/231 227/229/227 226/228/226 154/156/154 
f 232/234/232 233/235/233 234/236/234 65/67/65 
f 71/73/71 234/236/234 233/235/233 70/72/70 
f 72/74/72 64/66/64 234/236/234 71/73/71 
f 235/237/235 196/198/196 199/201/199 236/238/236 
f 237/239/237 238/240/238 196/198/196 235/237/235 
f 239/241/239 196/198/196 238/240/238 240/242/240 
f 197/199/197 196/198/196 239/241/239 241/243/241 
f 242/244/242 243/245/243 244/246/244 245/247/245 
f 245/248/245 244/249/244 246/250/246 247/251/247 
f 248/252/248 246/250/246 244/249/244 243/253/243 
f 194/254/194 249/255/249 248/252/248 243/253/243 
f 250/256/250 251/257/251 248/252/248 249/255/249 
f 252/258/252 246/250/246 248/252/248 251/257/251 
f 253/259/253 252/258/252 251/257/251 254/260/254 
f 255/261/255 256/262/256 252/258/252 253/259/253 
f 246/250/246 252/258/252 256/262/256 247/251/247 
f 257/263/257 258/264/258 256/262/256 255/261/255 
f 247/251/247 256/262/256 258/264/258 259/265/259 
f 260/266/260 261/267/261 259/265/259 258/264/258 
f 262/268/262 259/265/259 261/267/261 263/269/263 
f 247/251/247 259/265/259 262/268/262 245/248/245 
f 264/270/264 265/271/265 262/272/262 263/269/263 
f 245/247/245 262/272/262 265/271/265 242/244/242 
f 266/273/266 267/274/267 265/271/265 264/270/264 
f 242/244/242 265/271/265 267/274/267 195/197/195 
f 268/275/268 269/276/269 267/274/267 266/273/266 
f 195/197/195 267/274/267 269/276/269 189/191/189 
f 270/277/270 269/276/269 268/275/268 271/278/271 
f 193/195/193 189/191/189 269/276/269 270/277/270 
f 272/279/272 270/277/270 271/278/271 273/280/273 
f 274/281/274 193/195/193 270/277/270 272/279/272 
f 275/282/275 274/281/274 272/279/272 276/283/276 
f 203/205/203 274/281/274 275/282/275 206/208/206 
f 193/195/193 274/281/274 203/205/203 192/194/192 
f 277/284/277 275/282/275 276/283/276 278/285/278 
f 279/286/279 206/208/206 275/282/275 277/284/277 
f 280/287/280 279/286/279 277/284/277 281/288/281 
f 282/289/282 279/286/279 280/287/280 283/290/283 
f 207/209/207 206/208/206 279/286/279 282/289/282 
f 157/159/157 282/289/282 283/290/283 156/158/156 
f 209/211/209 207/209/207 282/289/282 157/159/157 
f 284/291/284 283/290/283 280/287/280 285/292/285 
f 156/158/156 283/290/283 284/291/284 155/157/155 
f 286/293/286 284/291/284 285/292/285 287/294/287 
f 155/157/155 284/291/284 286/293/286 288/295/288 
f 26/26/26 288/295/288 286/293/286 289/296/289 
f 24/24/24 290/297/290 288/295/288 26/26/26 
f 153/155/153 155/157/155 288/295/288 290/297/290 
f 154/156/154 153/155/153 290/297/290 231/233/231 
f 25/25/25 231/233/231 290/297/290 24/24/24 
f 287/294/287 291/298/291 289/296/289 286/293/286 
f 292/299/292 289/296/289 291/298/291 293/300/293 
f 23/23/23 26/26/26 289/296/289 292/299/292 
f 294/301/294 292/299/292 293/300/293 295/302/295 
f 23/23/23 292/299/292 294/301/294 20/20/20 
f 143/145/143 294/301/294 295/302/295 140/142/140 
f 20/20/20 294/301/294 143/145/143 296/303/296 
f 297/304/297 296/303/296 298/305/298 299/306/299 
f 21/21/21 20/20/20 296/303/296 297/304/297 
f 142/144/142 298/305/298 296/303/296 143/145/143 
f 300/307/300 297/304/297 299/306/299 301/308/301 
f 25/25/25 21/21/21 297/304/297 300/307/300 
f 227/229/227 300/307/300 301/308/301 228/230/228 
f 231/233/231 25/25/25 300/307/300 227/229/227 
f 302/309/302 228/230/228 301/308/301 303/310/303 
f 304/311/304 303/310/303 301/308/301 299/306/299 
f 303/310/303 304/311/304 305/312/305 306/313/306 
f 307/314/307 304/311/304 299/306/299 298/305/298 
f 308/315/308 305/312/305 304/311/304 307/314/307 
f 305/312/305 308/315/308 309/316/309 310/317/310 
f 311/318/311 308/315/308 307/314/307 141/143/141 
f 312/319/312 309/316/309 308/315/308 311/318/311 
f 309/316/309 312/319/312 313/320/313 314/321/314 
f 315/322/315 312/319/312 311/318/311 316/323/316 
f 317/324/317 313/320/313 312/319/312 315/322/315 
f 313/320/313 317/324/317 318/325/318 319/326/319 
f 320/327/320 317/324/317 315/322/315 321/328/321 
f 322/329/322 318/325/318 317/324/317 320/327/320 
f 318/325/318 322/329/322 323/330/323 324/331/324 
f 325/332/325 322/329/322 320/327/320 326/333/326 
f 323/330/323 322/329/322 325/332/325 327/334/327 
f 323/330/323 327/334/327 328/335/328 329/336/329 
f 330/337/330 331/338/331 327/334/327 325/332/325 
f 332/339/332 328/335/328 327/334/327 331/338/331 
f 333/340/333 328/335/328 332/339/332 334/341/334 
f 335/342/335 336/343/336 332/339/332 331/338/331 
f 334/341/334 332/339/332 336/343/336 337/344/337 
f 334/341/334 337/344/337 273/280/273 338/345/338 
f 278/285/278 276/283/276 337/344/337 336/343/336 
f 273/280/273 337/344/337 276/283/276 272/279/272 
f 339/346/339 338/345/338 340/347/340 341/348/341 
f 334/341/334 338/345/338 339/346/339 333/340/333 
f 271/278/271 340/347/340 338/345/338 273/280/273 
f 342/349/342 339/346/339 341/348/341 343/350/343 
f 333/340/333 339/346/339 342/349/342 344/351/344 
f 345/352/345 344/351/344 342/349/342 346/353/346 
f 347/354/347 329/336/329 344/351/344 345/352/345 
f 328/335/328 333/340/333 344/351/344 329/336/329 
f 348/355/348 347/354/347 345/352/345 349/356/349 
f 350/357/350 324/331/324 347/354/347 348/355/348 
f 329/336/329 347/354/347 324/331/324 323/330/323 
f 351/358/351 350/357/350 348/355/348 352/359/352 
f 353/360/353 319/326/319 350/357/350 351/358/351 
f 324/331/324 350/357/350 319/326/319 318/325/318 
f 354/361/354 353/360/353 351/358/351 355/362/355 
f 356/363/356 314/321/314 353/360/353 354/361/354 
f 319/326/319 353/360/353 314/321/314 313/320/313 
f 357/364/357 356/363/356 354/361/354 358/365/358 
f 359/366/359 310/317/310 356/363/356 357/364/357 
f 314/321/314 356/363/356 310/317/310 309/316/309 
f 360/367/360 359/366/359 357/364/357 361/368/361 
f 362/369/362 306/313/306 359/366/359 360/367/360 
f 310/317/310 359/366/359 306/313/306 305/312/305 
f 363/370/363 362/369/362 360/367/360 364/371/364 
f 302/309/302 362/369/362 363/370/363 365/372/365 
f 306/313/306 362/369/362 302/309/302 303/310/303 
f 366/373/366 367/374/367 365/372/365 363/370/363 
f 225/227/225 365/372/365 367/374/367 229/231/229 
f 228/230/228 302/309/302 365/372/365 225/227/225 
f 67/69/67 66/68/66 367/374/367 366/373/366 
f 229/231/229 367/374/367 66/68/66 368/375/368 
f 369/376/369 368/375/368 370/377/370 371/378/371 
f 229/231/229 368/375/368 369/376/369 230/232/230 
f 69/71/69 370/377/370 368/375/368 66/68/66 
f 372/379/372 369/376/369 371/378/371 373/380/373 
f 374/381/374 230/232/230 369/376/369 372/379/372 
f 208/210/208 374/381/374 372/379/372 210/212/210 
f 209/211/209 375/382/375 374/381/374 208/210/208 
f 230/232/230 374/381/374 375/382/375 226/228/226 
f 157/159/157 151/153/151 375/382/375 209/211/209 
f 154/156/154 226/228/226 375/382/375 151/153/151 
f 210/212/210 372/379/372 373/380/373 236/238/236 
f 236/238/236 373/380/373 376/383/376 235/237/235 
f 377/384/377 376/383/376 373/380/373 371/378/371 
f 376/383/376 377/384/377 378/385/378 379/386/379 
f 380/387/380 377/384/377 371/378/371 370/377/370 
f 381/388/381 378/385/378 377/384/377 380/387/380 
f 378/385/378 381/388/381 382/389/382 383/390/383 
f 233/235/233 381/388/381 380/387/380 70/72/70 
f 232/234/232 382/389/382 381/388/381 233/235/233 
f 384/391/384 383/390/383 385/392/385 134/136/134 
f 379/386/379 378/385/378 383/390/383 384/391/384 
f 386/393/386 385/392/385 383/390/383 382/389/382 
f 385/392/385 386/393/386 387/394/387 93/95/93 
f 388/395/388 386/393/386 382/389/382 232/234/232 
f 389/396/389 387/394/387 386/393/386 388/395/388 
f 387/394/387 389/396/389 390/397/390 391/398/391 
f 392/399/392 389/396/389 388/395/388 393/400/393 
f 394/401/394 390/397/390 389/396/389 392/399/392 
f 390/397/390 394/401/394 395/402/395 396/403/396 
f 397/404/397 394/401/394 392/399/392 398/405/398 
f 399/406/399 395/402/395 394/401/394 397/404/397 
f 395/402/395 399/406/399 400/407/400 401/408/401 
f 15/15/15 14/14/14 399/406/399 397/404/397 
f 17/17/17 400/407/400 399/406/399 14/14/14 
f 402/409/402 401/408/401 403/410/403 404/411/404 
f 396/403/396 395/402/395 401/408/401 402/409/402 
f 405/412/405 403/410/403 401/408/401 400/407/400 
f 403/410/403 405/412/405 406/413/406 407/414/407 
f 408/415/408 405/412/405 400/407/400 17/17/17 
f 409/416/409 406/413/406 405/412/405 408/415/408 
f 406/413/406 409/416/409 410/417/410 411/418/411 
f 412/419/412 409/416/409 408/415/408 413/420/413 
f 414/421/414 410/417/410 409/416/409 412/419/412 
f 410/417/410 414/421/414 415/422/415 416/423/416 
f 417/424/417 414/421/414 412/419/412 418/425/418 
f 419/426/419 415/422/415 414/421/414 417/424/417 
f 415/422/415 419/426/419 420/427/420 421/428/421 
f 422/429/422 419/426/419 417/424/417 423/430/423 
f 424/431/424 420/427/420 419/426/419 422/429/422 
f 420/427/420 424/431/424 425/432/425 426/433/426 
f 427/434/427 424/435/424 422/436/422 428/437/428 
f 182/184/182 425/438/425 424/435/424 427/434/427 
f 186/188/186 427/434/427 428/437/428 184/186/184 
f 182/184/182 427/434/427 186/188/186 180/182/180 
f 423/439/423 429/440/429 428/437/428 422/436/422 
f 184/186/184 428/437/428 429/440/429 430/441/430 
f 108/110/108 107/109/107 430/441/430 429/440/429 
f 431/442/431 430/441/430 107/109/107 432/443/432 
f 185/187/185 184/186/184 430/441/430 431/442/431 
f 433/444/433 431/442/431 432/443/432 434/445/434 
f 185/187/185 431/442/431 433/444/433 187/189/187 
f 435/446/435 436/447/436 433/444/433 434/445/434 
f 187/189/187 433/444/433 436/447/436 437/448/437 
f 438/449/438 48/50/48 437/448/437 436/447/436 
f 439/450/439 437/448/437 48/50/48 32/32/32 
f 187/189/187 437/448/437 439/450/439 131/133/131 
f 31/31/31 440/451/440 439/450/439 32/32/32 
f 131/133/131 439/450/439 440/451/440 130/132/130 
f 441/452/441 442/453/442 440/451/440 31/31/31 
f 128/130/128 130/132/130 440/451/440 442/453/442 
f 443/454/443 442/453/442 441/452/441 444/455/444 
f 128/130/128 442/453/442 443/454/443 445/456/445 
f 129/131/129 128/130/128 445/456/445 446/457/446 
f 447/458/447 445/456/445 443/454/443 448/459/448 
f 446/457/446 445/456/445 447/458/447 449/460/449 
f 450/461/450 446/457/446 449/460/449 451/462/451 
f 452/463/452 453/464/453 449/460/449 447/458/447 
f 451/462/451 449/460/449 453/464/453 454/465/454 
f 451/462/451 454/465/454 455/466/455 456/467/456 
f 457/468/457 454/465/454 453/464/453 458/469/458 
f 459/470/459 455/466/455 454/465/454 457/468/457 
f 455/466/455 459/470/459 460/471/460 461/472/461 
f 250/256/250 459/470/459 457/468/457 462/473/462 
f 249/255/249 460/471/460 459/470/459 250/256/250 
f 458/469/458 463/474/463 462/473/462 457/468/457 
f 254/260/254 462/473/462 463/474/463 464/475/464 
f 251/257/251 250/256/250 462/473/462 254/260/254 
f 465/476/465 464/475/464 463/474/463 466/477/466 
f 215/217/215 464/475/464 465/476/465 216/218/216 
f 253/259/253 254/260/254 464/475/464 215/217/215 
f 467/478/467 468/479/468 465/476/465 466/477/466 
f 216/218/216 465/476/465 468/479/468 217/219/217 
f 469/480/469 470/481/470 468/479/468 467/478/467 
f 217/219/217 468/479/468 470/481/470 471/482/471 
f 472/483/472 473/484/473 471/482/471 470/481/470 
f 474/485/474 471/482/471 473/484/473 218/220/218 
f 217/219/217 471/482/471 474/485/474 214/216/214 
f 221/223/221 475/486/475 474/485/474 218/220/218 
f 214/216/214 474/485/474 475/486/475 211/213/211 
f 224/226/224 476/487/476 475/486/475 221/223/221 
f 211/213/211 475/486/475 476/487/476 257/263/257 
f 260/266/260 476/487/476 224/226/224 477/488/477 
f 258/264/258 257/263/257 476/487/476 260/266/260 
f 223/225/223 478/489/478 477/488/477 224/226/224 
f 479/490/479 477/488/477 478/489/478 480/491/480 
f 261/267/261 260/266/260 477/488/477 479/490/479 
f 481/492/481 479/490/479 480/491/480 482/493/482 
f 263/269/263 261/267/261 479/490/479 481/492/481 
f 483/494/483 481/492/481 482/493/482 484/495/484 
f 263/269/263 481/492/481 483/494/483 264/270/264 
f 485/496/485 483/494/483 484/495/484 486/497/486 
f 264/270/264 483/494/483 485/496/485 266/273/266 
f 487/498/487 485/496/485 486/497/486 488/499/488 
f 266/273/266 485/496/485 487/498/487 268/275/268 
f 340/347/340 487/498/487 488/499/488 341/348/341 
f 268/275/268 487/498/487 340/347/340 271/278/271 
f 489/500/489 490/501/490 488/499/488 486/497/486 
f 341/348/341 488/499/488 490/501/490 343/350/343 
f 491/502/491 492/503/492 490/501/490 489/500/489 
f 493/504/493 343/350/343 490/501/490 492/503/492 
f 494/505/494 493/504/493 492/503/492 495/506/495 
f 496/507/496 346/353/346 493/504/493 494/505/494 
f 343/350/343 493/504/493 346/353/346 342/349/342 
f 497/508/497 496/507/496 494/505/494 498/509/498 
f 499/510/499 349/356/349 496/507/496 497/508/497 
f 346/353/346 496/507/496 349/356/349 345/352/345 
f 500/511/500 499/510/499 497/508/497 501/512/501 
f 502/513/502 352/359/352 499/510/499 500/511/500 
f 349/356/349 499/510/499 352/359/352 348/355/348 
f 503/514/503 502/513/502 500/511/500 504/515/504 
f 505/516/505 355/362/355 502/513/502 503/514/503 
f 352/359/352 502/513/502 355/362/355 351/358/351 
f 506/517/506 505/516/505 503/514/503 507/518/507 
f 508/519/508 358/365/358 505/516/505 506/517/506 
f 355/362/355 505/516/505 358/365/358 354/361/354 
f 509/520/509 508/519/508 506/517/506 510/521/510 
f 511/522/511 361/368/361 508/519/508 509/520/509 
f 358/365/358 508/519/508 361/368/361 357/364/357 
f 512/523/512 511/522/511 509/520/509 513/524/513 
f 514/525/514 364/371/364 511/522/511 512/523/512 
f 361/368/361 511/522/511 364/371/364 360/367/360 
f 72/74/72 514/525/514 512/523/512 64/66/64 
f 366/373/366 514/525/514 72/74/72 67/69/67 
f 364/371/364 514/525/514 366/373/366 363/370/363 
f 64/66/64 512/523/512 513/524/513 62/64/62 
f 62/64/62 513/524/513 9/9/9 8/8/8 
f 510/521/510 9/9/9 513/524/513 509/520/509 
f 9/9/9 510/521/510 515/526/515 7/7/7 
f 507/518/507 515/526/515 510/521/510 506/517/506 
f 7/7/7 515/526/515 516/527/516 10/10/10 
f 517/528/517 516/527/516 515/526/515 507/518/507 
f 516/527/516 517/528/517 518/529/518 519/530/519 
f 504/515/504 517/528/517 507/518/507 503/514/503 
f 520/531/520 518/529/518 517/528/517 504/515/504 
f 518/529/518 520/531/520 521/532/521 522/533/522 
f 501/512/501 520/531/520 504/515/504 500/511/500 
f 523/534/523 521/532/521 520/531/520 501/512/501 
f 521/532/521 523/534/523 524/535/524 525/536/525 
f 498/509/498 523/534/523 501/512/501 497/508/497 
f 526/537/526 524/535/524 523/534/523 498/509/498 
f 524/535/524 526/537/526 527/538/527 528/539/528 
f 495/506/495 526/537/526 498/509/498 494/505/494 
f 527/538/527 526/537/526 495/506/495 529/540/529 
f 530/541/530 527/538/527 529/540/529 531/542/531 
f 492/503/492 491/502/491 529/540/529 495/506/495 
f 531/542/531 529/540/529 491/502/491 532/543/532 
f 533/544/533 531/542/531 532/543/532 534/545/534 
f 489/500/489 535/546/535 532/543/532 491/502/491 
f 534/545/534 532/543/532 535/546/535 536/547/536 
f 534/545/534 536/547/536 537/548/537 538/549/538 
f 484/495/484 482/493/482 536/547/536 535/546/535 
f 537/548/537 536/547/536 482/493/482 480/491/480 
f 539/550/539 538/549/538 540/551/540 541/552/541 
f 534/545/534 538/549/538 539/550/539 533/544/533 
f 542/553/542 540/551/540 538/549/538 537/548/537 
f 540/551/540 542/553/542 222/224/222 543/554/543 
f 478/489/478 542/553/542 537/548/537 480/491/480 
f 223/225/223 222/224/222 542/553/542 478/489/478 
f 544/555/544 543/554/543 545/556/545 546/557/546 
f 541/552/541 540/551/540 543/554/543 544/555/544 
f 219/221/219 545/556/545 543/554/543 222/224/222 
f 547/558/547 544/555/544 546/557/546 548/559/548 
f 169/171/169 541/552/541 544/555/544 547/558/547 
f 549/560/549 547/558/547 548/559/548 550/561/550 
f 170/172/170 169/171/169 547/558/547 549/560/549 
f 551/562/551 549/560/549 550/561/550 177/179/177 
f 552/563/552 170/172/170 549/560/549 551/562/551 
f 553/564/553 552/563/552 551/562/551 554/565/554 
f 555/566/555 168/170/168 552/563/552 553/564/553 
f 170/172/170 552/563/552 168/170/168 167/169/167 
f 556/567/556 528/539/528 555/566/555 553/564/553 
f 527/538/527 530/541/530 555/566/555 528/539/528 
f 168/170/168 555/566/555 530/541/530 165/167/165 
f 557/568/557 556/567/556 553/564/553 554/565/554 
f 558/569/558 525/536/525 556/567/556 557/568/557 
f 528/539/528 556/567/556 525/536/525 524/535/524 
f 559/570/559 558/569/558 557/568/557 560/571/560 
f 561/572/561 522/533/522 558/569/558 559/570/559 
f 525/536/525 558/569/558 522/533/522 521/532/521 
f 562/573/562 561/572/561 559/570/559 563/574/563 
f 60/62/60 519/530/519 561/572/561 562/573/562 
f 522/533/522 561/572/561 519/530/519 518/529/518 
f 564/575/564 562/573/562 563/574/563 565/576/565 
f 59/61/59 60/62/60 562/573/562 564/575/564 
f 566/577/566 564/575/564 565/576/565 158/160/158 
f 56/58/56 59/61/59 564/575/564 566/577/566 
f 51/53/51 566/577/566 158/160/158 30/30/30 
f 54/56/54 56/58/56 566/577/566 51/53/51 
f 158/160/158 565/576/565 567/578/567 34/34/34 
f 568/579/568 567/578/567 565/576/565 563/574/563 
f 567/578/567 568/579/568 171/173/171 74/76/74 
f 560/571/560 568/579/568 563/574/563 559/570/559 
f 172/174/172 171/173/171 568/579/568 560/571/560 
f 34/34/34 567/578/567 74/76/74 33/33/33 
f 554/565/554 172/174/172 560/571/560 557/568/557 
f 172/174/172 554/565/554 551/562/551 177/179/177 
f 175/177/175 177/179/177 550/561/550 569/580/569 
f 570/581/570 569/580/569 550/561/550 548/559/548 
f 569/580/569 570/581/570 469/480/469 571/582/571 
f 472/483/472 570/581/570 548/559/548 546/557/546 
f 470/481/470 469/480/469 570/581/570 472/483/472 
f 572/583/572 571/582/571 573/584/573 574/585/574 
f 569/580/569 571/582/571 572/583/572 175/177/175 
f 467/478/467 573/584/573 571/582/571 469/480/469 
f 575/586/575 572/583/572 574/585/574 448/459/448 
f 176/178/176 175/177/175 572/583/572 575/586/575 
f 444/455/444 575/586/575 448/459/448 443/454/443 
f 176/178/176 575/586/575 444/455/444 75/77/75 
f 448/459/448 574/585/574 452/463/452 447/458/447 
f 576/587/576 452/463/452 574/585/574 573/584/573 
f 453/464/453 452/463/452 576/587/576 458/469/458 
f 466/477/466 576/587/576 573/584/573 467/478/467 
f 458/469/458 576/587/576 466/477/466 463/474/463 
f 473/484/473 472/483/472 546/557/546 545/556/545 
f 218/220/218 473/484/473 545/556/545 219/221/219 
f 166/168/166 539/550/539 541/552/541 169/171/169 
f 533/544/533 539/550/539 166/168/166 165/167/165 
f 486/497/486 484/495/484 535/546/535 489/500/489 
f 531/542/531 533/544/533 165/167/165 530/541/530 
f 10/10/10 516/527/516 519/530/519 60/62/60 
f 577/588/577 578/589/578 461/472/461 191/590/191 
f 455/466/455 461/472/461 578/589/578 456/467/456 
f 191/590/191 461/472/461 460/471/460 188/591/188 
f 579/592/579 580/593/580 578/589/578 577/588/577 
f 456/467/456 578/589/578 580/593/580 581/594/581 
f 582/595/582 581/594/581 580/593/580 583/596/583 
f 450/461/450 581/594/581 582/595/582 584/597/584 
f 456/467/456 581/594/581 450/461/450 451/462/451 
f 585/598/585 586/599/586 584/597/584 582/595/582 
f 129/131/129 584/597/584 586/599/586 126/128/126 
f 446/457/446 450/461/450 584/597/584 129/131/129 
f 587/600/587 586/599/586 585/598/585 588/601/588 
f 127/129/127 126/128/126 586/599/586 587/600/587 
f 46/48/46 587/600/587 588/601/588 45/47/45 
f 589/602/589 127/129/127 587/600/587 46/48/46 
f 590/603/590 589/602/589 46/48/46 37/37/37 
f 183/185/183 178/180/178 589/602/589 590/603/590 
f 127/129/127 589/602/589 178/180/178 124/126/124 
f 591/604/591 590/603/590 37/37/37 40/40/40 
f 592/605/592 183/185/183 590/603/590 591/604/591 
f 593/606/593 594/607/594 592/608/592 591/609/591 
f 595/610/595 596/611/596 592/608/592 594/607/594 
f 181/183/181 183/185/183 592/605/592 596/612/596 
f 426/433/426 425/432/425 596/611/596 595/610/595 
f 182/184/182 181/183/181 596/612/596 425/438/425 
f 597/613/597 595/610/595 594/607/594 598/614/598 
f 599/615/599 426/433/426 595/610/595 597/613/597 
f 117/119/117 599/615/599 597/613/597 121/123/121 
f 120/122/120 421/428/421 599/615/599 117/119/117 
f 426/433/426 599/615/599 421/428/421 420/427/420 
f 121/123/121 597/613/597 598/614/598 600/616/600 
f 601/617/601 600/616/600 602/618/602 603/619/603 
f 122/124/122 121/123/121 600/616/600 601/617/601 
f 604/620/604 602/618/602 600/616/600 598/614/598 
f 605/621/605 602/618/602 604/620/604 606/622/606 
f 593/606/593 604/620/604 598/614/598 594/607/594 
f 606/622/606 604/620/604 593/606/593 607/623/607 
f 608/624/608 606/622/606 607/623/607 609/625/609 
f 591/609/591 40/626/40 607/623/607 593/606/593 
f 609/625/609 607/623/607 40/626/40 39/42/39 
f 610/627/610 608/624/608 86/88/86 87/89/87 
f 606/622/606 608/624/608 610/627/610 605/621/605 
f 86/88/86 608/624/608 609/625/609 85/87/85 
f 611/628/611 610/627/610 87/89/87 612/629/612 
f 605/621/605 610/627/610 611/628/611 613/630/613 
f 614/631/614 116/118/116 613/630/613 611/628/611 
f 603/619/603 613/630/613 116/118/116 115/117/115 
f 605/621/605 613/630/613 603/619/603 602/618/602 
f 612/629/612 615/632/615 614/631/614 611/628/611 
f 616/633/616 617/634/617 614/631/614 615/632/615 
f 116/118/116 614/631/614 617/634/617 113/115/113 
f 404/411/404 618/635/618 617/634/617 616/633/616 
f 113/115/113 617/634/617 618/635/618 110/112/110 
f 403/410/403 407/414/407 618/635/618 404/411/404 
f 619/636/619 110/112/110 618/635/618 407/414/407 
f 111/113/111 110/112/110 619/636/619 620/637/620 
f 411/418/411 619/636/619 407/414/407 406/413/406 
f 621/638/621 620/637/620 619/636/619 411/418/411 
f 620/637/620 621/638/621 119/121/119 123/125/123 
f 416/423/416 621/638/621 411/418/411 410/417/410 
f 120/122/120 119/121/119 621/638/621 416/423/416 
f 111/113/111 620/637/620 123/125/123 114/116/114 
f 622/639/622 616/633/616 615/632/615 623/640/623 
f 402/409/402 404/411/404 616/633/616 622/639/622 
f 624/641/624 622/639/622 623/640/623 95/97/95 
f 402/409/402 622/639/622 624/641/624 396/403/396 
f 391/398/391 624/641/624 95/97/95 89/91/89 
f 396/403/396 624/641/624 391/398/391 390/397/390 
f 625/642/625 623/640/623 615/632/615 612/629/612 
f 95/97/95 623/640/623 625/642/625 94/96/94 
f 81/83/81 625/642/625 612/629/612 87/89/87 
f 84/86/84 94/96/94 625/642/625 81/83/81 
f 85/87/85 609/625/609 39/42/39 41/41/41 
f 114/116/114 601/617/601 603/619/603 115/117/115 
f 122/124/122 601/617/601 114/116/114 123/125/123 
f 45/47/45 588/601/588 626/643/626 43/45/43 
f 627/644/627 626/643/626 588/601/588 585/598/585 
f 626/643/626 627/644/627 239/645/239 240/646/240 
f 583/596/583 627/644/627 585/598/585 582/595/582 
f 241/647/241 239/645/239 627/644/627 583/596/583 
f 628/648/628 43/45/43 626/643/626 240/646/240 
f 136/138/136 629/649/629 628/650/628 630/651/630 
f 43/652/43 628/650/628 629/649/629 44/653/44 
f 630/651/630 628/650/628 240/242/240 238/240/238 
f 631/654/631 629/649/629 136/138/136 135/137/135 
f 78/80/78 44/653/44 629/649/629 631/654/631 
f 91/93/91 631/654/631 135/137/135 88/90/88 
f 79/81/79 78/80/78 631/654/631 91/93/91 
f 133/135/133 136/138/136 630/651/630 632/655/632 
f 632/655/632 630/651/630 238/240/238 237/239/237 
f 384/391/384 632/655/632 237/239/237 379/386/379 
f 134/136/134 133/135/133 632/655/632 384/391/384 
f 241/647/241 583/596/583 580/593/580 579/592/579 
f 197/199/197 241/243/241 579/656/579 202/204/202 
f 202/204/202 579/656/579 577/657/577 633/658/633 
f 201/203/201 202/204/202 633/658/633 205/207/205 
f 191/193/191 190/192/190 633/658/633 577/657/577 
f 205/207/205 633/658/633 190/192/190 192/194/192 
f 188/591/188 460/471/460 249/255/249 194/254/194 
f 75/77/75 444/455/444 441/452/441 36/36/36 
f 36/36/36 441/452/441 31/31/31 28/28/28 
f 435/446/435 634/659/634 438/449/438 436/447/436 
f 635/660/635 438/449/438 634/659/634 162/164/162 
f 48/50/48 438/449/438 635/660/635 47/49/47 
f 163/165/163 636/661/636 635/660/635 162/164/162 
f 47/49/47 635/660/635 636/661/636 49/51/49 
f 49/51/49 636/661/636 637/662/637 638/663/638 
f 164/166/164 637/662/637 636/661/636 163/165/163 
f 55/57/55 638/663/638 639/664/639 52/54/52 
f 50/52/50 49/51/49 638/663/638 55/57/55 
f 640/665/640 639/664/639 638/663/638 637/662/637 
f 639/664/639 640/665/640 641/666/641 642/667/642 
f 643/668/643 640/665/640 637/662/637 164/166/164 
f 644/669/644 641/666/641 640/665/640 643/668/643 
f 645/670/645 641/666/641 644/669/644 12/12/12 
f 646/671/646 644/669/644 643/668/643 647/672/647 
f 12/12/12 644/669/644 646/671/646 13/13/13 
f 97/99/97 96/98/96 646/671/646 647/672/647 
f 13/13/13 646/671/646 96/98/96 19/19/19 
f 164/166/164 159/161/159 647/672/647 643/668/643 
f 101/103/101 97/99/97 647/672/647 159/161/159 
f 648/673/648 649/674/649 645/670/645 650/675/650 
f 642/667/642 641/666/641 645/670/645 649/674/649 
f 650/675/650 645/670/645 12/12/12 15/15/15 
f 3/3/3 6/6/6 649/674/649 648/673/648 
f 58/60/58 642/667/642 649/674/649 6/6/6 
f 651/676/651 648/673/648 650/675/650 398/405/398 
f 4/4/4 3/3/3 648/673/648 651/676/651 
f 393/400/393 651/676/651 398/405/398 392/399/392 
f 65/67/65 4/4/4 651/676/651 393/400/393 
f 397/404/397 398/405/398 650/675/650 15/15/15 
f 52/54/52 639/664/639 642/667/642 58/60/58 
f 652/677/652 634/659/634 435/446/435 653/678/653 
f 161/163/161 162/164/162 634/659/634 652/677/652 
f 100/102/100 652/677/652 653/678/653 102/104/102 
f 101/103/101 161/163/161 652/677/652 100/102/100 
f 654/679/654 102/104/102 653/678/653 655/680/655 
f 434/445/434 655/680/655 653/678/653 435/446/435 
f 656/681/656 657/682/657 654/679/654 658/683/658 
f 102/104/102 654/679/654 657/682/657 99/101/99 
f 658/683/658 654/679/654 655/680/655 659/684/659 
f 103/105/103 658/683/658 659/684/659 104/106/104 
f 434/445/434 432/443/432 659/684/659 655/680/655 
f 104/106/104 659/684/659 432/443/432 107/109/107 
f 18/18/18 19/19/19 657/682/657 656/681/656 
f 99/101/99 657/682/657 19/19/19 96/98/96 
f 18/18/18 656/681/656 660/685/660 16/16/16 
f 660/685/660 656/681/656 658/683/658 103/105/103 
f 16/16/16 660/685/660 661/686/661 413/420/413 
f 661/686/661 660/685/660 103/105/103 106/108/106 
f 413/420/413 661/686/661 418/425/418 412/419/412 
f 109/111/109 418/425/418 661/686/661 106/108/106 
f 109/111/109 108/110/108 429/440/429 423/439/423 
f 418/425/418 109/111/109 423/430/423 417/424/417 
f 416/423/416 415/422/415 421/428/421 120/122/120 
f 17/17/17 16/16/16 413/420/413 408/415/408 
f 232/234/232 65/67/65 393/400/393 388/395/388 
f 93/95/93 387/394/387 391/398/391 89/91/89 
f 134/136/134 385/392/385 93/95/93 92/94/92 
f 70/72/70 380/387/380 370/377/370 69/71/69 
f 235/237/235 376/383/376 379/386/379 237/239/237 
f 662/687/662 278/285/278 336/343/336 335/342/335 
f 663/688/663 662/687/662 335/342/335 664/689/664 
f 665/690/665 281/288/281 662/687/662 663/688/663 
f 278/285/278 662/687/662 281/288/281 277/284/277 
f 666/691/666 665/690/665 663/688/663 144/146/144 
f 287/294/287 285/292/285 665/690/665 666/691/666 
f 281/288/281 665/690/665 285/292/285 280/287/280 
f 667/692/667 666/691/666 144/146/144 147/149/147 
f 291/298/291 287/294/287 666/691/666 667/692/667 
f 668/693/668 667/692/667 147/149/147 148/150/148 
f 293/300/293 291/298/291 667/692/667 668/693/668 
f 669/694/669 668/693/668 148/150/148 670/695/670 
f 295/302/295 293/300/293 668/693/668 669/694/669 
f 137/139/137 669/694/669 670/695/670 671/696/671 
f 140/142/140 295/302/295 669/694/669 137/139/137 
f 316/323/316 671/696/671 321/328/321 315/322/315 
f 138/140/138 137/139/137 671/696/671 316/323/316 
f 672/697/672 321/328/321 671/696/671 670/695/670 
f 321/328/321 672/697/672 326/333/326 320/327/320 
f 149/151/149 672/697/672 670/695/670 148/150/148 
f 150/152/150 326/333/326 672/697/672 149/151/149 
f 145/147/145 144/146/144 663/688/663 664/689/664 
f 330/337/330 664/689/664 335/342/335 331/338/331 
f 150/152/150 145/147/145 664/689/664 330/337/330 
f 150/152/150 330/337/330 325/332/325 326/333/326 
f 141/143/141 138/140/138 316/323/316 311/318/311 
f 141/143/141 307/314/307 298/305/298 142/144/142 
f 212/214/212 211/213/211 257/263/257 255/261/255 
f 215/217/215 212/214/212 255/261/255 253/259/253 
f 195/197/195 194/196/194 243/245/243 242/244/242 
f 200/202/200 210/212/210 236/238/236 199/201/199 
f 73/75/73 174/176/174 176/178/176 75/77/75 
f 74/76/74 171/173/171 174/176/174 73/75/73 
f 80/82/80 90/92/90 94/96/94 84/86/84 
f 80/82/80 79/81/79 91/93/91 90/92/90 
f 83/85/83 85/87/85 41/41/41 77/79/77 
f 77/79/77 80/82/80 84/86/84 83/85/83 
f 44/653/44 78/80/78 42/44/42 38/43/38 
f 51/53/51 50/52/50 55/57/55 54/56/54 
f 64/66/64 63/65/63 65/67/65 234/236/234 
# 670 polygons

