# 3ds Max Wavefront OBJ Exporter v0.97b - (c)2007 guruware
# File Created: 09.04.2018 17:15:11

#
# object Squareend
#

v  -17.1055 8.7613 12.0015
v  -17.1055 8.7613 6.1094
v  -17.1055 2.8692 6.1094
v  -17.1055 2.8692 12.0015
v  -7.8704 8.7613 12.0015
v  -7.8704 2.8692 12.0015
v  -7.8704 2.8692 6.1094
v  -7.8704 8.7613 6.1094
v  -15.4340 8.7613 13.6730
v  -15.4340 2.8692 13.6730
v  -9.5419 2.8692 13.6730
v  -9.5419 8.7613 13.6730
v  -15.4340 1.1977 12.0015
v  -15.4340 1.1977 6.1094
v  -9.5419 1.1977 6.1094
v  -9.5419 1.1977 12.0015
v  -15.4340 2.8692 4.4379
v  -15.4340 8.7613 4.4379
v  -9.5419 8.7613 4.4379
v  -9.5419 2.8692 4.4379
v  -15.4340 10.4329 6.1094
v  -15.4340 10.4329 12.0015
v  -9.5419 10.4329 12.0015
v  -9.5419 10.4329 6.1094
v  -17.9717 11.2990 14.5392
v  -17.9717 11.2990 3.5717
v  -17.9717 9.3486 5.5222
v  -17.9717 9.3486 12.5887
v  -17.9717 0.3316 3.5717
v  -17.9717 2.2820 5.5222
v  -17.9717 0.3316 14.5392
v  -17.9717 2.2820 12.5887
v  -7.0042 11.2990 14.5392
v  -7.0042 0.3315 14.5392
v  -7.0042 2.2820 12.5887
v  -7.0042 9.3486 12.5887
v  -7.0042 0.3315 3.5717
v  -7.0042 2.2820 5.5222
v  -7.0042 11.2990 3.5717
v  -7.0042 9.3486 5.5222
v  -16.0212 2.2820 14.5392
v  -16.0212 9.3486 14.5392
v  -8.9547 2.2820 14.5392
v  -8.9547 9.3486 14.5392
v  -16.0212 0.3315 5.5222
v  -16.0212 0.3315 12.5887
v  -8.9547 0.3315 5.5222
v  -8.9547 0.3315 12.5887
v  -16.0212 9.3486 3.5717
v  -16.0212 2.2820 3.5717
v  -8.9547 9.3486 3.5717
v  -8.9547 2.2820 3.5717
v  -16.0212 11.2990 12.5887
v  -16.0212 11.2990 5.5222
v  -8.9547 11.2990 12.5887
v  -8.9547 11.2990 5.5222
# 56 vertices

vt 0.7699 0.7111 0.0000
vt 0.7712 0.6511 0.0000
vt 0.8306 0.6510 0.0000
vt 0.8290 0.7091 0.0000
vt 0.7711 0.8974 0.0000
vt 0.8291 0.8983 0.0000
vt 0.8290 0.9565 0.0000
vt 0.7710 0.9556 0.0000
vt 0.7715 0.7751 0.0000
vt 0.8301 0.7756 0.0000
vt 0.8286 0.8341 0.0000
vt 0.7698 0.8337 0.0000
vt 0.8944 0.7756 0.0000
vt 0.9529 0.7778 0.0000
vt 0.9516 0.8364 0.0000
vt 0.8931 0.8342 0.0000
vt 0.5247 0.7727 0.0000
vt 0.5831 0.7747 0.0000
vt 0.5826 0.8333 0.0000
vt 0.5241 0.8313 0.0000
vt 0.6466 0.7733 0.0000
vt 0.7061 0.7749 0.0000
vt 0.7059 0.8336 0.0000
vt 0.6484 0.8319 0.0000
vt 0.7381 0.7425 0.0000
vt 0.7385 0.6189 0.0000
vt 0.7596 0.6405 0.0000
vt 0.7598 0.7214 0.0000
vt 0.8630 0.6177 0.0000
vt 0.8412 0.6392 0.0000
vt 0.8624 0.7431 0.0000
vt 0.8411 0.7212 0.0000
vt 0.7387 0.8659 0.0000
vt 0.8606 0.8661 0.0000
vt 0.8394 0.8869 0.0000
vt 0.7596 0.8871 0.0000
vt 0.8614 0.9880 0.0000
vt 0.8405 0.9668 0.0000
vt 0.7395 0.9878 0.0000
vt 0.7607 0.9670 0.0000
vt 0.8406 0.7641 0.0000
vt 0.7601 0.7646 0.0000
vt 0.8399 0.8446 0.0000
vt 0.7592 0.8454 0.0000
vt 0.9854 0.7459 0.0000
vt 0.9635 0.7665 0.0000
vt 0.8831 0.7650 0.0000
vt 0.9836 0.8689 0.0000
vt 0.9629 0.8470 0.0000
vt 0.8825 0.8455 0.0000
vt 0.4927 0.7412 0.0000
vt 0.6157 0.7418 0.0000
vt 0.5936 0.7635 0.0000
vt 0.5131 0.7620 0.0000
vt 0.6146 0.8648 0.0000
vt 0.5941 0.8440 0.0000
vt 0.4916 0.8642 0.0000
vt 0.5136 0.8425 0.0000
vt 0.7166 0.7634 0.0000
vt 0.6365 0.7633 0.0000
vt 0.7175 0.8442 0.0000
vt 0.6363 0.8438 0.0000
# 62 texture coords

g Squareend
f 1/1 2/2 3/3 4/4 
f 5/5 6/6 7/7 8/8 
f 9/9 10/10 11/11 12/12 
f 13/13 14/14 15/15 16/16 
f 17/17 18/18 19/19 20/20 
f 21/21 22/22 23/23 24/24 
f 25/25 26/26 27/27 28/28 
f 26/26 29/29 30/30 27/27 
f 29/29 31/31 32/32 30/30 
f 31/31 25/25 28/28 32/32 
f 33/33 34/34 35/35 36/36 
f 34/34 37/37 38/38 35/35 
f 37/37 39/39 40/40 38/38 
f 39/39 33/33 36/36 40/40 
f 25/25 31/31 41/41 42/42 
f 31/31 34/34 43/43 41/41 
f 34/34 33/33 44/44 43/43 
f 33/33 25/25 42/42 44/44 
f 31/31 29/45 45/46 46/47 
f 29/45 37/48 47/49 45/46 
f 37/48 34/34 48/50 47/49 
f 34/34 31/31 46/47 48/50 
f 29/51 26/52 49/53 50/54 
f 26/52 39/55 51/56 49/53 
f 39/55 37/57 52/58 51/56 
f 37/57 29/51 50/54 52/58 
f 26/52 25/25 53/59 54/60 
f 25/25 33/33 55/61 53/59 
f 33/33 39/55 56/62 55/61 
f 39/55 26/52 54/60 56/62 
f 28/28 27/27 2/2 1/1 
f 27/27 30/30 3/3 2/2 
f 30/30 32/32 4/4 3/3 
f 32/32 28/28 1/1 4/4 
f 36/36 35/35 6/6 5/5 
f 35/35 38/38 7/7 6/6 
f 38/38 40/40 8/8 7/7 
f 40/40 36/36 5/5 8/8 
f 42/42 41/41 10/10 9/9 
f 41/41 43/43 11/11 10/10 
f 43/43 44/44 12/12 11/11 
f 44/44 42/42 9/9 12/12 
f 46/47 45/46 14/14 13/13 
f 45/46 47/49 15/15 14/14 
f 47/49 48/50 16/16 15/15 
f 48/50 46/47 13/13 16/16 
f 50/54 49/53 18/18 17/17 
f 49/53 51/56 19/19 18/18 
f 51/56 52/58 20/20 19/19 
f 52/58 50/54 17/17 20/20 
f 54/60 53/59 22/22 21/21 
f 53/59 55/61 23/23 22/22 
f 55/61 56/62 24/24 23/23 
f 56/62 54/60 21/21 24/24 
# 54 polygons

