# 3ds Max Wavefront OBJ Exporter v0.97b - (c)2007 guruware
# File Created: 09.04.2018 17:17:07

#
# object Vertical
#

v  -35.7278 57.2029 -0.1584
v  -41.1001 57.2029 -0.1584
v  -41.1001 0.0024 -0.1584
v  -35.7278 0.0024 -0.1584
v  -42.6242 57.2029 -1.6824
v  -42.6242 57.2029 -7.0548
v  -42.6242 0.0024 -7.0548
v  -42.6242 0.0024 -1.6824
v  -41.1001 57.2029 -8.5788
v  -35.7278 57.2029 -8.5788
v  -35.7278 0.0024 -8.5788
v  -41.1001 0.0024 -8.5788
v  -34.2037 57.2029 -7.0548
v  -34.2037 57.2029 -1.6824
v  -34.2037 0.0024 -1.6824
v  -34.2037 0.0024 -7.0548
v  -43.4140 57.2029 0.6314
v  -43.4140 0.0024 0.6314
v  -41.6356 0.0024 0.6314
v  -41.6356 57.2029 0.6314
v  -33.4140 0.0024 0.6314
v  -33.4140 57.2029 0.6314
v  -35.1924 57.2029 0.6314
v  -35.1924 0.0024 0.6314
v  -43.4140 57.2029 -9.3686
v  -43.4140 0.0024 -9.3686
v  -43.4140 0.0024 -7.5902
v  -43.4140 57.2029 -7.5902
v  -43.4140 57.2029 -1.1470
v  -43.4140 0.0024 -1.1470
v  -33.4140 57.2029 -9.3686
v  -33.4140 0.0024 -9.3686
v  -35.1924 0.0024 -9.3686
v  -35.1924 57.2029 -9.3686
v  -41.6356 57.2029 -9.3686
v  -41.6356 0.0024 -9.3686
v  -33.4140 0.0024 -1.1470
v  -33.4140 57.2029 -1.1470
v  -33.4140 57.2029 -7.5902
v  -33.4140 0.0024 -7.5902
# 40 vertices

vt 0.1541 0.0052 0.0000
vt 0.2114 0.0052 0.0000
vt 0.2113 0.6153 0.0000
vt 0.1540 0.6153 0.0000
vt 0.2706 0.0052 0.0000
vt 0.3279 0.0052 0.0000
vt 0.3278 0.6153 0.0000
vt 0.2705 0.6153 0.0000
vt 0.3871 0.0052 0.0000
vt 0.4444 0.0052 0.0000
vt 0.4444 0.6153 0.0000
vt 0.3871 0.6153 0.0000
vt 0.0375 0.0052 0.0000
vt 0.0948 0.0052 0.0000
vt 0.0947 0.6153 0.0000
vt 0.0374 0.6153 0.0000
vt 0.2410 0.0052 0.0000
vt 0.2409 0.6153 0.0000
vt 0.2219 0.6153 0.0000
vt 0.2220 0.0052 0.0000
vt 0.1244 0.6153 0.0000
vt 0.1245 0.0052 0.0000
vt 0.1434 0.0052 0.0000
vt 0.1433 0.6153 0.0000
vt 0.3575 0.0052 0.0000
vt 0.3574 0.6153 0.0000
vt 0.3385 0.6153 0.0000
vt 0.3386 0.0052 0.0000
vt 0.2600 0.0052 0.0000
vt 0.2599 0.6153 0.0000
vt 0.4741 0.0052 0.0000
vt 0.4740 0.6153 0.0000
vt 0.4550 0.6153 0.0000
vt 0.4551 0.0052 0.0000
vt 0.3765 0.0052 0.0000
vt 0.3764 0.6153 0.0000
vt 0.1054 0.6153 0.0000
vt 0.1055 0.0052 0.0000
vt 0.0078 0.6153 0.0000
vt 0.0079 0.0052 0.0000
vt 0.0269 0.0052 0.0000
vt 0.0268 0.6153 0.0000
# 42 texture coords

g Vertical
f 1/1 2/2 3/3 4/4 
f 5/5 6/6 7/7 8/8 
f 9/9 10/10 11/11 12/12 
f 13/13 14/14 15/15 16/16 
f 17/17 18/18 19/19 20/20 
f 21/21 22/22 23/23 24/24 
f 25/25 26/26 27/27 28/28 
f 18/18 17/17 29/29 30/30 
f 31/31 32/32 33/33 34/34 
f 26/26 25/25 35/35 36/36 
f 22/22 21/21 37/37 38/38 
f 32/39 31/40 39/41 40/42 
f 20/20 19/19 3/3 2/2 
f 24/24 23/23 1/1 4/4 
f 28/28 27/27 7/7 6/6 
f 30/30 29/29 5/5 8/8 
f 34/34 33/33 11/11 10/10 
f 36/36 35/35 9/9 12/12 
f 38/38 37/37 15/15 14/14 
f 40/42 39/41 13/13 16/16 
# 20 polygons

